%YAML 1.1
%TAG !u! tag:unity3d.com,2011:
--- !u!114 &11400000
MonoBehaviour:
  m_ObjectHideFlags: 0
  m_PrefabParentObject: {fileID: 0}
  m_PrefabInternal: {fileID: 0}
  m_GameObject: {fileID: 0}
  m_Enabled: 1
  m_EditorHideFlags: 0
  m_Script: {fileID: 11500000, guid: 0c9fa30e000f3420796cfbd1e09a86d6, type: 3}
  m_Name: sun.fla.sun_stat_end
  m_EditorClassIdentifier: 
  Name: sun_stat_end
  Sprite: {fileID: 21300000, guid: cf6b60e36d24a41228072b54f1d2e48f, type: 3}
  FrameRate: 30
  AssetGUID: 49071681e8b334584a91b6ad9263e747
  Sequences:
  - Name: Default
    Frames:
    - Labels: []
      MeshData:
        SubMeshes:
        - StartVertex: 0
          IndexCount: 18
        Vertices:
        - {x: -0.973, y: 0.48300004}
        - {x: 2.0383084, y: 0.48300004}
        - {x: 2.0383084, y: -1.9829735}
        - {x: -0.973, y: -1.9829735}
        - {x: 0.001, y: -0.0006666667}
        - {x: 1.5014101, y: -0.0006666667}
        - {x: 1.5014101, y: -1.4891015}
        - {x: 0.001, y: -1.4891015}
        - {x: 0.14733334, y: -0.9666667}
        - {x: 0.614, y: -0.9666667}
        - {x: 0.614, y: -1.0933334}
        - {x: 0.14733334, y: -1.0933334}
        UVs: 000000003f5f3f747f5f0000ff98ff397f2cbfe53f313ff7
        AddColors: 000000000000000000000000000000000000000000000000
        MulColors: 000200020002000200020002000200020002000200020002
      Materials:
      - {fileID: 2100000, guid: d58d9a5e482e8429f8d7d18a9538d94a, type: 2}
    - Labels: []
      MeshData:
        SubMeshes:
        - StartVertex: 0
          IndexCount: 18
        Vertices:
        - {x: -0.973, y: 0.48300004}
        - {x: 2.0383084, y: 0.48300004}
        - {x: 2.0383084, y: -1.9829735}
        - {x: -0.973, y: -1.9829735}
        - {x: 0.001, y: -0.0006666667}
        - {x: 1.5014101, y: -0.0006666667}
        - {x: 1.5014101, y: -1.4891015}
        - {x: 0.001, y: -1.4891015}
        - {x: 0.14733334, y: -0.9666667}
        - {x: 0.614, y: -0.9666667}
        - {x: 0.614, y: -1.0933334}
        - {x: 0.14733334, y: -1.0933334}
        UVs: 000000003f5f3f747f5f0000ff98ff397f2cbfe53f313ff7
        AddColors: 000000000000000000000000000000000000000000000000
        MulColors: 000200020002000200020002000200020002000200020002
      Materials:
      - {fileID: 2100000, guid: d58d9a5e482e8429f8d7d18a9538d94a, type: 2}
    - Labels: []
      MeshData:
        SubMeshes:
        - StartVertex: 0
          IndexCount: 18
        Vertices:
        - {x: -0.973, y: 0.48300004}
        - {x: 2.0383084, y: 0.48300004}
        - {x: 2.0383084, y: -1.9829735}
        - {x: -0.973, y: -1.9829735}
        - {x: 0.001, y: -0.0006666667}
        - {x: 1.5014101, y: -0.0006666667}
        - {x: 1.5014101, y: -1.4891015}
        - {x: 0.001, y: -1.4891015}
        - {x: 0.16566667, y: -0.95000005}
        - {x: 0.63233334, y: -0.95000005}
        - {x: 0.63233334, y: -1.0766667}
        - {x: 0.16566667, y: -1.0766667}
        UVs: 000000003f5f3f747f5f0000ff98ff397f2cbfe53f313ff7
        AddColors: 000000000000000000000000000000000000000000000000
        MulColors: 000200020002000200020002000200020002000200020002
      Materials:
      - {fileID: 2100000, guid: d58d9a5e482e8429f8d7d18a9538d94a, type: 2}
    - Labels: []
      MeshData:
        SubMeshes:
        - StartVertex: 0
          IndexCount: 18
        Vertices:
        - {x: -0.973, y: 0.48300004}
        - {x: 2.0383084, y: 0.48300004}
        - {x: 2.0383084, y: -1.9829735}
        - {x: -0.973, y: -1.9829735}
        - {x: 0.001, y: -0.0006666667}
        - {x: 1.5014101, y: -0.0006666667}
        - {x: 1.5014101, y: -1.4891015}
        - {x: 0.001, y: -1.4891015}
        - {x: 0.22100002, y: -0.90000004}
        - {x: 0.6876667, y: -0.90000004}
        - {x: 0.6876667, y: -1.0266668}
        - {x: 0.22100002, y: -1.0266668}
        UVs: 000000003f5f3f747f5f0000ff98ff397f2cbfe53f313ff7
        AddColors: 000000000000000000000000000000000000000000000000
        MulColors: 000200020002000200020002000200020002000200020002
      Materials:
      - {fileID: 2100000, guid: d58d9a5e482e8429f8d7d18a9538d94a, type: 2}
    - Labels: []
      MeshData:
        SubMeshes:
        - StartVertex: 0
          IndexCount: 18
        Vertices:
        - {x: -0.973, y: 0.48300004}
        - {x: 2.0383084, y: 0.48300004}
        - {x: 2.0383084, y: -1.9829735}
        - {x: -0.973, y: -1.9829735}
        - {x: 0.001, y: -0.0006666667}
        - {x: 1.5014101, y: -0.0006666667}
        - {x: 1.5014101, y: -1.4891015}
        - {x: 0.001, y: -1.4891015}
        - {x: 0.31333333, y: -0.81700003}
        - {x: 0.78000003, y: -0.81700003}
        - {x: 0.78000003, y: -0.9436667}
        - {x: 0.31333333, y: -0.9436667}
        UVs: 000000003f5f3f747f5f0000ff98ff397f2cbfe53f313ff7
        AddColors: 000000000000000000000000000000000000000000000000
        MulColors: 000200020002000200020002000200020002000200020002
      Materials:
      - {fileID: 2100000, guid: d58d9a5e482e8429f8d7d18a9538d94a, type: 2}
    - Labels: []
      MeshData:
        SubMeshes:
        - StartVertex: 0
          IndexCount: 18
        Vertices:
        - {x: -0.973, y: 0.48300004}
        - {x: 2.0383084, y: 0.48300004}
        - {x: 2.0383084, y: -1.9829735}
        - {x: -0.973, y: -1.9829735}
        - {x: 0.001, y: -0.0006666667}
        - {x: 1.5014101, y: -0.0006666667}
        - {x: 1.5014101, y: -1.4891015}
        - {x: 0.001, y: -1.4891015}
        - {x: 0.455, y: -0.6380001}
        - {x: 0.9563099, y: -0.6380001}
        - {x: 0.9563099, y: -1.0006523}
        - {x: 0.455, y: -1.0006523}
        UVs: 000000003f5f3f747f5f0000ff98ff39ff12bfe5ff20fff8
        AddColors: 000000000000000000000000000000000000000000000000
        MulColors: 000200020002000200020002000200020002000200020002
      Materials:
      - {fileID: 2100000, guid: d58d9a5e482e8429f8d7d18a9538d94a, type: 2}
    - Labels: []
      MeshData:
        SubMeshes:
        - StartVertex: 0
          IndexCount: 18
        Vertices:
        - {x: -0.9953334, y: 0.49499345}
        - {x: 2.0603158, y: 0.49499345}
        - {x: 2.0603158, y: -1.9952875}
        - {x: -0.9953334, y: -1.9952875}
        - {x: -0.0066519417, y: 0.0066600954}
        - {x: 1.5158514, y: 0.0066600954}
        - {x: 1.5158514, y: -1.4964465}
        - {x: -0.0066519417, y: -1.4964465}
        - {x: 0.45388794, y: -0.63684595}
        - {x: 0.96257955, y: -0.63684595}
        - {x: 0.96257955, y: -1.0030729}
        - {x: 0.45388794, y: -1.0030729}
        UVs: 000000003f5f3f747f5f0000ff98ff39ff12bfe5ff20fff8
        AddColors: 000000000000000000000000000000000000000000000000
        MulColors: 000200020002000200020002000200020002000200020002
      Materials:
      - {fileID: 2100000, guid: d58d9a5e482e8429f8d7d18a9538d94a, type: 2}
    - Labels: []
      MeshData:
        SubMeshes:
        - StartVertex: 0
          IndexCount: 18
        Vertices:
        - {x: -1.0170001, y: 0.50698686}
        - {x: 2.0829897, y: 0.50698686}
        - {x: 2.0829897, y: -2.0076017}
        - {x: -1.0170001, y: -2.0076017}
        - {x: -0.014637216, y: 0.013986858}
        - {x: 1.5299593, y: 0.013986858}
        - {x: 1.5299593, y: -1.5037916}
        - {x: -0.014637216, y: -1.5037916}
        - {x: 0.4524426, y: -0.6356918}
        - {x: 0.9685158, y: -0.6356918}
        - {x: 0.9685158, y: -1.0054934}
        - {x: 0.4524426, y: -1.0054934}
        UVs: 000000003f5f3f747f5f0000ff98ff39ff12bfe5ff20fff8
        AddColors: 000000000000000000000000000000000000000000000000
        MulColors: 000200020002000200020002000200020002000200020002
      Materials:
      - {fileID: 2100000, guid: d58d9a5e482e8429f8d7d18a9538d94a, type: 2}
    - Labels: []
      MeshData:
        SubMeshes:
        - StartVertex: 0
          IndexCount: 18
        Vertices:
        - {x: -1.0020001, y: 0.49899125}
        - {x: 2.0684445, y: 0.49899125}
        - {x: 2.0684445, y: -1.9993796}
        - {x: -1.0020001, y: -1.9993796}
        - {x: -0.009313695, y: 0.009324575}
        - {x: 1.5205618, y: 0.009324575}
        - {x: 1.5205618, y: -1.4986651}
        - {x: -0.009313695, y: -1.4986651}
        - {x: 0.45307302, y: -0.63668317}
        - {x: 0.96422774, y: -0.63668317}
        - {x: 0.96422774, y: -1.0040998}
        - {x: 0.45307302, y: -1.0040998}
        UVs: 000000003f5f3f747f5f0000ff98ff39ff12bfe5ff20fff8
        AddColors: 000000000000000000000000000000000000000000000000
        MulColors: 000200020002000200020002000200020002000200020002
      Materials:
      - {fileID: 2100000, guid: d58d9a5e482e8429f8d7d18a9538d94a, type: 2}
    - Labels: []
      MeshData:
        SubMeshes:
        - StartVertex: 0
          IndexCount: 18
        Vertices:
        - {x: -0.9873334, y: 0.49099565}
        - {x: 2.0535202, y: 0.49099565}
        - {x: 2.0535202, y: -1.9911954}
        - {x: -0.9873334, y: -1.9911954}
        - {x: -0.004323522, y: 0.0039956155}
        - {x: 1.5108079, y: 0.0039956155}
        - {x: 1.5108079, y: -1.494228}
        - {x: -0.004323522, y: -1.494228}
        - {x: 0.45403627, y: -0.6370086}
        - {x: 0.9602647, y: -0.6370086}
        - {x: 0.9602647, y: -1.0020458}
        - {x: 0.45403627, y: -1.0020458}
        UVs: 000000003f5f3f747f5f0000ff98ff39ff12bfe5ff20fff8
        AddColors: 000000000000000000000000000000000000000000000000
        MulColors: 000200020002000200020002000200020002000200020002
      Materials:
      - {fileID: 2100000, guid: d58d9a5e482e8429f8d7d18a9538d94a, type: 2}
    - Labels: []
      MeshData:
        SubMeshes:
        - StartVertex: 0
          IndexCount: 18
        Vertices:
        - {x: -0.973, y: 0.48300004}
        - {x: 2.0383084, y: 0.48300004}
        - {x: 2.0383084, y: -1.9829735}
        - {x: -0.973, y: -1.9829735}
        - {x: 0.001, y: -0.0006666667}
        - {x: 1.5014101, y: -0.0006666667}
        - {x: 1.5014101, y: -1.4891015}
        - {x: 0.001, y: -1.4891015}
        - {x: 0.455, y: -0.6380001}
        - {x: 0.9563099, y: -0.6380001}
        - {x: 0.9563099, y: -1.0006523}
        - {x: 0.455, y: -1.0006523}
        UVs: 000000003f5f3f747f5f0000ff98ff39ff12bfe5ff20fff8
        AddColors: 000000000000000000000000000000000000000000000000
        MulColors: 000200020002000200020002000200020002000200020002
      Materials:
      - {fileID: 2100000, guid: d58d9a5e482e8429f8d7d18a9538d94a, type: 2}
    - Labels: []
      MeshData:
        SubMeshes:
        - StartVertex: 0
          IndexCount: 18
        Vertices:
        - {x: -0.973, y: 0.48300004}
        - {x: 2.0383084, y: 0.48300004}
        - {x: 2.0383084, y: -1.9829735}
        - {x: -0.973, y: -1.9829735}
        - {x: 0.001, y: -0.0006666667}
        - {x: 1.5014101, y: -0.0006666667}
        - {x: 1.5014101, y: -1.4891015}
        - {x: 0.001, y: -1.4891015}
        - {x: 0.455, y: -0.6380001}
        - {x: 0.9563099, y: -0.6380001}
        - {x: 0.9563099, y: -1.0006523}
        - {x: 0.455, y: -1.0006523}
        UVs: 000000003f5f3f747f5f0000ff98ff39ff12bfe5ff20fff8
        AddColors: 000000000000000000000000000000000000000000000000
        MulColors: 000200020002000200020002000200020002000200020002
      Materials:
      - {fileID: 2100000, guid: d58d9a5e482e8429f8d7d18a9538d94a, type: 2}
