%YAML 1.1
%TAG !u! tag:unity3d.com,2011:
--- !u!114 &11400000
MonoBehaviour:
  m_ObjectHideFlags: 0
  m_PrefabParentObject: {fileID: 0}
  m_PrefabInternal: {fileID: 0}
  m_GameObject: {fileID: 0}
  m_Enabled: 1
  m_EditorHideFlags: 0
  m_Script: {fileID: 11500000, guid: 0c9fa30e000f3420796cfbd1e09a86d6, type: 3}
  m_Name: sun.fla._Stage_
  m_EditorClassIdentifier: 
  Name: _Stage_
  Sprite: {fileID: 21300000, guid: cf6b60e36d24a41228072b54f1d2e48f, type: 3}
  FrameRate: 30
  AssetGUID: 49071681e8b334584a91b6ad9263e747
  Sequences:
  - Name: Default
    Frames:
    - Labels: []
      MeshData:
        SubMeshes:
        - StartVertex: 0
          IndexCount: 42
        Vertices:
        - {x: 0, y: -1.294}
        - {x: 3.0133336, y: -1.294}
        - {x: 3.0133336, y: -3.7606668}
        - {x: 0, y: -3.7606668}
        - {x: 2.9273334, y: -1.1666667}
        - {x: 5.938642, y: -1.1666667}
        - {x: 5.938642, y: -3.6326401}
        - {x: 2.9273334, y: -3.6326401}
        - {x: 3.9013336, y: -1.6503334}
        - {x: 5.401744, y: -1.6503334}
        - {x: 5.401744, y: -3.1387682}
        - {x: 3.9013336, y: -3.1387682}
        - {x: 4.047667, y: -2.6163335}
        - {x: 4.5143337, y: -2.6163335}
        - {x: 4.5143337, y: -2.7430003}
        - {x: 4.047667, y: -2.7430003}
        - {x: 5.649, y: -1.0473334}
        - {x: 8.660309, y: -1.0473334}
        - {x: 8.660309, y: -3.5133069}
        - {x: 5.649, y: -3.5133069}
        - {x: 6.623, y: -1.5310001}
        - {x: 8.12341, y: -1.5310001}
        - {x: 8.12341, y: -3.019435}
        - {x: 6.623, y: -3.019435}
        - {x: 6.769334, y: -2.497}
        - {x: 7.2360005, y: -2.497}
        - {x: 7.2360005, y: -2.6236668}
        - {x: 6.769334, y: -2.6236668}
        UVs: 00007f747f5c7fe5000000003f5f3f747f5f0000ff98ff397f2cbfe53f313ff7000000003f5f3f747f5f0000ff98ff397f2cbfe53f313ff7
        AddColors: 0000000000000000000000000000000000000000000000000000000000000000000000000000000000000000000000000000000000000000
        MulColors: 0002000200020002000200020002000200020002000200020002000200020002000200020002000200020002000200020002000200020002
      Materials:
      - {fileID: 2100000, guid: d58d9a5e482e8429f8d7d18a9538d94a, type: 2}
