%YAML 1.1
%TAG !u! tag:unity3d.com,2011:
--- !u!114 &11400000
MonoBehaviour:
  m_ObjectHideFlags: 0
  m_PrefabParentObject: {fileID: 0}
  m_PrefabInternal: {fileID: 0}
  m_GameObject: {fileID: 0}
  m_Enabled: 1
  m_EditorHideFlags: 0
  m_Script: {fileID: 11500000, guid: 0c9fa30e000f3420796cfbd1e09a86d6, type: 3}
  m_Name: tutor.fla.ruka
  m_EditorClassIdentifier: 
  Name: ruka
  Sprite: {fileID: 21300000, guid: 4a5540f3ee8354159954f217c4f39864, type: 3}
  FrameRate: 30
  AssetGUID: d3d9fb859e40d4a6f8d76de37ca6e492
  Sequences:
  - Name: Default
    Frames:
    - Labels: []
      MeshData:
        SubMeshes:
        - StartVertex: 0
          IndexCount: 6
        Vertices:
        - {x: -0.039, y: -0.95199996}
        - {x: 5.001, y: -0.95199996}
        - {x: 5.001, y: -5.7619996}
        - {x: -0.039, y: -5.7619996}
        UVs: 000000003f78ff7d
        AddColors: 0000000000000000
        MulColors: 0002000200020002
      Materials:
      - {fileID: 2100000, guid: d58d9a5e482e8429f8d7d18a9538d94a, type: 2}
    - Labels: []
      MeshData:
        SubMeshes:
        - StartVertex: 0
          IndexCount: 6
        Vertices:
        - {x: -0.039, y: -0.95199996}
        - {x: 5.001, y: -0.95199996}
        - {x: 5.001, y: -5.7619996}
        - {x: -0.039, y: -5.7619996}
        UVs: 000000003f78ff7d
        AddColors: 0000000000000000
        MulColors: 0002000200020002
      Materials:
      - {fileID: 2100000, guid: d58d9a5e482e8429f8d7d18a9538d94a, type: 2}
    - Labels: []
      MeshData:
        SubMeshes:
        - StartVertex: 0
          IndexCount: 6
        Vertices:
        - {x: -0.039, y: -0.95199996}
        - {x: 5.001, y: -0.95199996}
        - {x: 5.001, y: -5.7619996}
        - {x: -0.039, y: -5.7619996}
        UVs: 000000003f78ff7d
        AddColors: 0000000000000000
        MulColors: 0002000200020002
      Materials:
      - {fileID: 2100000, guid: d58d9a5e482e8429f8d7d18a9538d94a, type: 2}
    - Labels: []
      MeshData:
        SubMeshes:
        - StartVertex: 0
          IndexCount: 6
        Vertices:
        - {x: -0.039, y: -0.95199996}
        - {x: 5.001, y: -0.95199996}
        - {x: 5.001, y: -5.7619996}
        - {x: -0.039, y: -5.7619996}
        UVs: 000000003f78ff7d
        AddColors: 0000000000000000
        MulColors: 0002000200020002
      Materials:
      - {fileID: 2100000, guid: d58d9a5e482e8429f8d7d18a9538d94a, type: 2}
    - Labels: []
      MeshData:
        SubMeshes:
        - StartVertex: 0
          IndexCount: 6
        Vertices:
        - {x: -0.039, y: -0.95199996}
        - {x: 5.001, y: -0.95199996}
        - {x: 5.001, y: -5.7619996}
        - {x: -0.039, y: -5.7619996}
        UVs: 000000003f78ff7d
        AddColors: 0000000000000000
        MulColors: 0002000200020002
      Materials:
      - {fileID: 2100000, guid: d58d9a5e482e8429f8d7d18a9538d94a, type: 2}
    - Labels: []
      MeshData:
        SubMeshes:
        - StartVertex: 0
          IndexCount: 6
        Vertices:
        - {x: -0.039, y: -0.95199996}
        - {x: 5.001, y: -0.95199996}
        - {x: 5.001, y: -5.7619996}
        - {x: -0.039, y: -5.7619996}
        UVs: 000000003f78ff7d
        AddColors: 0000000000000000
        MulColors: 0002000200020002
      Materials:
      - {fileID: 2100000, guid: d58d9a5e482e8429f8d7d18a9538d94a, type: 2}
    - Labels: []
      MeshData:
        SubMeshes:
        - StartVertex: 0
          IndexCount: 6
        Vertices:
        - {x: -0.0195, y: -0.92800003}
        - {x: 5.020346, y: -1.0166707}
        - {x: 4.9943647, y: -5.826524}
        - {x: -0.04548175, y: -5.737853}
        UVs: 000000003f78ff7d
        AddColors: 0000000000000000
        MulColors: 0002000200020002
      Materials:
      - {fileID: 2100000, guid: d58d9a5e482e8429f8d7d18a9538d94a, type: 2}
    - Labels: []
      MeshData:
        SubMeshes:
        - StartVertex: 0
          IndexCount: 6
        Vertices:
        - {x: 0.0735, y: -0.8505}
        - {x: 5.1040406, y: -1.2131038}
        - {x: 4.940297, y: -6.0203147}
        - {x: -0.090243734, y: -5.6577106}
        UVs: 000000003f78ff7d
        AddColors: 0000000000000000
        MulColors: 0002000200020002
      Materials:
      - {fileID: 2100000, guid: d58d9a5e482e8429f8d7d18a9538d94a, type: 2}
    - Labels: []
      MeshData:
        SubMeshes:
        - StartVertex: 0
          IndexCount: 12
        Vertices:
        - {x: 3.917, y: -1.7889999}
        - {x: 5.437, y: -1.7889999}
        - {x: 5.437, y: -2.7689998}
        - {x: 3.917, y: -2.7689998}
        - {x: -0.094000004, y: -1.6175}
        - {x: 5.170885, y: -1.6175}
        - {x: 5.170885, y: -5.7951827}
        - {x: -0.094000004, y: -5.7951827}
        UVs: 00003f7e7f183fa47f7800007fe43f88
        AddColors: 00000000000000000000000000000000
        MulColors: 00020002000200020002000200020002
      Materials:
      - {fileID: 2100000, guid: d58d9a5e482e8429f8d7d18a9538d94a, type: 2}
    - Labels: []
      MeshData:
        SubMeshes:
        - StartVertex: 0
          IndexCount: 12
        Vertices:
        - {x: 3.917, y: -1.7889999}
        - {x: 5.437, y: -1.7889999}
        - {x: 5.437, y: -2.7689998}
        - {x: 3.917, y: -2.7689998}
        - {x: -0.1394741, y: -1.6600204}
        - {x: 5.216351, y: -1.6600204}
        - {x: 5.216351, y: -5.7527294}
        - {x: -0.1394741, y: -5.7527294}
        UVs: 00003f7e7f183fa47f7800007fe43f88
        AddColors: 00000000000000000000000000000000
        MulColors: 00020002000200020002000200020002
      Materials:
      - {fileID: 2100000, guid: d58d9a5e482e8429f8d7d18a9538d94a, type: 2}
    - Labels: []
      MeshData:
        SubMeshes:
        - StartVertex: 0
          IndexCount: 12
        Vertices:
        - {x: 3.917, y: -1.7889999}
        - {x: 5.437, y: -1.7889999}
        - {x: 5.437, y: -2.7689998}
        - {x: 3.917, y: -2.7689998}
        - {x: -0.18444818, y: -1.7025408}
        - {x: 5.2623167, y: -1.7025408}
        - {x: 5.2623167, y: -5.710212}
        - {x: -0.18444818, y: -5.710212}
        UVs: 00003f7e7f183fa47f7800007fe43f88
        AddColors: 00000000000000000000000000000000
        MulColors: 00020002000200020002000200020002
      Materials:
      - {fileID: 2100000, guid: d58d9a5e482e8429f8d7d18a9538d94a, type: 2}
    - Labels: []
      MeshData:
        SubMeshes:
        - StartVertex: 0
          IndexCount: 12
        Vertices:
        - {x: 3.917, y: -1.7889999}
        - {x: 5.437, y: -1.7889999}
        - {x: 5.437, y: -2.7689998}
        - {x: 3.917, y: -2.7689998}
        - {x: -0.15446544, y: -1.674527}
        - {x: 5.2317266, y: -1.674527}
        - {x: 5.2317266, y: -5.738869}
        - {x: -0.15446544, y: -5.738869}
        UVs: 00003f7e7f183fa47f7800007fe43f88
        AddColors: 00000000000000000000000000000000
        MulColors: 00020002000200020002000200020002
      Materials:
      - {fileID: 2100000, guid: d58d9a5e482e8429f8d7d18a9538d94a, type: 2}
    - Labels: []
      MeshData:
        SubMeshes:
        - StartVertex: 0
          IndexCount: 12
        Vertices:
        - {x: 3.917, y: -1.7889999}
        - {x: 5.437, y: -1.7889999}
        - {x: 5.437, y: -2.7689998}
        - {x: 3.917, y: -2.7689998}
        - {x: -0.1244827, y: -1.6460135}
        - {x: 5.2011356, y: -1.6460135}
        - {x: 5.2011356, y: -5.767026}
        - {x: -0.1244827, y: -5.767026}
        UVs: 00003f7e7f183fa47f7800007fe43f88
        AddColors: 00000000000000000000000000000000
        MulColors: 00020002000200020002000200020002
      Materials:
      - {fileID: 2100000, guid: d58d9a5e482e8429f8d7d18a9538d94a, type: 2}
    - Labels: []
      MeshData:
        SubMeshes:
        - StartVertex: 0
          IndexCount: 12
        Vertices:
        - {x: 3.917, y: -1.7889999}
        - {x: 5.437, y: -1.7889999}
        - {x: 5.437, y: -2.7689998}
        - {x: 3.917, y: -2.7689998}
        - {x: -0.094000004, y: -1.6175}
        - {x: 5.170885, y: -1.6175}
        - {x: 5.170885, y: -5.7951827}
        - {x: -0.094000004, y: -5.7951827}
        UVs: 00003f7e7f183fa47f7800007fe43f88
        AddColors: 00000000000000000000000000000000
        MulColors: 00020002000200020002000200020002
      Materials:
      - {fileID: 2100000, guid: d58d9a5e482e8429f8d7d18a9538d94a, type: 2}
    - Labels: []
      MeshData:
        SubMeshes:
        - StartVertex: 0
          IndexCount: 12
        Vertices:
        - {x: 3.917, y: -1.7889999}
        - {x: 5.437, y: -1.7889999}
        - {x: 5.437, y: -2.7689998}
        - {x: 3.917, y: -2.7689998}
        - {x: -0.094000004, y: -1.6175}
        - {x: 5.170885, y: -1.6175}
        - {x: 5.170885, y: -5.7951827}
        - {x: -0.094000004, y: -5.7951827}
        UVs: 00003f7e7f183fa47f7800007fe43f88
        AddColors: 00000000000000000000000000000000
        MulColors: 00020002000200020002000200020002
      Materials:
      - {fileID: 2100000, guid: d58d9a5e482e8429f8d7d18a9538d94a, type: 2}
    - Labels: []
      MeshData:
        SubMeshes:
        - StartVertex: 0
          IndexCount: 12
        Vertices:
        - {x: 3.917, y: -1.7889999}
        - {x: 5.437, y: -1.7889999}
        - {x: 5.437, y: -2.7689998}
        - {x: 3.917, y: -2.7689998}
        - {x: -0.094000004, y: -1.6175}
        - {x: 5.170885, y: -1.6175}
        - {x: 5.170885, y: -5.7951827}
        - {x: -0.094000004, y: -5.7951827}
        UVs: 00003f7e7f183fa47f7800007fe43f88
        AddColors: 00000000000000000000000000000000
        MulColors: 00020002000200020002000200020002
      Materials:
      - {fileID: 2100000, guid: d58d9a5e482e8429f8d7d18a9538d94a, type: 2}
    - Labels: []
      MeshData:
        SubMeshes:
        - StartVertex: 0
          IndexCount: 12
        Vertices:
        - {x: 3.917, y: -1.7889999}
        - {x: 5.437, y: -1.7889999}
        - {x: 5.437, y: -2.7689998}
        - {x: 3.917, y: -2.7689998}
        - {x: -0.094000004, y: -1.6175}
        - {x: 5.170885, y: -1.6175}
        - {x: 5.170885, y: -5.7951827}
        - {x: -0.094000004, y: -5.7951827}
        UVs: 00003f7e7f183fa47f7800007fe43f88
        AddColors: 00000000000000000000000000000000
        MulColors: 00020002000200020002000200020002
      Materials:
      - {fileID: 2100000, guid: d58d9a5e482e8429f8d7d18a9538d94a, type: 2}
    - Labels: []
      MeshData:
        SubMeshes:
        - StartVertex: 0
          IndexCount: 12
        Vertices:
        - {x: 3.917, y: -1.7889999}
        - {x: 5.437, y: -1.7889999}
        - {x: 5.437, y: -2.7689998}
        - {x: 3.917, y: -2.7689998}
        - {x: -0.094000004, y: -1.6175}
        - {x: 5.170885, y: -1.6175}
        - {x: 5.170885, y: -5.7951827}
        - {x: -0.094000004, y: -5.7951827}
        UVs: 00003f7e7f183fa47f7800007fe43f88
        AddColors: 00000000000000000000000000000000
        MulColors: 00020002000200020002000200020002
      Materials:
      - {fileID: 2100000, guid: d58d9a5e482e8429f8d7d18a9538d94a, type: 2}
    - Labels: []
      MeshData:
        SubMeshes:
        - StartVertex: 0
          IndexCount: 12
        Vertices:
        - {x: 3.917, y: -1.7889999}
        - {x: 5.437, y: -1.7889999}
        - {x: 5.437, y: -2.7689998}
        - {x: 3.917, y: -2.7689998}
        - {x: -0.094000004, y: -1.6175}
        - {x: 5.170885, y: -1.6175}
        - {x: 5.170885, y: -5.7951827}
        - {x: -0.094000004, y: -5.7951827}
        UVs: 00003f7e7f183fa47f7800007fe43f88
        AddColors: 00000000000000000000000000000000
        MulColors: 00020002000200020002000200020002
      Materials:
      - {fileID: 2100000, guid: d58d9a5e482e8429f8d7d18a9538d94a, type: 2}
    - Labels: []
      MeshData:
        SubMeshes:
        - StartVertex: 0
          IndexCount: 12
        Vertices:
        - {x: 3.917, y: -1.7889999}
        - {x: 5.437, y: -1.7889999}
        - {x: 5.437, y: -2.7689998}
        - {x: 3.917, y: -2.7689998}
        - {x: -0.094000004, y: -1.6175}
        - {x: 5.170885, y: -1.6175}
        - {x: 5.170885, y: -5.7951827}
        - {x: -0.094000004, y: -5.7951827}
        UVs: 00003f7e7f183fa47f7800007fe43f88
        AddColors: 00000000000000000000000000000000
        MulColors: 00020002000200020002000200020002
      Materials:
      - {fileID: 2100000, guid: d58d9a5e482e8429f8d7d18a9538d94a, type: 2}
    - Labels: []
      MeshData:
        SubMeshes:
        - StartVertex: 0
          IndexCount: 12
        Vertices:
        - {x: 3.917, y: -1.7889999}
        - {x: 5.437, y: -1.7889999}
        - {x: 5.437, y: -2.7689998}
        - {x: 3.917, y: -2.7689998}
        - {x: -0.094000004, y: -1.6175}
        - {x: 5.170885, y: -1.6175}
        - {x: 5.170885, y: -5.7951827}
        - {x: -0.094000004, y: -5.7951827}
        UVs: 00003f7e7f183fa47f7800007fe43f88
        AddColors: 00000000000000000000000000000000
        MulColors: 00020002000200020002000200020002
      Materials:
      - {fileID: 2100000, guid: d58d9a5e482e8429f8d7d18a9538d94a, type: 2}
    - Labels: []
      MeshData:
        SubMeshes:
        - StartVertex: 0
          IndexCount: 12
        Vertices:
        - {x: 3.917, y: -1.7889999}
        - {x: 5.437, y: -1.7889999}
        - {x: 5.437, y: -2.7689998}
        - {x: 3.917, y: -2.7689998}
        - {x: -0.094000004, y: -1.6175}
        - {x: 5.170885, y: -1.6175}
        - {x: 5.170885, y: -5.7951827}
        - {x: -0.094000004, y: -5.7951827}
        UVs: 00003f7e7f183fa47f7800007fe43f88
        AddColors: 00000000000000000000000000000000
        MulColors: 00020002000200020002000200020002
      Materials:
      - {fileID: 2100000, guid: d58d9a5e482e8429f8d7d18a9538d94a, type: 2}
    - Labels: []
      MeshData:
        SubMeshes:
        - StartVertex: 0
          IndexCount: 12
        Vertices:
        - {x: 3.917, y: -1.7889999}
        - {x: 5.437, y: -1.7889999}
        - {x: 5.437, y: -2.7689998}
        - {x: 3.917, y: -2.7689998}
        - {x: -0.094000004, y: -1.6175}
        - {x: 5.170885, y: -1.6175}
        - {x: 5.170885, y: -5.7951827}
        - {x: -0.094000004, y: -5.7951827}
        UVs: 00003f7e7f183fa47f7800007fe43f88
        AddColors: 00000000000000000000000000000000
        MulColors: 00020002000200020002000200020002
      Materials:
      - {fileID: 2100000, guid: d58d9a5e482e8429f8d7d18a9538d94a, type: 2}
    - Labels: []
      MeshData:
        SubMeshes:
        - StartVertex: 0
          IndexCount: 12
        Vertices:
        - {x: 3.917, y: -1.7889999}
        - {x: 5.437, y: -1.7889999}
        - {x: 5.437, y: -2.7689998}
        - {x: 3.917, y: -2.7689998}
        - {x: -0.094000004, y: -1.6175}
        - {x: 5.170885, y: -1.6175}
        - {x: 5.170885, y: -5.7951827}
        - {x: -0.094000004, y: -5.7951827}
        UVs: 00003f7e7f183fa47f7800007fe43f88
        AddColors: 00000000000000000000000000000000
        MulColors: 00020002000200020002000200020002
      Materials:
      - {fileID: 2100000, guid: d58d9a5e482e8429f8d7d18a9538d94a, type: 2}
    - Labels: []
      MeshData:
        SubMeshes:
        - StartVertex: 0
          IndexCount: 12
        Vertices:
        - {x: 3.917, y: -1.7889999}
        - {x: 5.437, y: -1.7889999}
        - {x: 5.437, y: -2.7689998}
        - {x: 3.917, y: -2.7689998}
        - {x: -0.094000004, y: -1.6175}
        - {x: 5.170885, y: -1.6175}
        - {x: 5.170885, y: -5.7951827}
        - {x: -0.094000004, y: -5.7951827}
        UVs: 00003f7e7f183fa47f7800007fe43f88
        AddColors: 00000000000000000000000000000000
        MulColors: 00020002000200020002000200020002
      Materials:
      - {fileID: 2100000, guid: d58d9a5e482e8429f8d7d18a9538d94a, type: 2}
