%YAML 1.1
%TAG !u! tag:unity3d.com,2011:
--- !u!114 &11400000
MonoBehaviour:
  m_ObjectHideFlags: 0
  m_PrefabParentObject: {fileID: 0}
  m_PrefabInternal: {fileID: 0}
  m_GameObject: {fileID: 0}
  m_Enabled: 1
  m_EditorHideFlags: 0
  m_Script: {fileID: 11500000, guid: 0c9fa30e000f3420796cfbd1e09a86d6, type: 3}
  m_Name: npc_bureaucrat.fla._Stage_
  m_EditorClassIdentifier: 
  Name: _Stage_
  Sprite: {fileID: 21300000, guid: e336e165518cf4d8680e2fff9c6b59ba, type: 3}
  FrameRate: 24
  AssetGUID: a25723a1cd8b141a6b489606584a6f65
  Sequences:
  - Name: Default
    Frames:
    - Labels: []
      MeshData:
        SubMeshes:
        - StartVertex: 0
          IndexCount: 6
        Vertices:
        - {x: 0.028839836, y: -0.03892601}
        - {x: 0.9771797, y: -0.03892601}
        - {x: 0.9771797, y: -0.8959397}
        - {x: 0.028839836, y: -0.8959397}
        UVs: 00000000ff4aff52
        AddColors: 0000000000000000
        MulColors: 0002000200020002
      Materials:
      - {fileID: 2100000, guid: d58d9a5e482e8429f8d7d18a9538d94a, type: 2}
