%YAML 1.1
%TAG !u! tag:unity3d.com,2011:
--- !u!114 &11400000
MonoBehaviour:
  m_ObjectHideFlags: 0
  m_PrefabParentObject: {fileID: 0}
  m_PrefabInternal: {fileID: 0}
  m_GameObject: {fileID: 0}
  m_Enabled: 1
  m_EditorHideFlags: 0
  m_Script: {fileID: 11500000, guid: 0c9fa30e000f3420796cfbd1e09a86d6, type: 3}
  m_Name: lava_clouds_shop_bulk.fla.semka
  m_EditorClassIdentifier: 
  Name: semka
  Sprite: {fileID: 21300000, guid: c3bde8e6164a34245bc54486857dd85a, type: 3}
  FrameRate: 30
  AssetGUID: 9ce96a368b47641babe6e55aa1954031
  Sequences:
  - Name: Default
    Frames:
    - Labels: []
      MeshData:
        SubMeshes: []
        Vertices: []
        UVs: 
        AddColors: 
        MulColors: 
      Materials: []
    - Labels: []
      MeshData:
        SubMeshes: []
        Vertices: []
        UVs: 
        AddColors: 
        MulColors: 
      Materials: []
    - Labels: []
      MeshData:
        SubMeshes: []
        Vertices: []
        UVs: 
        AddColors: 
        MulColors: 
      Materials: []
    - Labels: []
      MeshData:
        SubMeshes:
        - StartVertex: 0
          IndexCount: 6
        Vertices:
        - {x: 0.24667162, y: -0.29848513}
        - {x: 0.47243708, y: -0.29848513}
        - {x: 0.47243708, y: -0.6664671}
        - {x: 0.24667162, y: -0.6664671}
        UVs: 7f477fe4bf5ebff2
        AddColors: 0000000000000000
        MulColors: 0002000208000002
      Materials:
      - {fileID: 2100000, guid: d58d9a5e482e8429f8d7d18a9538d94a, type: 2}
    - Labels: []
      MeshData:
        SubMeshes:
        - StartVertex: 0
          IndexCount: 12
        Vertices:
        - {x: -0.026667885, y: -0.048345614}
        - {x: 0.7596138, y: -0.048345614}
        - {x: 0.7596138, y: -0.83462733}
        - {x: -0.026667885, y: -0.83462733}
        - {x: 0.23618726, y: -0.2814382}
        - {x: 0.48252702, y: -0.2814382}
        - {x: 0.48252702, y: -0.6829549}
        - {x: 0.23618726, y: -0.6829549}
        UVs: 000000003f883f887f477fe4bf5ebff2
        AddColors: 00000000000000000000000000000000
        MulColors: 00020002000200020002000220000002
      Materials:
      - {fileID: 2100000, guid: d58d9a5e482e8429f8d7d18a9538d94a, type: 2}
    - Labels: []
      MeshData:
        SubMeshes:
        - StartVertex: 0
          IndexCount: 12
        Vertices:
        - {x: -0.16778232, y: 0.093264006}
        - {x: 0.9007088, y: 0.093264006}
        - {x: 0.9007088, y: -0.9752271}
        - {x: -0.16778232, y: -0.9752271}
        - {x: 0.2192133, y: -0.25386003}
        - {x: 0.49983692, y: -0.25386003}
        - {x: 0.49983692, y: -0.711257}
        - {x: 0.2192133, y: -0.711257}
        UVs: 000000003f883f887f477fe4bf5ebff2
        AddColors: 00000000000000000000000000000000
        MulColors: 00020002000200020002000248000002
      Materials:
      - {fileID: 2100000, guid: d58d9a5e482e8429f8d7d18a9538d94a, type: 2}
    - Labels: []
      MeshData:
        SubMeshes:
        - StartVertex: 0
          IndexCount: 12
        Vertices:
        - {x: -0.30817488, y: 0.23459548}
        - {x: 1.0425258, y: 0.23415175}
        - {x: 1.042082, y: -1.1165489}
        - {x: -0.3086186, y: -1.1161051}
        - {x: 0.1947498, y: -0.21425056}
        - {x: 0.52336675, y: -0.21425056}
        - {x: 0.52336675, y: -0.74987334}
        - {x: 0.1947498, y: -0.74987334}
        UVs: 000000003f883f887f477fe4bf5ebff2
        AddColors: 00000000000000000000000000000000
        MulColors: 00020002000200020002000280000002
      Materials:
      - {fileID: 2100000, guid: d58d9a5e482e8429f8d7d18a9538d94a, type: 2}
    - Labels: []
      MeshData:
        SubMeshes:
        - StartVertex: 0
          IndexCount: 12
        Vertices:
        - {x: -0.4488456, y: 0.3756488}
        - {x: 1.1840645, y: 0.37431762}
        - {x: 1.1827333, y: -1.2585925}
        - {x: -0.45017678, y: -1.2572613}
        - {x: 0.16429672, y: -0.16410984}
        - {x: 0.5546266, y: -0.16410984}
        - {x: 0.5546266, y: -0.8003203}
        - {x: 0.16429672, y: -0.8003203}
        UVs: 000000003f883f887f477fe4bf5ebff2
        AddColors: 00000000000000000000000000000000
        MulColors: 000200020002000200020002c8000002
      Materials:
      - {fileID: 2100000, guid: d58d9a5e482e8429f8d7d18a9538d94a, type: 2}
    - Labels: []
      MeshData:
        SubMeshes:
        - StartVertex: 0
          IndexCount: 12
        Vertices:
        - {x: -0.58618826, y: 0.52103037}
        - {x: 1.3289312, y: 0.51215583}
        - {x: 1.3200567, y: -1.4029636}
        - {x: -0.5950628, y: -1.3940891}
        - {x: 0.12635407, y: -0.10193782}
        - {x: 0.59210634, y: -0.10193782}
        - {x: 0.59210634, y: -0.8610816}
        - {x: 0.12635407, y: -0.8610816}
        UVs: 000000003f883f887f477fe4bf5ebff2
        AddColors: 00000000000000000000000000000000
        MulColors: 00020002000200020002000220010002
      Materials:
      - {fileID: 2100000, guid: d58d9a5e482e8429f8d7d18a9538d94a, type: 2}
    - Labels: []
      MeshData:
        SubMeshes:
        - StartVertex: 0
          IndexCount: 12
        Vertices:
        - {x: -0.72597146, y: 0.6629712}
        - {x: 1.4713575, y: 0.65143436}
        - {x: 1.4598206, y: -1.5458946}
        - {x: -0.7375083, y: -1.5343578}
        - {x: 0.081421815, y: -0.029234556}
        - {x: 0.63630605, y: -0.029234556}
        - {x: 0.63630605, y: -0.93365717}
        - {x: 0.081421815, y: -0.93365717}
        UVs: 000000003f883f887f477fe4bf5ebff2
        AddColors: 00000000000000000000000000000000
        MulColors: 00020002000200020002000288010002
      Materials:
      - {fileID: 2100000, guid: d58d9a5e482e8429f8d7d18a9538d94a, type: 2}
    - Labels: []
      MeshData:
        SubMeshes:
        - StartVertex: 0
          IndexCount: 12
        Vertices:
        - {x: -0.86087346, y: 0.8108496}
        - {x: 1.6182213, y: 0.7873322}
        - {x: 1.5947039, y: -1.6917627}
        - {x: -0.8843909, y: -1.6682452}
        - {x: 0.030499998, y: 0.055}
        - {x: 0.68823576, y: 0.055}
        - {x: 0.68823576, y: -1.0170634}
        - {x: 0.030499998, y: -1.0170634}
        UVs: 000000003f883f887f477fe4bf5ebff2
        AddColors: 00000000000000000000000000000000
        MulColors: 00020002000200020002000200020002
      Materials:
      - {fileID: 2100000, guid: d58d9a5e482e8429f8d7d18a9538d94a, type: 2}
    - Labels: []
      MeshData:
        SubMeshes:
        - StartVertex: 0
          IndexCount: 12
        Vertices:
        - {x: -0.9946662, y: 0.9583375}
        - {x: 1.7661943, y: 0.9206208}
        - {x: 1.7284776, y: -1.8402398}
        - {x: -1.0323828, y: -1.802523}
        - {x: 0.017021224, y: 0.078063674}
        - {x: 0.70267785, y: 0.078063674}
        - {x: 0.70267785, y: -1.0395089}
        - {x: 0.017021224, y: -1.0395089}
        UVs: 000000003f883f887f477fe4bf5ebff2
        AddColors: 00000000000000000000000000000000
        MulColors: 00020002000200020002000200020002
      Materials:
      - {fileID: 2100000, guid: d58d9a5e482e8429f8d7d18a9538d94a, type: 2}
    - Labels: []
      MeshData:
        SubMeshes:
        - StartVertex: 0
          IndexCount: 12
        Vertices:
        - {x: -1.126684, y: 1.1081003}
        - {x: 1.9159423, y: 1.0526346}
        - {x: 1.8604766, y: -1.9899917}
        - {x: -1.1821496, y: -1.934526}
        - {x: 0.0025424424, y: 0.10012733}
        - {x: 0.7161098, y: 0.10012733}
        - {x: 0.7161098, y: -1.0629379}
        - {x: 0.0025424424, y: -1.0629379}
        UVs: 000000003f883f887f477fe4bf5ebff2
        AddColors: 00000000000000000000000000000000
        MulColors: 00020002000200020002000200020002
      Materials:
      - {fileID: 2100000, guid: d58d9a5e482e8429f8d7d18a9538d94a, type: 2}
    - Labels: []
      MeshData:
        SubMeshes:
        - StartVertex: 0
          IndexCount: 12
        Vertices:
        - {x: -1.2573705, y: 1.2596945}
        - {x: 2.0670216, y: 1.1838174}
        - {x: 1.9911444, y: -2.1405747}
        - {x: -1.3332475, y: -2.0646975}
        - {x: -0.011436333, y: 0.12319099}
        - {x: 0.7300519, y: 0.12319099}
        - {x: 0.7300519, y: -1.0853832}
        - {x: -0.011436333, y: -1.0853832}
        UVs: 000000003f883f887f477fe4bf5ebff2
        AddColors: 00000000000000000000000000000000
        MulColors: 00020002000200020002000200020002
      Materials:
      - {fileID: 2100000, guid: d58d9a5e482e8429f8d7d18a9538d94a, type: 2}
    - Labels: []
      MeshData:
        SubMeshes:
        - StartVertex: 0
          IndexCount: 12
        Vertices:
        - {x: -1.3802916, y: 1.4181105}
        - {x: 2.2254224, y: 1.3067354}
        - {x: 2.114047, y: -2.2989786}
        - {x: -1.4916667, y: -2.1876035}
        - {x: -0.024915116, y: 0.14575465}
        - {x: 0.74448395, y: 0.14575465}
        - {x: 0.74448395, y: -1.1083122}
        - {x: -0.024915116, y: -1.1083122}
        UVs: 000000003f883f887f477fe4bf5ebff2
        AddColors: 00000000000000000000000000000000
        MulColors: 00020002000200020002000200020002
      Materials:
      - {fileID: 2100000, guid: d58d9a5e482e8429f8d7d18a9538d94a, type: 2}
    - Labels: []
      MeshData:
        SubMeshes:
        - StartVertex: 0
          IndexCount: 12
        Vertices:
        - {x: -1.5097063, y: 1.5744765}
        - {x: 2.3777733, y: 1.4351467}
        - {x: 2.2384436, y: -2.452333}
        - {x: -1.649036, y: -2.313003}
        - {x: -0.006443405, y: 0.115169786}
        - {x: 0.72574127, y: 0.115169786}
        - {x: 0.72574127, y: -1.0782402}
        - {x: -0.006443405, y: -1.0782402}
        UVs: 000000003f883f887f477fe4bf5ebff2
        AddColors: 00000000000000000000000000000000
        MulColors: 00020002000200020002000200020002
      Materials:
      - {fileID: 2100000, guid: d58d9a5e482e8429f8d7d18a9538d94a, type: 2}
    - Labels: []
      MeshData:
        SubMeshes:
        - StartVertex: 0
          IndexCount: 12
        Vertices:
        - {x: -1.4928441, y: 1.590008}
        - {x: 2.3933043, y: 1.4182862}
        - {x: 2.2215827, y: -2.4678621}
        - {x: -1.6645659, y: -2.2961404}
        - {x: 0.012528305, y: 0.08558491}
        - {x: 0.7074985, y: 0.08558491}
        - {x: 0.7074985, y: -1.0471681}
        - {x: 0.012528305, y: -1.0471681}
        UVs: 000000003f883f887f477fe4bf5ebff2
        AddColors: 00000000000000000000000000000000
        MulColors: 00020002000200020002000200020002
      Materials:
      - {fileID: 2100000, guid: d58d9a5e482e8429f8d7d18a9538d94a, type: 2}
    - Labels: []
      MeshData:
        SubMeshes:
        - StartVertex: 0
          IndexCount: 12
        Vertices:
        - {x: -1.4753163, y: 1.6057614}
        - {x: 2.4090571, y: 1.4007602}
        - {x: 2.204056, y: -2.4836133}
        - {x: -1.6803175, y: -2.2786121}
        - {x: 0.030499998, y: 0.055}
        - {x: 0.68823576, y: 0.055}
        - {x: 0.68823576, y: -1.0170634}
        - {x: 0.030499998, y: -1.0170634}
        UVs: 000000003f883f887f477fe4bf5ebff2
        AddColors: 00000000000000000000000000000000
        MulColors: 00020002000200020002000200020002
      Materials:
      - {fileID: 2100000, guid: d58d9a5e482e8429f8d7d18a9538d94a, type: 2}
    - Labels: []
      MeshData:
        SubMeshes:
        - StartVertex: 0
          IndexCount: 12
        Vertices:
        - {x: -1.4570667, y: 1.6217365}
        - {x: 2.425532, y: 1.3830122}
        - {x: 2.1868076, y: -2.4995866}
        - {x: -1.695791, y: -2.260862}
        - {x: 0.030499998, y: 0.055}
        - {x: 0.68823576, y: 0.055}
        - {x: 0.68823576, y: -1.0170634}
        - {x: 0.030499998, y: -1.0170634}
        UVs: 000000003f883f887f477fe4bf5ebff2
        AddColors: 00000000000000000000000000000000
        MulColors: 00020002000200020002000200020002
      Materials:
      - {fileID: 2100000, guid: d58d9a5e482e8429f8d7d18a9538d94a, type: 2}
    - Labels: []
      MeshData:
        SubMeshes:
        - StartVertex: 0
          IndexCount: 12
        Vertices:
        - {x: -1.4391513, y: 1.6369901}
        - {x: 2.440785, y: 1.3640988}
        - {x: 2.1678936, y: -2.5158374}
        - {x: -1.7120426, y: -2.2429461}
        - {x: 0.030499998, y: 0.055}
        - {x: 0.68823576, y: 0.055}
        - {x: 0.68823576, y: -1.0170634}
        - {x: 0.030499998, y: -1.0170634}
        UVs: 000000003f883f887f477fe4bf5ebff2
        AddColors: 00000000000000000000000000000000
        MulColors: 00020002000200020002000200020002
      Materials:
      - {fileID: 2100000, guid: d58d9a5e482e8429f8d7d18a9538d94a, type: 2}
    - Labels: []
      MeshData:
        SubMeshes:
        - StartVertex: 0
          IndexCount: 12
        Vertices:
        - {x: -1.4202924, y: 1.653187}
        - {x: 2.4569817, y: 1.3452414}
        - {x: 2.149036, y: -2.5320325}
        - {x: -1.728238, y: -2.224087}
        - {x: 0.030499998, y: 0.055}
        - {x: 0.68823576, y: 0.055}
        - {x: 0.68823576, y: -1.0170634}
        - {x: 0.030499998, y: -1.0170634}
        UVs: 000000003f883f887f477fe4bf5ebff2
        AddColors: 00000000000000000000000000000000
        MulColors: 00020002000200020002000200020002
      Materials:
      - {fileID: 2100000, guid: d58d9a5e482e8429f8d7d18a9538d94a, type: 2}
    - Labels: []
      MeshData:
        SubMeshes:
        - StartVertex: 0
          IndexCount: 12
        Vertices:
        - {x: -1.3933896, y: 1.6751531}
        - {x: 2.4794471, y: 1.3188416}
        - {x: 2.1231356, y: -2.5539951}
        - {x: -1.7497011, y: -2.1976836}
        - {x: 0.030499998, y: 0.055}
        - {x: 0.68823576, y: 0.055}
        - {x: 0.68823576, y: -1.0170634}
        - {x: 0.030499998, y: -1.0170634}
        UVs: 000000003f883f887f477fe4bf5ebff2
        AddColors: 00000000000000000000000000000000
        MulColors: 00020002000200020002000200020002
      Materials:
      - {fileID: 2100000, guid: d58d9a5e482e8429f8d7d18a9538d94a, type: 2}
    - Labels: []
      MeshData:
        SubMeshes:
        - StartVertex: 0
          IndexCount: 12
        Vertices:
        - {x: -1.3736432, y: 1.6913503}
        - {x: 2.4956439, y: 1.299097}
        - {x: 2.1033905, y: -2.57019}
        - {x: -1.7658966, y: -2.1779366}
        - {x: 0.030499998, y: 0.055}
        - {x: 0.68823576, y: 0.055}
        - {x: 0.68823576, y: -1.0170634}
        - {x: 0.030499998, y: -1.0170634}
        UVs: 000000003f883f887f477fe4bf5ebff2
        AddColors: 00000000000000000000000000000000
        MulColors: 00020002000200020002000200020002
      Materials:
      - {fileID: 2100000, guid: d58d9a5e482e8429f8d7d18a9538d94a, type: 2}
    - Labels: []
      MeshData:
        SubMeshes:
        - StartVertex: 0
          IndexCount: 12
        Vertices:
        - {x: -1.3466309, y: 1.7135382}
        - {x: 2.5173314, y: 1.2715875}
        - {x: 2.0753806, y: -2.5923746}
        - {x: -1.7885816, y: -2.150424}
        - {x: 0.030499998, y: 0.055}
        - {x: 0.68823576, y: 0.055}
        - {x: 0.68823576, y: -1.0170634}
        - {x: 0.030499998, y: -1.0170634}
        UVs: 000000003f883f887f477fe4bf5ebff2
        AddColors: 00000000000000000000000000000000
        MulColors: 00020002000200020002000200020002
      Materials:
      - {fileID: 2100000, guid: d58d9a5e482e8429f8d7d18a9538d94a, type: 2}
    - Labels: []
      MeshData:
        SubMeshes:
        - StartVertex: 0
          IndexCount: 12
        Vertices:
        - {x: -1.3186752, y: 1.7357823}
        - {x: 2.5390747, y: 1.2441343}
        - {x: 2.047427, y: -2.6136155}
        - {x: -1.8103231, y: -2.1219676}
        - {x: 0.030499998, y: 0.055}
        - {x: 0.68823576, y: 0.055}
        - {x: 0.68823576, y: -1.0170634}
        - {x: 0.030499998, y: -1.0170634}
        UVs: 000000003f883f887f477fe4bf5ebff2
        AddColors: 00000000000000000000000000000000
        MulColors: 00020002000200020002000200020002
      Materials:
      - {fileID: 2100000, guid: d58d9a5e482e8429f8d7d18a9538d94a, type: 2}
    - Labels: []
      MeshData:
        SubMeshes:
        - StartVertex: 0
          IndexCount: 12
        Vertices:
        - {x: -1.2893319, y: 1.7575265}
        - {x: 2.5613184, y: 1.2152939}
        - {x: 2.019086, y: -2.6353564}
        - {x: -1.8315645, y: -2.093124}
        - {x: 0.030499998, y: 0.055}
        - {x: 0.68823576, y: 0.055}
        - {x: 0.68823576, y: -1.0170634}
        - {x: 0.030499998, y: -1.0170634}
        UVs: 000000003f883f887f477fe4bf5ebff2
        AddColors: 00000000000000000000000000000000
        MulColors: 00020002000200020002000200020002
      Materials:
      - {fileID: 2100000, guid: d58d9a5e482e8429f8d7d18a9538d94a, type: 2}
    - Labels: []
      MeshData:
        SubMeshes:
        - StartVertex: 0
          IndexCount: 12
        Vertices:
        - {x: -1.2605449, y: 1.7792708}
        - {x: 2.5825622, y: 1.1860096}
        - {x: 1.9893011, y: -2.6570973}
        - {x: -1.853806, y: -2.0638363}
        - {x: 0.030499998, y: 0.055}
        - {x: 0.68823576, y: 0.055}
        - {x: 0.68823576, y: -1.0170634}
        - {x: 0.030499998, y: -1.0170634}
        UVs: 000000003f883f887f477fe4bf5ebff2
        AddColors: 00000000000000000000000000000000
        MulColors: 00020002000200020002000200020002
      Materials:
      - {fileID: 2100000, guid: d58d9a5e482e8429f8d7d18a9538d94a, type: 2}
    - Labels: []
      MeshData:
        SubMeshes:
        - StartVertex: 0
          IndexCount: 12
        Vertices:
        - {x: -1.2305924, y: 1.8007929}
        - {x: 2.6040838, y: 1.1560596}
        - {x: 1.9593505, y: -2.6786165}
        - {x: -1.8753257, y: -2.033883}
        - {x: 0.030499998, y: 0.055}
        - {x: 0.68823576, y: 0.055}
        - {x: 0.68823576, y: -1.0170634}
        - {x: 0.030499998, y: -1.0170634}
        UVs: 000000003f883f887f477fe4bf5ebff2
        AddColors: 00000000000000000000000000000000
        MulColors: 00020002000200020002000200020002
      Materials:
      - {fileID: 2100000, guid: d58d9a5e482e8429f8d7d18a9538d94a, type: 2}
    - Labels: []
      MeshData:
        SubMeshes:
        - StartVertex: 0
          IndexCount: 12
        Vertices:
        - {x: -1.1921523, y: 1.8266968}
        - {x: 2.6309872, y: 1.1176233}
        - {x: 1.9219136, y: -2.705516}
        - {x: -1.9012257, y: -1.9964427}
        - {x: 0.030499998, y: 0.055}
        - {x: 0.68823576, y: 0.055}
        - {x: 0.68823576, y: -1.0170634}
        - {x: 0.030499998, y: -1.0170634}
        UVs: 000000003f883f887f477fe4bf5ebff2
        AddColors: 00000000000000000000000000000000
        MulColors: 00020002000200020002000200020002
      Materials:
      - {fileID: 2100000, guid: d58d9a5e482e8429f8d7d18a9538d94a, type: 2}
    - Labels: []
      MeshData:
        SubMeshes:
        - StartVertex: 0
          IndexCount: 12
        Vertices:
        - {x: -1.1608684, y: 1.8477752}
        - {x: 2.6520653, y: 1.0863422}
        - {x: 1.8906323, y: -2.7265916}
        - {x: -1.9223014, y: -1.9651586}
        - {x: 0.030499998, y: 0.055}
        - {x: 0.68823576, y: 0.055}
        - {x: 0.68823576, y: -1.0170634}
        - {x: 0.030499998, y: -1.0170634}
        UVs: 000000003f883f887f477fe4bf5ebff2
        AddColors: 00000000000000000000000000000000
        MulColors: 00020002000200020002000200020002
      Materials:
      - {fileID: 2100000, guid: d58d9a5e482e8429f8d7d18a9538d94a, type: 2}
    - Labels: []
      MeshData:
        SubMeshes:
        - StartVertex: 0
          IndexCount: 12
        Vertices:
        - {x: -1.1216533, y: 1.8737915}
        - {x: 2.677081, y: 1.0471307}
        - {x: 1.8504204, y: -2.7516038}
        - {x: -1.9483141, y: -1.924943}
        - {x: 0.030499998, y: 0.055}
        - {x: 0.68823576, y: 0.055}
        - {x: 0.68823576, y: -1.0170634}
        - {x: 0.030499998, y: -1.0170634}
        UVs: 000000003f883f887f477fe4bf5ebff2
        AddColors: 00000000000000000000000000000000
        MulColors: 00020002000200020002000200020002
      Materials:
      - {fileID: 2100000, guid: d58d9a5e482e8429f8d7d18a9538d94a, type: 2}
    - Labels: []
      MeshData:
        SubMeshes:
        - StartVertex: 0
          IndexCount: 12
        Vertices:
        - {x: -1.0812726, y: 1.8990858}
        - {x: 2.7023752, y: 1.0067537}
        - {x: 1.810043, y: -2.776894}
        - {x: -1.9736047, y: -1.8845619}
        - {x: 0.030499998, y: 0.055}
        - {x: 0.68823576, y: 0.055}
        - {x: 0.68823576, y: -1.0170634}
        - {x: 0.030499998, y: -1.0170634}
        UVs: 000000003f883f887f477fe4bf5ebff2
        AddColors: 00000000000000000000000000000000
        MulColors: 00020002000200020002000200020002
      Materials:
      - {fileID: 2100000, guid: d58d9a5e482e8429f8d7d18a9538d94a, type: 2}
    - Labels: []
      MeshData:
        SubMeshes:
        - StartVertex: 0
          IndexCount: 12
        Vertices:
        - {x: -1.0400045, y: 1.9234365}
        - {x: 2.7272255, y: 0.9649893}
        - {x: 1.7687783, y: -2.8022408}
        - {x: -1.9984517, y: -1.8437935}
        - {x: 0.030499998, y: 0.055}
        - {x: 0.68823576, y: 0.055}
        - {x: 0.68823576, y: -1.0170634}
        - {x: 0.030499998, y: -1.0170634}
        UVs: 000000003f883f887f477fe4bf5ebff2
        AddColors: 00000000000000000000000000000000
        MulColors: 00020002000200020002000200020002
      Materials:
      - {fileID: 2100000, guid: d58d9a5e482e8429f8d7d18a9538d94a, type: 2}
    - Labels: []
      MeshData:
        SubMeshes:
        - StartVertex: 0
          IndexCount: 12
        Vertices:
        - {x: -0.9982925, y: 1.9478434}
        - {x: 2.7516322, y: 0.92328113}
        - {x: 1.7270699, y: -2.8266435}
        - {x: -2.0228548, y: -1.8020812}
        - {x: 0.030499998, y: 0.055}
        - {x: 0.68823576, y: 0.055}
        - {x: 0.68823576, y: -1.0170634}
        - {x: 0.030499998, y: -1.0170634}
        UVs: 000000003f883f887f477fe4bf5ebff2
        AddColors: 00000000000000000000000000000000
        MulColors: 00020002000200020002000200020002
      Materials:
      - {fileID: 2100000, guid: d58d9a5e482e8429f8d7d18a9538d94a, type: 2}
    - Labels: []
      MeshData:
        SubMeshes:
        - StartVertex: 0
          IndexCount: 12
        Vertices:
        - {x: -0.9554712, y: 1.9720846}
        - {x: 2.7753732, y: 0.8809635}
        - {x: 1.6842521, y: -2.849881}
        - {x: -2.0465925, y: -1.7587599}
        - {x: 0.030499998, y: 0.055}
        - {x: 0.68823576, y: 0.055}
        - {x: 0.68823576, y: -1.0170634}
        - {x: 0.030499998, y: -1.0170634}
        UVs: 000000003f883f887f477fe4bf5ebff2
        AddColors: 00000000000000000000000000000000
        MulColors: 00020002000200020002000200020002
      Materials:
      - {fileID: 2100000, guid: d58d9a5e482e8429f8d7d18a9538d94a, type: 2}
    - Labels: []
      MeshData:
        SubMeshes:
        - StartVertex: 0
          IndexCount: 12
        Vertices:
        - {x: -0.903775, y: 1.998876}
        - {x: 2.8026645, y: 0.8287717}
        - {x: 1.6325604, y: -2.877668}
        - {x: -2.0738792, y: -1.7075636}
        - {x: 0.030499998, y: 0.055}
        - {x: 0.68823576, y: 0.055}
        - {x: 0.68823576, y: -1.0170634}
        - {x: 0.030499998, y: -1.0170634}
        UVs: 000000003f883f887f477fe4bf5ebff2
        AddColors: 00000000000000000000000000000000
        MulColors: 00020002000200020002000200020002
      Materials:
      - {fileID: 2100000, guid: d58d9a5e482e8429f8d7d18a9538d94a, type: 2}
    - Labels: []
      MeshData:
        SubMeshes:
        - StartVertex: 0
          IndexCount: 12
        Vertices:
        - {x: -0.85867864, y: 2.0217862}
        - {x: 2.8255746, y: 0.7846794}
        - {x: 1.5884678, y: -2.899574}
        - {x: -2.0957854, y: -1.6624671}
        - {x: 0.030499998, y: 0.055}
        - {x: 0.68823576, y: 0.055}
        - {x: 0.68823576, y: -1.0170634}
        - {x: 0.030499998, y: -1.0170634}
        UVs: 000000003f883f887f477fe4bf5ebff2
        AddColors: 00000000000000000000000000000000
        MulColors: 00020002000200020002000200020002
      Materials:
      - {fileID: 2100000, guid: d58d9a5e482e8429f8d7d18a9538d94a, type: 2}
    - Labels: []
      MeshData:
        SubMeshes:
        - StartVertex: 0
          IndexCount: 12
        Vertices:
        - {x: -0.8057074, y: 2.0472465}
        - {x: 2.8510349, y: 0.7307128}
        - {x: 1.5345012, y: -2.9260294}
        - {x: -2.122241, y: -1.6094959}
        - {x: 0.030499998, y: 0.055}
        - {x: 0.68823576, y: 0.055}
        - {x: 0.68823576, y: -1.0170634}
        - {x: 0.030499998, y: -1.0170634}
        UVs: 000000003f883f887f477fe4bf5ebff2
        AddColors: 00000000000000000000000000000000
        MulColors: 00020002000200020002000200020002
      Materials:
      - {fileID: 2100000, guid: d58d9a5e482e8429f8d7d18a9538d94a, type: 2}
    - Labels: []
      MeshData:
        SubMeshes:
        - StartVertex: 0
          IndexCount: 12
        Vertices:
        - {x: -0.75084865, y: 2.0723753}
        - {x: 2.876164, y: 0.67685837}
        - {x: 1.4806471, y: -2.9501543}
        - {x: -2.1463656, y: -1.5546373}
        - {x: 0.030499998, y: 0.055}
        - {x: 0.68823576, y: 0.055}
        - {x: 0.68823576, y: -1.0170634}
        - {x: 0.030499998, y: -1.0170634}
        UVs: 000000003f883f887f477fe4bf5ebff2
        AddColors: 00000000000000000000000000000000
        MulColors: 00020002000200020002000200020002
      Materials:
      - {fileID: 2100000, guid: d58d9a5e482e8429f8d7d18a9538d94a, type: 2}
    - Labels: []
      MeshData:
        SubMeshes:
        - StartVertex: 0
          IndexCount: 12
        Vertices:
        - {x: -0.6961024, y: 2.0961168}
        - {x: 2.8994057, y: 0.6216168}
        - {x: 1.4249058, y: -2.9738915}
        - {x: -2.1706023, y: -1.4993914}
        - {x: 0.030499998, y: 0.055}
        - {x: 0.68823576, y: 0.055}
        - {x: 0.68823576, y: -1.0170634}
        - {x: 0.030499998, y: -1.0170634}
        UVs: 000000003f883f887f477fe4bf5ebff2
        AddColors: 00000000000000000000000000000000
        MulColors: 00020002000200020002000200020002
      Materials:
      - {fileID: 2100000, guid: d58d9a5e482e8429f8d7d18a9538d94a, type: 2}
    - Labels: []
      MeshData:
        SubMeshes:
        - StartVertex: 0
          IndexCount: 12
        Vertices:
        - {x: -0.63974667, y: 2.118249}
        - {x: 2.9220386, y: 0.5647657}
        - {x: 1.3685553, y: -2.9970195}
        - {x: -2.19323, y: -1.4435363}
        - {x: 0.030499998, y: 0.055}
        - {x: 0.68823576, y: 0.055}
        - {x: 0.68823576, y: -1.0170634}
        - {x: 0.030499998, y: -1.0170634}
        UVs: 000000003f883f887f477fe4bf5ebff2
        AddColors: 00000000000000000000000000000000
        MulColors: 00020002000200020002000200020002
      Materials:
      - {fileID: 2100000, guid: d58d9a5e482e8429f8d7d18a9538d94a, type: 2}
    - Labels: []
      MeshData:
        SubMeshes:
        - StartVertex: 0
          IndexCount: 12
        Vertices:
        - {x: -0.5827254, y: 2.1402717}
        - {x: 2.9435618, y: 0.5082491}
        - {x: 1.3115392, y: -3.018038}
        - {x: -2.214748, y: -1.3860154}
        - {x: 0.030499998, y: 0.055}
        - {x: 0.68823576, y: 0.055}
        - {x: 0.68823576, y: -1.0170634}
        - {x: 0.030499998, y: -1.0170634}
        UVs: 000000003f883f887f477fe4bf5ebff2
        AddColors: 00000000000000000000000000000000
        MulColors: 00020002000200020002000200020002
      Materials:
      - {fileID: 2100000, guid: d58d9a5e482e8429f8d7d18a9538d94a, type: 2}
    - Labels: []
      MeshData:
        SubMeshes:
        - StartVertex: 0
          IndexCount: 12
        Vertices:
        - {x: -0.51544166, y: 2.1635697}
        - {x: 2.9673603, y: 0.44147074}
        - {x: 1.2452612, y: -3.041331}
        - {x: -2.2375407, y: -1.3192321}
        - {x: 0.030499998, y: 0.055}
        - {x: 0.68823576, y: 0.055}
        - {x: 0.68823576, y: -1.0170634}
        - {x: 0.030499998, y: -1.0170634}
        UVs: 000000003f883f887f477fe4bf5ebff2
        AddColors: 00000000000000000000000000000000
        MulColors: 00020002000200020002000200020002
      Materials:
      - {fileID: 2100000, guid: d58d9a5e482e8429f8d7d18a9538d94a, type: 2}
    - Labels: []
      MeshData:
        SubMeshes:
        - StartVertex: 0
          IndexCount: 12
        Vertices:
        - {x: -0.45642343, y: 2.1821518}
        - {x: 2.986443, y: 0.38195726}
        - {x: 1.1862485, y: -3.0609093}
        - {x: -2.256618, y: -1.2607148}
        - {x: 0.030499998, y: 0.055}
        - {x: 0.68823576, y: 0.055}
        - {x: 0.68823576, y: -1.0170634}
        - {x: 0.030499998, y: -1.0170634}
        UVs: 000000003f883f887f477fe4bf5ebff2
        AddColors: 00000000000000000000000000000000
        MulColors: 00020002000200020002000200020002
      Materials:
      - {fileID: 2100000, guid: d58d9a5e482e8429f8d7d18a9538d94a, type: 2}
    - Labels: []
      MeshData:
        SubMeshes:
        - StartVertex: 0
          IndexCount: 12
        Vertices:
        - {x: -0.3880865, y: 2.2025654}
        - {x: 3.0068576, y: 0.31362578}
        - {x: 1.117918, y: -3.0813184}
        - {x: -2.2770262, y: -1.1923788}
        - {x: 0.030499998, y: 0.055}
        - {x: 0.68823576, y: 0.055}
        - {x: 0.68823576, y: -1.0170634}
        - {x: 0.030499998, y: -1.0170634}
        UVs: 000000003f883f887f477fe4bf5ebff2
        AddColors: 00000000000000000000000000000000
        MulColors: 00020002000200020002000200020002
      Materials:
      - {fileID: 2100000, guid: d58d9a5e482e8429f8d7d18a9538d94a, type: 2}
    - Labels: []
      MeshData:
        SubMeshes:
        - StartVertex: 0
          IndexCount: 12
        Vertices:
        - {x: -0.31936207, y: 2.221704}
        - {x: 3.0249975, y: 0.2449066}
        - {x: 1.0482001, y: -3.099453}
        - {x: -2.2961595, y: -1.1226556}
        - {x: 0.030499998, y: 0.055}
        - {x: 0.68823576, y: 0.055}
        - {x: 0.68823576, y: -1.0170634}
        - {x: 0.030499998, y: -1.0170634}
        UVs: 000000003f883f887f477fe4bf5ebff2
        AddColors: 00000000000000000000000000000000
        MulColors: 00020002000200020002000200020002
      Materials:
      - {fileID: 2100000, guid: d58d9a5e482e8429f8d7d18a9538d94a, type: 2}
    - Labels: []
      MeshData:
        SubMeshes:
        - StartVertex: 0
          IndexCount: 12
        Vertices:
        - {x: -0.24852824, y: 2.2387896}
        - {x: 3.0425844, y: 0.1745783}
        - {x: 0.9783731, y: -3.1165342}
        - {x: -2.3127396, y: -1.052323}
        - {x: 0.030499998, y: 0.055}
        - {x: 0.68823576, y: 0.055}
        - {x: 0.68823576, y: -1.0170634}
        - {x: 0.030499998, y: -1.0170634}
        UVs: 000000003f883f887f477fe4bf5ebff2
        AddColors: 00000000000000000000000000000000
        MulColors: 00020002000200020002000200020002
      Materials:
      - {fileID: 2100000, guid: d58d9a5e482e8429f8d7d18a9538d94a, type: 2}
    - Labels: []
      MeshData:
        SubMeshes:
        - StartVertex: 0
          IndexCount: 12
        Vertices:
        - {x: -0.17802873, y: 2.2538784}
        - {x: 3.0571742, y: 0.103584364}
        - {x: 0.90688026, y: -3.1316187}
        - {x: -2.3283226, y: -0.9813247}
        - {x: 0.030499998, y: 0.055}
        - {x: 0.68823576, y: 0.055}
        - {x: 0.68823576, y: -1.0170634}
        - {x: 0.030499998, y: -1.0170634}
        UVs: 000000003f883f887f477fe4bf5ebff2
        AddColors: 00000000000000000000000000000000
        MulColors: 00020002000200020002000200020002
      Materials:
      - {fileID: 2100000, guid: d58d9a5e482e8429f8d7d18a9538d94a, type: 2}
    - Labels: []
      MeshData:
        SubMeshes:
        - StartVertex: 0
          IndexCount: 12
        Vertices:
        - {x: -0.0965449, y: 2.2687452}
        - {x: 3.0725431, y: 0.022606444}
        - {x: 0.8264044, y: -3.1464815}
        - {x: -2.3426836, y: -0.9003429}
        - {x: 0.030499998, y: 0.055}
        - {x: 0.68823576, y: 0.055}
        - {x: 0.68823576, y: -1.0170634}
        - {x: 0.030499998, y: -1.0170634}
        UVs: 000000003f883f887f477fe4bf5ebff2
        AddColors: 00000000000000000000000000000000
        MulColors: 00020002000200020002000200020002
      Materials:
      - {fileID: 2100000, guid: d58d9a5e482e8429f8d7d18a9538d94a, type: 2}
    - Labels: []
      MeshData:
        SubMeshes:
        - StartVertex: 0
          IndexCount: 12
        Vertices:
        - {x: -0.02399222, y: 2.280062}
        - {x: 3.0838616, y: -0.049940884}
        - {x: 0.7538586, y: -3.1577947}
        - {x: -2.353995, y: -0.82779175}
        - {x: 0.030499998, y: 0.055}
        - {x: 0.68823576, y: 0.055}
        - {x: 0.68823576, y: -1.0170634}
        - {x: 0.030499998, y: -1.0170634}
        UVs: 000000003f883f887f477fe4bf5ebff2
        AddColors: 00000000000000000000000000000000
        MulColors: 00020002000200020002000200020002
      Materials:
      - {fileID: 2100000, guid: d58d9a5e482e8429f8d7d18a9538d94a, type: 2}
    - Labels: []
      MeshData:
        SubMeshes:
        - StartVertex: 0
          IndexCount: 12
        Vertices:
        - {x: 0.05804483, y: 2.2902696}
        - {x: 3.0935714, y: -0.13247198}
        - {x: 0.6708297, y: -3.1679986}
        - {x: -2.3646967, y: -0.7452569}
        - {x: 0.030499998, y: 0.055}
        - {x: 0.68823576, y: 0.055}
        - {x: 0.68823576, y: -1.0170634}
        - {x: 0.030499998, y: -1.0170634}
        UVs: 000000003f883f887f477fe4bf5ebff2
        AddColors: 00000000000000000000000000000000
        MulColors: 00020002000200020002000200020002
      Materials:
      - {fileID: 2100000, guid: d58d9a5e482e8429f8d7d18a9538d94a, type: 2}
    - Labels: []
      MeshData:
        SubMeshes:
        - StartVertex: 0
          IndexCount: 12
        Vertices:
        - {x: 0.14124753, y: 2.2984805}
        - {x: 3.1017845, y: -0.21566844}
        - {x: 0.58763564, y: -3.1762054}
        - {x: -2.3729014, y: -0.6620565}
        - {x: 0.030499998, y: 0.055}
        - {x: 0.68823576, y: 0.055}
        - {x: 0.68823576, y: -1.0170634}
        - {x: 0.030499998, y: -1.0170634}
        UVs: 000000003f883f887f477fe4bf5ebff2
        AddColors: 00000000000000000000000000000000
        MulColors: 00020002000200020002000200020002
      Materials:
      - {fileID: 2100000, guid: d58d9a5e482e8429f8d7d18a9538d94a, type: 2}
    - Labels: []
      MeshData:
        SubMeshes:
        - StartVertex: 0
          IndexCount: 12
        Vertices:
        - {x: 0.22489402, y: 2.3040287}
        - {x: 3.107335, y: -0.2993092}
        - {x: 0.5039972, y: -3.1817503}
        - {x: -2.378444, y: -0.5784124}
        - {x: 0.030499998, y: 0.055}
        - {x: 0.68823576, y: 0.055}
        - {x: 0.68823576, y: -1.0170634}
        - {x: 0.030499998, y: -1.0170634}
        UVs: 000000003f883f887f477fe4bf5ebff2
        AddColors: 00000000000000000000000000000000
        MulColors: 00020002000200020002000200020002
      Materials:
      - {fileID: 2100000, guid: d58d9a5e482e8429f8d7d18a9538d94a, type: 2}
    - Labels: []
      MeshData:
        SubMeshes:
        - StartVertex: 0
          IndexCount: 12
        Vertices:
        - {x: 0.30992806, y: 2.3069146}
        - {x: 3.110724, y: -0.3838371}
        - {x: 0.4199722, y: -3.184633}
        - {x: -2.3808236, y: -0.49388126}
        - {x: 0.030499998, y: 0.055}
        - {x: 0.68823576, y: 0.055}
        - {x: 0.68823576, y: -1.0170634}
        - {x: 0.030499998, y: -1.0170634}
        UVs: 000000003f883f887f477fe4bf5ebff2
        AddColors: 00000000000000000000000000000000
        MulColors: 00020002000200020002000200020002
      Materials:
      - {fileID: 2100000, guid: d58d9a5e482e8429f8d7d18a9538d94a, type: 2}
    - Labels: []
      MeshData:
        SubMeshes:
        - StartVertex: 0
          IndexCount: 12
        Vertices:
        - {x: 0.394684, y: 2.3068597}
        - {x: 3.111172, y: -0.4690873}
        - {x: 0.33522493, y: -3.1855752}
        - {x: -2.381263, y: -0.40962824}
        - {x: 0.030499998, y: 0.055}
        - {x: 0.68823576, y: 0.055}
        - {x: 0.68823576, y: -1.0170634}
        - {x: 0.030499998, y: -1.0170634}
        UVs: 000000003f883f887f477fe4bf5ebff2
        AddColors: 00000000000000000000000000000000
        MulColors: 00020002000200020002000200020002
      Materials:
      - {fileID: 2100000, guid: d58d9a5e482e8429f8d7d18a9538d94a, type: 2}
    - Labels: []
      MeshData:
        SubMeshes:
        - StartVertex: 0
          IndexCount: 12
        Vertices:
        - {x: 0.47988373, y: 2.3046424}
        - {x: 3.1089578, y: -0.55428135}
        - {x: 0.25003394, y: -3.1833553}
        - {x: -2.37904, y: -0.32443154}
        - {x: 0.030499998, y: 0.055}
        - {x: 0.68823576, y: 0.055}
        - {x: 0.68823576, y: -1.0170634}
        - {x: 0.030499998, y: -1.0170634}
        UVs: 000000003f883f887f477fe4bf5ebff2
        AddColors: 00000000000000000000000000000000
        MulColors: 00020002000200020002000200020002
      Materials:
      - {fileID: 2100000, guid: d58d9a5e482e8429f8d7d18a9538d94a, type: 2}
    - Labels: []
      MeshData:
        SubMeshes:
        - StartVertex: 0
          IndexCount: 12
        Vertices:
        - {x: 0.5744023, y: 2.2993753}
        - {x: 3.1031942, y: -0.6482936}
        - {x: 0.15552522, y: -3.1770854}
        - {x: -2.3732667, y: -0.22941655}
        - {x: 0.019516975, y: 0.073550925}
        - {x: 0.69958335, y: 0.073550925}
        - {x: 0.69958335, y: -1.03491}
        - {x: 0.019516975, y: -1.03491}
        UVs: 000000003f883f887f477fe4bf5ebff2
        AddColors: 00000000000000000000000000000000
        MulColors: 00020002000200020002000200020002
      Materials:
      - {fileID: 2100000, guid: d58d9a5e482e8429f8d7d18a9538d94a, type: 2}
    - Labels: []
      MeshData:
        SubMeshes:
        - StartVertex: 0
          IndexCount: 12
        Vertices:
        - {x: 0.6602677, y: 2.2916112}
        - {x: 3.0954335, y: -0.7341533}
        - {x: 0.06966909, y: -3.1693192}
        - {x: -2.3654969, y: -0.14355466}
        - {x: 0.008033951, y: 0.09160185}
        - {x: 0.710431, y: 0.09160185}
        - {x: 0.710431, y: -1.0532563}
        - {x: 0.008033951, y: -1.0532563}
        UVs: 000000003f883f887f477fe4bf5ebff2
        AddColors: 00000000000000000000000000000000
        MulColors: 00020002000200020002000200020002
      Materials:
      - {fileID: 2100000, guid: d58d9a5e482e8429f8d7d18a9538d94a, type: 2}
    - Labels: []
      MeshData:
        SubMeshes:
        - StartVertex: 0
          IndexCount: 12
        Vertices:
        - {x: 0.7550082, y: 2.2798536}
        - {x: 3.08368, y: -0.82888764}
        - {x: -0.025061272, y: -3.1575594}
        - {x: -2.353733, y: -0.04881814}
        - {x: -0.0034490663, y: 0.1091528}
        - {x: 0.7212887, y: 0.1091528}
        - {x: 0.7212887, y: -1.0721192}
        - {x: -0.0034490663, y: -1.0721192}
        UVs: 000000003f883f887f477fe4bf5ebff2
        AddColors: 00000000000000000000000000000000
        MulColors: 00020002000200020002000200020002
      Materials:
      - {fileID: 2100000, guid: d58d9a5e482e8429f8d7d18a9538d94a, type: 2}
    - Labels: []
      MeshData:
        SubMeshes:
        - StartVertex: 0
          IndexCount: 12
        Vertices:
        - {x: 0.84974873, y: 2.264546}
        - {x: 3.0683765, y: -0.9236223}
        - {x: -0.119791634, y: -3.14225}
        - {x: -2.3384194, y: 0.04591808}
        - {x: -0.01443209, y: 0.12770373}
        - {x: 0.7326363, y: 0.12770373}
        - {x: 0.7326363, y: -1.0899657}
        - {x: -0.01443209, y: -1.0899657}
        UVs: 000000003f883f887f477fe4bf5ebff2
        AddColors: 00000000000000000000000000000000
        MulColors: 00020002000200020002000200020002
      Materials:
      - {fileID: 2100000, guid: d58d9a5e482e8429f8d7d18a9538d94a, type: 2}
    - Labels: []
      MeshData:
        SubMeshes:
        - StartVertex: 0
          IndexCount: 12
        Vertices:
        - {x: 0.9444894, y: 2.245632}
        - {x: 3.0499673, y: -1.0188571}
        - {x: -0.21452181, y: -3.124335}
        - {x: -2.3199997, y: 0.14015412}
        - {x: -0.024915116, y: 0.14575465}
        - {x: 0.74448395, y: 0.14575465}
        - {x: 0.74448395, y: -1.1083122}
        - {x: -0.024915116, y: -1.1083122}
        UVs: 000000003f883f887f477fe4bf5ebff2
        AddColors: 00000000000000000000000000000000
        MulColors: 00020002000200020002000200020002
      Materials:
      - {fileID: 2100000, guid: d58d9a5e482e8429f8d7d18a9538d94a, type: 2}
    - Labels: []
      MeshData:
        SubMeshes:
        - StartVertex: 0
          IndexCount: 12
        Vertices:
        - {x: -0.24852824, y: 2.2387896}
        - {x: 3.0425844, y: 0.1745783}
        - {x: 0.9783731, y: -3.1165342}
        - {x: -2.3127396, y: -1.052323}
        - {x: -0.01592926, y: 0.13071221}
        - {x: 0.73486257, y: 0.13071221}
        - {x: 0.73486257, y: -1.0930262}
        - {x: -0.01592926, y: -1.0930262}
        UVs: 000000003f883f887f477fe4bf5ebff2
        AddColors: 00000000000000000000000000000000
        MulColors: 00020002000200020002000200020002
      Materials:
      - {fileID: 2100000, guid: d58d9a5e482e8429f8d7d18a9538d94a, type: 2}
    - Labels: []
      MeshData:
        SubMeshes:
        - StartVertex: 0
          IndexCount: 12
        Vertices:
        - {x: -0.14030692, y: 2.0675046}
        - {x: 2.8708146, y: 0.06585872}
        - {x: 0.86916876, y: -2.945263}
        - {x: -2.1419528, y: -0.9436169}
        - {x: -0.006443405, y: 0.115169786}
        - {x: 0.72574127, y: 0.115169786}
        - {x: 0.72574127, y: -1.0782402}
        - {x: -0.006443405, y: -1.0782402}
        UVs: 000000003f883f887f477fe4bf5ebff2
        AddColors: 00000000000000000000000000000000
        MulColors: 00020002d60100020002000200020002
      Materials:
      - {fileID: 2100000, guid: d58d9a5e482e8429f8d7d18a9538d94a, type: 2}
    - Labels: []
      MeshData:
        SubMeshes:
        - StartVertex: 0
          IndexCount: 12
        Vertices:
        - {x: -0.032638676, y: 1.8918351}
        - {x: 2.697161, y: -0.04280838}
        - {x: 0.7625176, y: -2.772608}
        - {x: -1.9672822, y: -0.83796465}
        - {x: 0.00354245, y: 0.100127354}
        - {x: 0.7171199, y: 0.100127354}
        - {x: 0.7171199, y: -1.0629542}
        - {x: 0.00354245, y: -1.0629542}
        UVs: 000000003f883f887f477fe4bf5ebff2
        AddColors: 00000000000000000000000000000000
        MulColors: 00020002aa0100020002000200020002
      Materials:
      - {fileID: 2100000, guid: d58d9a5e482e8429f8d7d18a9538d94a, type: 2}
    - Labels: []
      MeshData:
        SubMeshes:
        - StartVertex: 0
          IndexCount: 12
        Vertices:
        - {x: 0.057001576, y: 1.7134498}
        - {x: 2.518791, y: -0.13244852}
        - {x: 0.67289263, y: -2.5942378}
        - {x: -1.7888968, y: -0.74833953}
        - {x: 0.012528305, y: 0.08558491}
        - {x: 0.7074985, y: 0.08558491}
        - {x: 0.7074985, y: -1.0471681}
        - {x: 0.012528305, y: -1.0471681}
        UVs: 000000003f883f887f477fe4bf5ebff2
        AddColors: 00000000000000000000000000000000
        MulColors: 00020002800100020002000200020002
      Materials:
      - {fileID: 2100000, guid: d58d9a5e482e8429f8d7d18a9538d94a, type: 2}
    - Labels: []
      MeshData:
        SubMeshes:
        - StartVertex: 0
          IndexCount: 12
        Vertices:
        - {x: 0.14453562, y: 1.5333456}
        - {x: 2.3392022, y: -0.21848291}
        - {x: 0.5873737, y: -2.4131494}
        - {x: -1.6072929, y: -0.661321}
        - {x: 0.022014145, y: 0.07004243}
        - {x: 0.6983571, y: 0.07004243}
        - {x: 0.6983571, y: -1.0323495}
        - {x: 0.022014145, y: -1.0323495}
        UVs: 000000003f883f887f477fe4bf5ebff2
        AddColors: 00000000000000000000000000000000
        MulColors: 00020002560100020002000200020002
      Materials:
      - {fileID: 2100000, guid: d58d9a5e482e8429f8d7d18a9538d94a, type: 2}
    - Labels: []
      MeshData:
        SubMeshes:
        - StartVertex: 0
          IndexCount: 12
        Vertices:
        - {x: 0.22097604, y: 1.3486913}
        - {x: 2.156063, y: -0.29442438}
        - {x: 0.5129474, y: -2.2295115}
        - {x: -1.4221396, y: -0.58639574}
        - {x: 0.030499998, y: 0.055}
        - {x: 0.68823576, y: 0.055}
        - {x: 0.68823576, y: -1.0170634}
        - {x: 0.030499998, y: -1.0170634}
        UVs: 000000003f883f887f477fe4bf5ebff2
        AddColors: 00000000000000000000000000000000
        MulColors: 000200022a0100020002000200020002
      Materials:
      - {fileID: 2100000, guid: d58d9a5e482e8429f8d7d18a9538d94a, type: 2}
    - Labels: []
      MeshData:
        SubMeshes:
        - StartVertex: 0
          IndexCount: 12
        Vertices:
        - {x: 0.28504464, y: 1.16254}
        - {x: 1.9694269, y: -0.358995}
        - {x: 0.44789198, y: -2.0433772}
        - {x: -1.2364902, y: -0.5218423}
        - {x: 0.03349479, y: 0.049484365}
        - {x: 0.68437576, y: 0.049484365}
        - {x: 0.68437576, y: -1.0114063}
        - {x: 0.03349479, y: -1.0114063}
        UVs: 000000003f883f887f477fe4bf5ebff2
        AddColors: 00000000000000000000000000000000
        MulColors: 000200020001000200020002f8010002
      Materials:
      - {fileID: 2100000, guid: d58d9a5e482e8429f8d7d18a9538d94a, type: 2}
    - Labels: []
      MeshData:
        SubMeshes:
        - StartVertex: 0
          IndexCount: 12
        Vertices:
        - {x: 0.3390758, y: 0.9741697}
        - {x: 1.7820712, y: -0.41202897}
        - {x: 0.39587262, y: -1.8550245}
        - {x: -1.0471228, y: -0.4688258}
        - {x: 0.04397915, y: 0.03293745}
        - {x: 0.67428577, y: 0.03293745}
        - {x: 0.67428577, y: -0.99441844}
        - {x: 0.04397915, y: -0.99441844}
        UVs: 000000003f883f887f477fe4bf5ebff2
        AddColors: 00000000000000000000000000000000
        MulColors: 00020002d600000200020002e0010002
      Materials:
      - {fileID: 2100000, guid: d58d9a5e482e8429f8d7d18a9538d94a, type: 2}
    - Labels: []
      MeshData:
        SubMeshes:
        - StartVertex: 0
          IndexCount: 12
        Vertices:
        - {x: 0.38079143, y: 0.7833023}
        - {x: 1.5917184, y: -0.45424828}
        - {x: 0.35416788, y: -1.6651753}
        - {x: -0.85675913, y: -0.42762473}
        - {x: 0.060953088, y: 0.0043592607}
        - {x: 0.65697587, y: 0.0043592607}
        - {x: 0.65697587, y: -0.9671165}
        - {x: 0.060953088, y: -0.9671165}
        UVs: 000000003f883f887f477fe4bf5ebff2
        AddColors: 00000000000000000000000000000000
        MulColors: 00020002aa00000200020002b8010002
      Materials:
      - {fileID: 2100000, guid: d58d9a5e482e8429f8d7d18a9538d94a, type: 2}
    - Labels: []
      MeshData:
        SubMeshes:
        - StartVertex: 0
          IndexCount: 12
        Vertices:
        - {x: 0.4112477, y: 0.59176904}
        - {x: 1.4011995, y: -0.48470914}
        - {x: 0.32472122, y: -1.4746609}
        - {x: -0.6652305, y: -0.39818266}
        - {x: 0.0854166, y: -0.03475019}
        - {x: 0.6334461, y: -0.03475019}
        - {x: 0.6334461, y: -0.92800003}
        - {x: 0.0854166, y: -0.92800003}
        UVs: 000000003f883f887f477fe4bf5ebff2
        AddColors: 00000000000000000000000000000000
        MulColors: 00020002800000020002000280010002
      Materials:
      - {fileID: 2100000, guid: d58d9a5e482e8429f8d7d18a9538d94a, type: 2}
    - Labels: []
      MeshData:
        SubMeshes:
        - StartVertex: 0
          IndexCount: 12
        Vertices:
        - {x: 0.43182907, y: 0.40029192}
        - {x: 1.2092363, y: -0.50579566}
        - {x: 0.30314866, y: -1.2832029}
        - {x: -0.47425854, y: -0.37711525}
        - {x: 0.11586969, y: -0.08489094}
        - {x: 0.60218626, y: -0.08489094}
        - {x: 0.60218626, y: -0.8775531}
        - {x: 0.11586969, y: -0.8775531}
        UVs: 000000003f883f887f477fe4bf5ebff2
        AddColors: 00000000000000000000000000000000
        MulColors: 00020002560000020002000238010002
      Materials:
      - {fileID: 2100000, guid: d58d9a5e482e8429f8d7d18a9538d94a, type: 2}
    - Labels: []
      MeshData:
        SubMeshes:
        - StartVertex: 0
          IndexCount: 12
        Vertices:
        - {x: 0.43832296, y: 0.20787084}
        - {x: 1.0178285, y: -0.5122958}
        - {x: 0.2976619, y: -1.0918013}
        - {x: -0.28184366, y: -0.37163472}
        - {x: 0.15381236, y: -0.14706294}
        - {x: 0.56470644, y: -0.14706294}
        - {x: 0.56470644, y: -0.8167917}
        - {x: 0.15381236, y: -0.8167917}
        UVs: 000000003f883f887f477fe4bf5ebff2
        AddColors: 00000000000000000000000000000000
        MulColors: 000200022a00000200020002e0000002
      Materials:
      - {fileID: 2100000, guid: d58d9a5e482e8429f8d7d18a9538d94a, type: 2}
    - Labels: []
      MeshData:
        SubMeshes:
        - StartVertex: 0
          IndexCount: 6
        Vertices:
        - {x: 0.19824459, y: -0.22026621}
        - {x: 0.5200068, y: -0.22026621}
        - {x: 0.5200068, y: -0.7447162}
        - {x: 0.19824459, y: -0.7447162}
        UVs: 7f477fe4bf5ebff2
        AddColors: 0000000000000000
        MulColors: 0002000278000002
      Materials:
      - {fileID: 2100000, guid: d58d9a5e482e8429f8d7d18a9538d94a, type: 2}
    - Labels: []
      MeshData:
        SubMeshes: []
        Vertices: []
        UVs: 
        AddColors: 
        MulColors: 
      Materials: []
    - Labels: []
      MeshData:
        SubMeshes: []
        Vertices: []
        UVs: 
        AddColors: 
        MulColors: 
      Materials: []
