%YAML 1.1
%TAG !u! tag:unity3d.com,2011:
--- !u!114 &11400000
MonoBehaviour:
  m_ObjectHideFlags: 0
  m_PrefabParentObject: {fileID: 0}
  m_PrefabInternal: {fileID: 0}
  m_GameObject: {fileID: 0}
  m_Enabled: 1
  m_EditorHideFlags: 0
  m_Script: {fileID: 11500000, guid: 0c9fa30e000f3420796cfbd1e09a86d6, type: 3}
  m_Name: lava_clouds_shop_bulk.fla.bulk_terminator
  m_EditorClassIdentifier: 
  Name: bulk_terminator
  Sprite: {fileID: 21300000, guid: c3bde8e6164a34245bc54486857dd85a, type: 3}
  FrameRate: 30
  AssetGUID: 9ce96a368b47641babe6e55aa1954031
  Sequences:
  - Name: Default
    Frames:
    - Labels: []
      MeshData:
        SubMeshes: []
        Vertices: []
        UVs: 
        AddColors: 
        MulColors: 
      Materials: []
    - Labels: []
      MeshData:
        SubMeshes: []
        Vertices: []
        UVs: 
        AddColors: 
        MulColors: 
      Materials: []
    - Labels: []
      MeshData:
        SubMeshes: []
        Vertices: []
        UVs: 
        AddColors: 
        MulColors: 
      Materials: []
    - Labels: []
      MeshData:
        SubMeshes: []
        Vertices: []
        UVs: 
        AddColors: 
        MulColors: 
      Materials: []
    - Labels: []
      MeshData:
        SubMeshes: []
        Vertices: []
        UVs: 
        AddColors: 
        MulColors: 
      Materials: []
    - Labels: []
      MeshData:
        SubMeshes: []
        Vertices: []
        UVs: 
        AddColors: 
        MulColors: 
      Materials: []
    - Labels: []
      MeshData:
        SubMeshes: []
        Vertices: []
        UVs: 
        AddColors: 
        MulColors: 
      Materials: []
    - Labels: []
      MeshData:
        SubMeshes: []
        Vertices: []
        UVs: 
        AddColors: 
        MulColors: 
      Materials: []
    - Labels: []
      MeshData:
        SubMeshes: []
        Vertices: []
        UVs: 
        AddColors: 
        MulColors: 
      Materials: []
    - Labels: []
      MeshData:
        SubMeshes: []
        Vertices: []
        UVs: 
        AddColors: 
        MulColors: 
      Materials: []
    - Labels: []
      MeshData:
        SubMeshes: []
        Vertices: []
        UVs: 
        AddColors: 
        MulColors: 
      Materials: []
    - Labels: []
      MeshData:
        SubMeshes: []
        Vertices: []
        UVs: 
        AddColors: 
        MulColors: 
      Materials: []
    - Labels: []
      MeshData:
        SubMeshes: []
        Vertices: []
        UVs: 
        AddColors: 
        MulColors: 
      Materials: []
    - Labels: []
      MeshData:
        SubMeshes: []
        Vertices: []
        UVs: 
        AddColors: 
        MulColors: 
      Materials: []
    - Labels: []
      MeshData:
        SubMeshes: []
        Vertices: []
        UVs: 
        AddColors: 
        MulColors: 
      Materials: []
    - Labels: []
      MeshData:
        SubMeshes: []
        Vertices: []
        UVs: 
        AddColors: 
        MulColors: 
      Materials: []
    - Labels: []
      MeshData:
        SubMeshes: []
        Vertices: []
        UVs: 
        AddColors: 
        MulColors: 
      Materials: []
    - Labels: []
      MeshData:
        SubMeshes: []
        Vertices: []
        UVs: 
        AddColors: 
        MulColors: 
      Materials: []
    - Labels: []
      MeshData:
        SubMeshes:
        - StartVertex: 0
          IndexCount: 6
        Vertices:
        - {x: -0.126, y: -1.9355}
        - {x: 1.0439999, y: -1.9355}
        - {x: 1.0439999, y: -2.4355}
        - {x: -0.126, y: -2.4355}
        UVs: 0000bfc4ff18ffe1
        AddColors: 0000000000000000
        MulColors: 0002000200020002
      Materials:
      - {fileID: 2100000, guid: d58d9a5e482e8429f8d7d18a9538d94a, type: 2}
    - Labels: []
      MeshData:
        SubMeshes:
        - StartVertex: 0
          IndexCount: 6
        Vertices:
        - {x: -0.1055, y: -1.8555}
        - {x: 1.1144999, y: -1.8555}
        - {x: 1.1144999, y: -2.4055}
        - {x: -0.1055, y: -2.4055}
        UVs: ffb13f627fcdbf80
        AddColors: 0000000000000000
        MulColors: 0002000200020002
      Materials:
      - {fileID: 2100000, guid: d58d9a5e482e8429f8d7d18a9538d94a, type: 2}
    - Labels: []
      MeshData:
        SubMeshes:
        - StartVertex: 0
          IndexCount: 6
        Vertices:
        - {x: -0.047, y: -1.8275}
        - {x: 1.0029999, y: -1.8275}
        - {x: 1.0029999, y: -2.4575}
        - {x: -0.047, y: -2.4575}
        UVs: ffb1ff807fd13f9b
        AddColors: 0000000000000000
        MulColors: 0002000200020002
      Materials:
      - {fileID: 2100000, guid: d58d9a5e482e8429f8d7d18a9538d94a, type: 2}
    - Labels: []
      MeshData:
        SubMeshes:
        - StartVertex: 0
          IndexCount: 6
        Vertices:
        - {x: -0.0515, y: -1.6694999}
        - {x: 0.9384999, y: -1.6694999}
        - {x: 0.9384999, y: -2.4294999}
        - {x: -0.0515, y: -2.4294999}
        UVs: 7f723f627f98ff7a
        AddColors: 0000000000000000
        MulColors: 0002000200020002
      Materials:
      - {fileID: 2100000, guid: d58d9a5e482e8429f8d7d18a9538d94a, type: 2}
    - Labels: []
      MeshData:
        SubMeshes:
        - StartVertex: 0
          IndexCount: 6
        Vertices:
        - {x: 0.049, y: -1.5525}
        - {x: 0.839, y: -1.5525}
        - {x: 0.839, y: -2.3825}
        - {x: 0.049, y: -2.3825}
        UVs: ffd1ff807ffbbf94
        AddColors: 0000000000000000
        MulColors: 0002000200020002
      Materials:
      - {fileID: 2100000, guid: d58d9a5e482e8429f8d7d18a9538d94a, type: 2}
    - Labels: []
      MeshData:
        SubMeshes:
        - StartVertex: 0
          IndexCount: 6
        Vertices:
        - {x: 0.148, y: -1.4219999}
        - {x: 0.75799996, y: -1.4219999}
        - {x: 0.75799996, y: -2.382}
        - {x: 0.148, y: -2.382}
        UVs: 7fb8ff3f7fe83f4f
        AddColors: 0000000000000000
        MulColors: 0002000200020002
      Materials:
      - {fileID: 2100000, guid: d58d9a5e482e8429f8d7d18a9538d94a, type: 2}
    - Labels: []
      MeshData:
        SubMeshes:
        - StartVertex: 0
          IndexCount: 12
        Vertices:
        - {x: 0.033999998, y: -2.3105}
        - {x: 0.8539999, y: -2.3105}
        - {x: 0.8539999, y: -3.6304998}
        - {x: 0.033999998, y: -3.6304998}
        - {x: 0.24549998, y: -1.2814999}
        - {x: 0.75549996, y: -1.2814999}
        - {x: 0.75549996, y: -2.3914998}
        - {x: 0.24549998, y: -2.3914998}
        UVs: ff97ff11ffd97f267fb4bf50ffeb7f5d
        AddColors: 00000000000000000000000000000000
        MulColors: 00020002000200020002000200020002
      Materials:
      - {fileID: 2100000, guid: d58d9a5e482e8429f8d7d18a9538d94a, type: 2}
    - Labels: []
      MeshData:
        SubMeshes:
        - StartVertex: 0
          IndexCount: 18
        Vertices:
        - {x: 0.033999998, y: -2.066}
        - {x: 0.8539999, y: -2.066}
        - {x: 0.8539999, y: -3.386}
        - {x: 0.033999998, y: -3.386}
        - {x: 0.3425, y: -1.897}
        - {x: 0.6825, y: -1.897}
        - {x: 0.6825, y: -2.467}
        - {x: 0.3425, y: -2.467}
        - {x: 0.4065, y: -1.1675}
        - {x: 0.6465, y: -1.1675}
        - {x: 0.6465, y: -1.6875}
        - {x: 0.4065, y: -1.6875}
        UVs: ff97ff11ffd97f26ffb17f9b7fceffa3ffcd7f78ffe77f7e
        AddColors: 000000000000000000000000000000000000000000000000
        MulColors: 000200020002000200020002000200020002000200020002
      Materials:
      - {fileID: 2100000, guid: d58d9a5e482e8429f8d7d18a9538d94a, type: 2}
    - Labels: []
      MeshData:
        SubMeshes:
        - StartVertex: 0
          IndexCount: 18
        Vertices:
        - {x: 0.033999998, y: -1.821}
        - {x: 0.8539999, y: -1.821}
        - {x: 0.8539999, y: -3.1409998}
        - {x: 0.033999998, y: -3.1409998}
        - {x: 0.292, y: -1.9710001}
        - {x: 0.732, y: -1.9710001}
        - {x: 0.732, y: -2.461}
        - {x: 0.292, y: -2.461}
        - {x: 0.39749998, y: -1.1565}
        - {x: 0.6375, y: -1.1565}
        - {x: 0.6375, y: -1.5864999}
        - {x: 0.39749998, y: -1.5864999}
        UVs: ff97ff11ffd97f26ff98ff847fb1ff8fffe8ff3f7ffeff45
        AddColors: 000000000000000000000000000000000000000000000000
        MulColors: 000200020002000200020002000200020002000200020002
      Materials:
      - {fileID: 2100000, guid: d58d9a5e482e8429f8d7d18a9538d94a, type: 2}
    - Labels: []
      MeshData:
        SubMeshes:
        - StartVertex: 0
          IndexCount: 18
        Vertices:
        - {x: 0.033999998, y: -1.5764999}
        - {x: 0.8539999, y: -1.5764999}
        - {x: 0.8539999, y: -2.8964999}
        - {x: 0.033999998, y: -2.8964999}
        - {x: 0.241, y: -2.0449998}
        - {x: 0.78099996, y: -2.0449998}
        - {x: 0.78099996, y: -2.4649997}
        - {x: 0.241, y: -2.4649997}
        - {x: 0.3875, y: -1.1424999}
        - {x: 0.6475, y: -1.1424999}
        - {x: 0.6475, y: -1.4925}
        - {x: 0.3875, y: -1.4925}
        UVs: ff97ff11ffd97f267fe800007ffd7f0dffebbf247ffd3f2b
        AddColors: 000000000000000000000000000000000000000000000000
        MulColors: 000200020002000200020002000200020002000200020002
      Materials:
      - {fileID: 2100000, guid: d58d9a5e482e8429f8d7d18a9538d94a, type: 2}
    - Labels: []
      MeshData:
        SubMeshes:
        - StartVertex: 0
          IndexCount: 18
        Vertices:
        - {x: 0.033999998, y: -1.3314999}
        - {x: 0.8539999, y: -1.3314999}
        - {x: 0.8539999, y: -2.6514997}
        - {x: 0.033999998, y: -2.6514997}
        - {x: 0.19049999, y: -2.1185}
        - {x: 0.83049995, y: -2.1185}
        - {x: 0.83049995, y: -2.4585}
        - {x: 0.19049999, y: -2.4585}
        - {x: 0.3775, y: -1.117}
        - {x: 0.6775, y: -1.117}
        - {x: 0.6775, y: -1.407}
        - {x: 0.3775, y: -1.407}
        UVs: ff97ff11ffd97f267fdaff117febff217fda3f22ffe8bf29
        AddColors: 000000000000000000000000000000000000000000000000
        MulColors: 000200020002000200020002000200020002000200020002
      Materials:
      - {fileID: 2100000, guid: d58d9a5e482e8429f8d7d18a9538d94a, type: 2}
    - Labels: []
      MeshData:
        SubMeshes:
        - StartVertex: 0
          IndexCount: 18
        Vertices:
        - {x: 0.033999998, y: -1.0869999}
        - {x: 0.8539999, y: -1.0869999}
        - {x: 0.8539999, y: -2.4069998}
        - {x: 0.033999998, y: -2.4069998}
        - {x: 0.13949999, y: -2.1924999}
        - {x: 0.8795, y: -2.1924999}
        - {x: 0.8795, y: -2.4524999}
        - {x: 0.13949999, y: -2.4524999}
        - {x: 0.379, y: -1.1315}
        - {x: 0.669, y: -1.1315}
        - {x: 0.669, y: -1.4315}
        - {x: 0.379, y: -1.4315}
        UVs: ff97ff11ffd97f26ffebff11fff87f24ffe83f46fff77f4d
        AddColors: 000000000000000000000000000000000000000000000000
        MulColors: 000200020002000200020002000200020002000200020002
      Materials:
      - {fileID: 2100000, guid: d58d9a5e482e8429f8d7d18a9538d94a, type: 2}
    - Labels: []
      MeshData:
        SubMeshes:
        - StartVertex: 0
          IndexCount: 12
        Vertices:
        - {x: 0.125, y: -1.2110001}
        - {x: 0.91499996, y: -1.2110001}
        - {x: 0.91499996, y: -2.491}
        - {x: 0.125, y: -2.491}
        - {x: 0.384, y: -1.176}
        - {x: 0.674, y: -1.176}
        - {x: 0.674, y: -1.476}
        - {x: 0.384, y: -1.476}
        UVs: 7f72ff2b7fb2bf3f7fecbf507ffbff57
        AddColors: 00000000000000000000000000000000
        MulColors: 00020002000200020002000200020002
      Materials:
      - {fileID: 2100000, guid: d58d9a5e482e8429f8d7d18a9538d94a, type: 2}
    - Labels: []
      MeshData:
        SubMeshes:
        - StartVertex: 0
          IndexCount: 12
        Vertices:
        - {x: 0.125, y: -1.2110001}
        - {x: 0.91499996, y: -1.2110001}
        - {x: 0.91499996, y: -2.491}
        - {x: 0.125, y: -2.491}
        - {x: 0.39249998, y: -1.2494999}
        - {x: 0.66249996, y: -1.2494999}
        - {x: 0.66249996, y: -1.5594999}
        - {x: 0.39249998, y: -1.5594999}
        UVs: 7f72ff2b7fb2bf3fff987f967fa83f9d
        AddColors: 00000000000000000000000000000000
        MulColors: 00020002000200020002000200020002
      Materials:
      - {fileID: 2100000, guid: d58d9a5e482e8429f8d7d18a9538d94a, type: 2}
    - Labels: []
      MeshData:
        SubMeshes:
        - StartVertex: 0
          IndexCount: 12
        Vertices:
        - {x: 0.15349999, y: -1.407}
        - {x: 0.91349995, y: -1.407}
        - {x: 0.91349995, y: -2.6269999}
        - {x: 0.15349999, y: -2.6269999}
        - {x: 0.40349996, y: -1.352}
        - {x: 0.66349995, y: -1.352}
        - {x: 0.66349995, y: -1.6819999}
        - {x: 0.40349996, y: -1.6819999}
        UVs: ffb2ff2bffefff3e7fec3f58fffcbf5e
        AddColors: 00000000000000000000000000000000
        MulColors: 00020002000200020002000200020002
      Materials:
      - {fileID: 2100000, guid: d58d9a5e482e8429f8d7d18a9538d94a, type: 2}
    - Labels: []
      MeshData:
        SubMeshes:
        - StartVertex: 0
          IndexCount: 12
        Vertices:
        - {x: 0.15349999, y: -1.407}
        - {x: 0.91349995, y: -1.407}
        - {x: 0.91349995, y: -2.6269999}
        - {x: 0.15349999, y: -2.6269999}
        - {x: 0.41849998, y: -1.4839998}
        - {x: 0.65849996, y: -1.4839998}
        - {x: 0.65849996, y: -1.8339999}
        - {x: 0.41849998, y: -1.8339999}
        UVs: ffb2ff2bffefff3eff983f907faa3f96
        AddColors: 00000000000000000000000000000000
        MulColors: 00020002000200020002000200020002
      Materials:
      - {fileID: 2100000, guid: d58d9a5e482e8429f8d7d18a9538d94a, type: 2}
    - Labels: []
      MeshData:
        SubMeshes:
        - StartVertex: 0
          IndexCount: 12
        Vertices:
        - {x: 0.17300001, y: -1.4205}
        - {x: 0.863, y: -1.4205}
        - {x: 0.863, y: -2.7305}
        - {x: 0.17300001, y: -2.7305}
        - {x: 0.4365, y: -1.646}
        - {x: 0.6465, y: -1.646}
        - {x: 0.6465, y: -2.026}
        - {x: 0.4365, y: -2.026}
        UVs: 7f72bf50ffb3ff61ff987f9dffabbfa2
        AddColors: 00000000000000000000000000000000
        MulColors: 00020002000200020002000200020002
      Materials:
      - {fileID: 2100000, guid: d58d9a5e482e8429f8d7d18a9538d94a, type: 2}
    - Labels: []
      MeshData:
        SubMeshes:
        - StartVertex: 0
          IndexCount: 6
        Vertices:
        - {x: 0.2205, y: -1.3605}
        - {x: 0.88049996, y: -1.3605}
        - {x: 0.88049996, y: -2.7505}
        - {x: 0.2205, y: -2.7505}
        UVs: 7f72ff3fffb77f50
        AddColors: 0000000000000000
        MulColors: 0002000200020002
      Materials:
      - {fileID: 2100000, guid: d58d9a5e482e8429f8d7d18a9538d94a, type: 2}
    - Labels: []
      MeshData:
        SubMeshes:
        - StartVertex: 0
          IndexCount: 6
        Vertices:
        - {x: 0.24249999, y: -1.403}
        - {x: 0.90034634, y: -1.403}
        - {x: 0.90034634, y: -2.8899872}
        - {x: 0.24249999, y: -2.8899872}
        UVs: ff970000ffe7bf11
        AddColors: 0000000000000000
        MulColors: 0002000200020002
      Materials:
      - {fileID: 2100000, guid: d58d9a5e482e8429f8d7d18a9538d94a, type: 2}
    - Labels: []
      MeshData:
        SubMeshes:
        - StartVertex: 0
          IndexCount: 6
        Vertices:
        - {x: 0.24249999, y: -1.397}
        - {x: 0.90034634, y: -1.397}
        - {x: 0.90034634, y: -2.8839872}
        - {x: 0.24249999, y: -2.8839872}
        UVs: ff970000ffe7bf11
        AddColors: 0000000000000000
        MulColors: 0002000200020002
      Materials:
      - {fileID: 2100000, guid: d58d9a5e482e8429f8d7d18a9538d94a, type: 2}
    - Labels: []
      MeshData:
        SubMeshes:
        - StartVertex: 0
          IndexCount: 6
        Vertices:
        - {x: 0.24249999, y: -1.378}
        - {x: 0.90034634, y: -1.378}
        - {x: 0.90034634, y: -2.8649874}
        - {x: 0.24249999, y: -2.8649874}
        UVs: ff970000ffe7bf11
        AddColors: 0000000000000000
        MulColors: 0002000200020002
      Materials:
      - {fileID: 2100000, guid: d58d9a5e482e8429f8d7d18a9538d94a, type: 2}
    - Labels: []
      MeshData:
        SubMeshes:
        - StartVertex: 0
          IndexCount: 6
        Vertices:
        - {x: 0.24249999, y: -1.3469999}
        - {x: 0.90034634, y: -1.3469999}
        - {x: 0.90034634, y: -2.8339872}
        - {x: 0.24249999, y: -2.8339872}
        UVs: ff970000ffe7bf11
        AddColors: 0000000000000000
        MulColors: 0002000200020002
      Materials:
      - {fileID: 2100000, guid: d58d9a5e482e8429f8d7d18a9538d94a, type: 2}
    - Labels: []
      MeshData:
        SubMeshes:
        - StartVertex: 0
          IndexCount: 6
        Vertices:
        - {x: 0.24249999, y: -1.303}
        - {x: 0.90034634, y: -1.303}
        - {x: 0.90034634, y: -2.789987}
        - {x: 0.24249999, y: -2.789987}
        UVs: ff970000ffe7bf11
        AddColors: 0000000000000000
        MulColors: 0002000200020002
      Materials:
      - {fileID: 2100000, guid: d58d9a5e482e8429f8d7d18a9538d94a, type: 2}
    - Labels: []
      MeshData:
        SubMeshes:
        - StartVertex: 0
          IndexCount: 6
        Vertices:
        - {x: 0.24249999, y: -1.3069999}
        - {x: 0.90034634, y: -1.3069999}
        - {x: 0.90034634, y: -2.7939873}
        - {x: 0.24249999, y: -2.7939873}
        UVs: ff970000ffe7bf11
        AddColors: 0000000000000000
        MulColors: 0002000200020002
      Materials:
      - {fileID: 2100000, guid: d58d9a5e482e8429f8d7d18a9538d94a, type: 2}
    - Labels: []
      MeshData:
        SubMeshes:
        - StartVertex: 0
          IndexCount: 6
        Vertices:
        - {x: 0.24249999, y: -1.3189999}
        - {x: 0.90034634, y: -1.3189999}
        - {x: 0.90034634, y: -2.8059871}
        - {x: 0.24249999, y: -2.8059871}
        UVs: ff970000ffe7bf11
        AddColors: 0000000000000000
        MulColors: 0002000200020002
      Materials:
      - {fileID: 2100000, guid: d58d9a5e482e8429f8d7d18a9538d94a, type: 2}
    - Labels: []
      MeshData:
        SubMeshes:
        - StartVertex: 0
          IndexCount: 6
        Vertices:
        - {x: 0.24249999, y: -1.3389999}
        - {x: 0.90034634, y: -1.3389999}
        - {x: 0.90034634, y: -2.825987}
        - {x: 0.24249999, y: -2.825987}
        UVs: ff970000ffe7bf11
        AddColors: 0000000000000000
        MulColors: 0002000200020002
      Materials:
      - {fileID: 2100000, guid: d58d9a5e482e8429f8d7d18a9538d94a, type: 2}
    - Labels: []
      MeshData:
        SubMeshes:
        - StartVertex: 0
          IndexCount: 6
        Vertices:
        - {x: 0.24249999, y: -1.367}
        - {x: 0.90034634, y: -1.367}
        - {x: 0.90034634, y: -2.8539872}
        - {x: 0.24249999, y: -2.8539872}
        UVs: ff970000ffe7bf11
        AddColors: 0000000000000000
        MulColors: 0002000200020002
      Materials:
      - {fileID: 2100000, guid: d58d9a5e482e8429f8d7d18a9538d94a, type: 2}
    - Labels: []
      MeshData:
        SubMeshes:
        - StartVertex: 0
          IndexCount: 6
        Vertices:
        - {x: 0.24249999, y: -1.403}
        - {x: 0.90034634, y: -1.403}
        - {x: 0.90034634, y: -2.8899872}
        - {x: 0.24249999, y: -2.8899872}
        UVs: ff970000ffe7bf11
        AddColors: 0000000000000000
        MulColors: 0002000200020002
      Materials:
      - {fileID: 2100000, guid: d58d9a5e482e8429f8d7d18a9538d94a, type: 2}
    - Labels: []
      MeshData:
        SubMeshes:
        - StartVertex: 0
          IndexCount: 6
        Vertices:
        - {x: 0.24349777, y: -1.42}
        - {x: 0.89987856, y: -1.42}
        - {x: 0.89987856, y: -2.9093015}
        - {x: 0.24349777, y: -2.9093015}
        UVs: ff970000ffe7bf11
        AddColors: 0000000000000000
        MulColors: 0002000200020002
      Materials:
      - {fileID: 2100000, guid: d58d9a5e482e8429f8d7d18a9538d94a, type: 2}
    - Labels: []
      MeshData:
        SubMeshes:
        - StartVertex: 0
          IndexCount: 6
        Vertices:
        - {x: 0.24549107, y: -1.4705}
        - {x: 0.89746517, y: -1.4705}
        - {x: 0.89746517, y: -2.966722}
        - {x: 0.24549107, y: -2.966722}
        UVs: ff970000ffe7bf11
        AddColors: 0000000000000000
        MulColors: 0002000200020002
      Materials:
      - {fileID: 2100000, guid: d58d9a5e482e8429f8d7d18a9538d94a, type: 2}
    - Labels: []
      MeshData:
        SubMeshes:
        - StartVertex: 0
          IndexCount: 6
        Vertices:
        - {x: 0.24897988, y: -1.556}
        - {x: 0.8936063, y: -1.556}
        - {x: 0.8936063, y: -3.0637484}
        - {x: 0.24897988, y: -3.0637484}
        UVs: ff970000ffe7bf11
        AddColors: 0000000000000000
        MulColors: 0002000200020002
      Materials:
      - {fileID: 2100000, guid: d58d9a5e482e8429f8d7d18a9538d94a, type: 2}
    - Labels: []
      MeshData:
        SubMeshes:
        - StartVertex: 0
          IndexCount: 6
        Vertices:
        - {x: 0.25446427, y: -1.6755}
        - {x: 0.8888118, y: -1.6755}
        - {x: 0.8888118, y: -3.1993806}
        - {x: 0.25446427, y: -3.1993806}
        UVs: ff970000ffe7bf11
        AddColors: 0000000000000000
        MulColors: 0002000200020002
      Materials:
      - {fileID: 2100000, guid: d58d9a5e482e8429f8d7d18a9538d94a, type: 2}
    - Labels: []
      MeshData:
        SubMeshes:
        - StartVertex: 0
          IndexCount: 6
        Vertices:
        - {x: 0.26094416, y: -1.8275}
        - {x: 0.88206166, y: -1.8275}
        - {x: 0.88206166, y: -3.3721414}
        - {x: 0.26094416, y: -3.3721414}
        UVs: ff970000ffe7bf11
        AddColors: 0000000000000000
        MulColors: 0002000200020002
      Materials:
      - {fileID: 2100000, guid: d58d9a5e482e8429f8d7d18a9538d94a, type: 2}
    - Labels: []
      MeshData:
        SubMeshes:
        - StartVertex: 0
          IndexCount: 6
        Vertices:
        - {x: 0.2689196, y: -2.0145}
        - {x: 0.873876, y: -2.0145}
        - {x: 0.873876, y: -3.5845084}
        - {x: 0.2689196, y: -3.5845084}
        UVs: ff970000ffe7bf11
        AddColors: 0000000000000000
        MulColors: 0002000200020002
      Materials:
      - {fileID: 2100000, guid: d58d9a5e482e8429f8d7d18a9538d94a, type: 2}
    - Labels: []
      MeshData:
        SubMeshes:
        - StartVertex: 0
          IndexCount: 6
        Vertices:
        - {x: 0.2783906, y: -2.2355}
        - {x: 0.8642549, y: -2.2355}
        - {x: 0.8642549, y: -3.8354816}
        - {x: 0.2783906, y: -3.8354816}
        UVs: ff970000ffe7bf11
        AddColors: 0000000000000000
        MulColors: 0002000200020002
      Materials:
      - {fileID: 2100000, guid: d58d9a5e482e8429f8d7d18a9538d94a, type: 2}
    - Labels: []
      MeshData:
        SubMeshes:
        - StartVertex: 0
          IndexCount: 6
        Vertices:
        - {x: 0.2783906, y: -2.2355}
        - {x: 0.8642549, y: -2.2355}
        - {x: 0.8642549, y: -3.8354816}
        - {x: 0.2783906, y: -3.8354816}
        UVs: ff970000ffe7bf11
        AddColors: 0000000000000000
        MulColors: 0002000200020002
      Materials:
      - {fileID: 2100000, guid: d58d9a5e482e8429f8d7d18a9538d94a, type: 2}
    - Labels: []
      MeshData:
        SubMeshes:
        - StartVertex: 0
          IndexCount: 6
        Vertices:
        - {x: 0.2783906, y: -2.2355}
        - {x: 0.8642549, y: -2.2355}
        - {x: 0.8642549, y: -3.8354816}
        - {x: 0.2783906, y: -3.8354816}
        UVs: ff970000ffe7bf11
        AddColors: 0000000000000000
        MulColors: 0002000200020002
      Materials:
      - {fileID: 2100000, guid: d58d9a5e482e8429f8d7d18a9538d94a, type: 2}
    - Labels: []
      MeshData:
        SubMeshes:
        - StartVertex: 0
          IndexCount: 6
        Vertices:
        - {x: 0.2783906, y: -2.2355}
        - {x: 0.8642549, y: -2.2355}
        - {x: 0.8642549, y: -3.8354816}
        - {x: 0.2783906, y: -3.8354816}
        UVs: ff970000ffe7bf11
        AddColors: 0000000000000000
        MulColors: 0002000200020002
      Materials:
      - {fileID: 2100000, guid: d58d9a5e482e8429f8d7d18a9538d94a, type: 2}
    - Labels: []
      MeshData:
        SubMeshes:
        - StartVertex: 0
          IndexCount: 6
        Vertices:
        - {x: 0.2783906, y: -2.2355}
        - {x: 0.8642549, y: -2.2355}
        - {x: 0.8642549, y: -3.8354816}
        - {x: 0.2783906, y: -3.8354816}
        UVs: ff970000ffe7bf11
        AddColors: 0000000000000000
        MulColors: 0002000200020002
      Materials:
      - {fileID: 2100000, guid: d58d9a5e482e8429f8d7d18a9538d94a, type: 2}
    - Labels: []
      MeshData:
        SubMeshes:
        - StartVertex: 0
          IndexCount: 6
        Vertices:
        - {x: 0.2783906, y: -2.2355}
        - {x: 0.8642549, y: -2.2355}
        - {x: 0.8642549, y: -3.8354816}
        - {x: 0.2783906, y: -3.8354816}
        UVs: ff970000ffe7bf11
        AddColors: 0000000000000000
        MulColors: 0002000200020002
      Materials:
      - {fileID: 2100000, guid: d58d9a5e482e8429f8d7d18a9538d94a, type: 2}
    - Labels: []
      MeshData:
        SubMeshes:
        - StartVertex: 0
          IndexCount: 6
        Vertices:
        - {x: 0.2783906, y: -2.2355}
        - {x: 0.8642549, y: -2.2355}
        - {x: 0.8642549, y: -3.8354816}
        - {x: 0.2783906, y: -3.8354816}
        UVs: ff970000ffe7bf11
        AddColors: 0000000000000000
        MulColors: 0002000200020002
      Materials:
      - {fileID: 2100000, guid: d58d9a5e482e8429f8d7d18a9538d94a, type: 2}
    - Labels: []
      MeshData:
        SubMeshes:
        - StartVertex: 0
          IndexCount: 6
        Vertices:
        - {x: 0.2783906, y: -2.2355}
        - {x: 0.8642549, y: -2.2355}
        - {x: 0.8642549, y: -3.8354816}
        - {x: 0.2783906, y: -3.8354816}
        UVs: ff970000ffe7bf11
        AddColors: 0000000000000000
        MulColors: 0002000200020002
      Materials:
      - {fileID: 2100000, guid: d58d9a5e482e8429f8d7d18a9538d94a, type: 2}
    - Labels: []
      MeshData:
        SubMeshes:
        - StartVertex: 0
          IndexCount: 6
        Vertices:
        - {x: 0.2783906, y: -2.2355}
        - {x: 0.8642549, y: -2.2355}
        - {x: 0.8642549, y: -3.8354816}
        - {x: 0.2783906, y: -3.8354816}
        UVs: ff970000ffe7bf11
        AddColors: 0000000000000000
        MulColors: 0002000200020002
      Materials:
      - {fileID: 2100000, guid: d58d9a5e482e8429f8d7d18a9538d94a, type: 2}
    - Labels: []
      MeshData:
        SubMeshes:
        - StartVertex: 0
          IndexCount: 6
        Vertices:
        - {x: 0.2783906, y: -2.2355}
        - {x: 0.8642549, y: -2.2355}
        - {x: 0.8642549, y: -3.8354816}
        - {x: 0.2783906, y: -3.8354816}
        UVs: ff970000ffe7bf11
        AddColors: 0000000000000000
        MulColors: 0002000200020002
      Materials:
      - {fileID: 2100000, guid: d58d9a5e482e8429f8d7d18a9538d94a, type: 2}
    - Labels: []
      MeshData:
        SubMeshes:
        - StartVertex: 0
          IndexCount: 6
        Vertices:
        - {x: 0.2783906, y: -2.2355}
        - {x: 0.8642549, y: -2.2355}
        - {x: 0.8642549, y: -3.8354816}
        - {x: 0.2783906, y: -3.8354816}
        UVs: ff970000ffe7bf11
        AddColors: 0000000000000000
        MulColors: 0002000200020002
      Materials:
      - {fileID: 2100000, guid: d58d9a5e482e8429f8d7d18a9538d94a, type: 2}
    - Labels: []
      MeshData:
        SubMeshes:
        - StartVertex: 0
          IndexCount: 6
        Vertices:
        - {x: 0.2783906, y: -2.2355}
        - {x: 0.8642549, y: -2.2355}
        - {x: 0.8642549, y: -3.8354816}
        - {x: 0.2783906, y: -3.8354816}
        UVs: ff970000ffe7bf11
        AddColors: 0000000000000000
        MulColors: 0002000200020002
      Materials:
      - {fileID: 2100000, guid: d58d9a5e482e8429f8d7d18a9538d94a, type: 2}
    - Labels: []
      MeshData:
        SubMeshes:
        - StartVertex: 0
          IndexCount: 6
        Vertices:
        - {x: 0.2783906, y: -2.2355}
        - {x: 0.8642549, y: -2.2355}
        - {x: 0.8642549, y: -3.8354816}
        - {x: 0.2783906, y: -3.8354816}
        UVs: ff970000ffe7bf11
        AddColors: 0000000000000000
        MulColors: 0002000200020002
      Materials:
      - {fileID: 2100000, guid: d58d9a5e482e8429f8d7d18a9538d94a, type: 2}
    - Labels: []
      MeshData:
        SubMeshes:
        - StartVertex: 0
          IndexCount: 6
        Vertices:
        - {x: 0.2783906, y: -2.2355}
        - {x: 0.8642549, y: -2.2355}
        - {x: 0.8642549, y: -3.8354816}
        - {x: 0.2783906, y: -3.8354816}
        UVs: ff970000ffe7bf11
        AddColors: 0000000000000000
        MulColors: 0002000200020002
      Materials:
      - {fileID: 2100000, guid: d58d9a5e482e8429f8d7d18a9538d94a, type: 2}
    - Labels: []
      MeshData:
        SubMeshes:
        - StartVertex: 0
          IndexCount: 6
        Vertices:
        - {x: 0.2783906, y: -2.2355}
        - {x: 0.8642549, y: -2.2355}
        - {x: 0.8642549, y: -3.8354816}
        - {x: 0.2783906, y: -3.8354816}
        UVs: ff970000ffe7bf11
        AddColors: 0000000000000000
        MulColors: 0002000200020002
      Materials:
      - {fileID: 2100000, guid: d58d9a5e482e8429f8d7d18a9538d94a, type: 2}
    - Labels: []
      MeshData:
        SubMeshes:
        - StartVertex: 0
          IndexCount: 6
        Vertices:
        - {x: 0.2783906, y: -2.2355}
        - {x: 0.8642549, y: -2.2355}
        - {x: 0.8642549, y: -3.8354816}
        - {x: 0.2783906, y: -3.8354816}
        UVs: ff970000ffe7bf11
        AddColors: 0000000000000000
        MulColors: 0002000200020002
      Materials:
      - {fileID: 2100000, guid: d58d9a5e482e8429f8d7d18a9538d94a, type: 2}
    - Labels: []
      MeshData:
        SubMeshes:
        - StartVertex: 0
          IndexCount: 6
        Vertices:
        - {x: 0.2783906, y: -2.2355}
        - {x: 0.8642549, y: -2.2355}
        - {x: 0.8642549, y: -3.8354816}
        - {x: 0.2783906, y: -3.8354816}
        UVs: ff970000ffe7bf11
        AddColors: 0000000000000000
        MulColors: 0002000200020002
      Materials:
      - {fileID: 2100000, guid: d58d9a5e482e8429f8d7d18a9538d94a, type: 2}
    - Labels: []
      MeshData:
        SubMeshes:
        - StartVertex: 0
          IndexCount: 6
        Vertices:
        - {x: 0.2783906, y: -2.2355}
        - {x: 0.8642549, y: -2.2355}
        - {x: 0.8642549, y: -3.8354816}
        - {x: 0.2783906, y: -3.8354816}
        UVs: ff970000ffe7bf11
        AddColors: 0000000000000000
        MulColors: 0002000200020002
      Materials:
      - {fileID: 2100000, guid: d58d9a5e482e8429f8d7d18a9538d94a, type: 2}
    - Labels: []
      MeshData:
        SubMeshes:
        - StartVertex: 0
          IndexCount: 6
        Vertices:
        - {x: 0.2783906, y: -2.2355}
        - {x: 0.8642549, y: -2.2355}
        - {x: 0.8642549, y: -3.8354816}
        - {x: 0.2783906, y: -3.8354816}
        UVs: ff970000ffe7bf11
        AddColors: 0000000000000000
        MulColors: 0002000200020002
      Materials:
      - {fileID: 2100000, guid: d58d9a5e482e8429f8d7d18a9538d94a, type: 2}
    - Labels: []
      MeshData:
        SubMeshes:
        - StartVertex: 0
          IndexCount: 6
        Vertices:
        - {x: 0.2783906, y: -2.2355}
        - {x: 0.8642549, y: -2.2355}
        - {x: 0.8642549, y: -3.8354816}
        - {x: 0.2783906, y: -3.8354816}
        UVs: ff970000ffe7bf11
        AddColors: 0000000000000000
        MulColors: 0002000200020002
      Materials:
      - {fileID: 2100000, guid: d58d9a5e482e8429f8d7d18a9538d94a, type: 2}
    - Labels: []
      MeshData:
        SubMeshes:
        - StartVertex: 0
          IndexCount: 6
        Vertices:
        - {x: 0.2783906, y: -2.2355}
        - {x: 0.8642549, y: -2.2355}
        - {x: 0.8642549, y: -3.8354816}
        - {x: 0.2783906, y: -3.8354816}
        UVs: ff970000ffe7bf11
        AddColors: 0000000000000000
        MulColors: 0002000200020002
      Materials:
      - {fileID: 2100000, guid: d58d9a5e482e8429f8d7d18a9538d94a, type: 2}
    - Labels: []
      MeshData:
        SubMeshes:
        - StartVertex: 0
          IndexCount: 6
        Vertices:
        - {x: 0.2783906, y: -2.2355}
        - {x: 0.8642549, y: -2.2355}
        - {x: 0.8642549, y: -3.8354816}
        - {x: 0.2783906, y: -3.8354816}
        UVs: ff970000ffe7bf11
        AddColors: 0000000000000000
        MulColors: 0002000200020002
      Materials:
      - {fileID: 2100000, guid: d58d9a5e482e8429f8d7d18a9538d94a, type: 2}
    - Labels: []
      MeshData:
        SubMeshes:
        - StartVertex: 0
          IndexCount: 6
        Vertices:
        - {x: 0.2783906, y: -2.2355}
        - {x: 0.8642549, y: -2.2355}
        - {x: 0.8642549, y: -3.8354816}
        - {x: 0.2783906, y: -3.8354816}
        UVs: ff970000ffe7bf11
        AddColors: 0000000000000000
        MulColors: 0002000200020002
      Materials:
      - {fileID: 2100000, guid: d58d9a5e482e8429f8d7d18a9538d94a, type: 2}
    - Labels: []
      MeshData:
        SubMeshes:
        - StartVertex: 0
          IndexCount: 6
        Vertices:
        - {x: 0.2783906, y: -2.2355}
        - {x: 0.8642549, y: -2.2355}
        - {x: 0.8642549, y: -3.8354816}
        - {x: 0.2783906, y: -3.8354816}
        UVs: ff970000ffe7bf11
        AddColors: 0000000000000000
        MulColors: 0002000200020002
      Materials:
      - {fileID: 2100000, guid: d58d9a5e482e8429f8d7d18a9538d94a, type: 2}
    - Labels: []
      MeshData:
        SubMeshes:
        - StartVertex: 0
          IndexCount: 6
        Vertices:
        - {x: 0.2783906, y: -2.2355}
        - {x: 0.8642549, y: -2.2355}
        - {x: 0.8642549, y: -3.8354816}
        - {x: 0.2783906, y: -3.8354816}
        UVs: ff970000ffe7bf11
        AddColors: 0000000000000000
        MulColors: 0002000200020002
      Materials:
      - {fileID: 2100000, guid: d58d9a5e482e8429f8d7d18a9538d94a, type: 2}
    - Labels: []
      MeshData:
        SubMeshes:
        - StartVertex: 0
          IndexCount: 6
        Vertices:
        - {x: 0.2783906, y: -2.2355}
        - {x: 0.8642549, y: -2.2355}
        - {x: 0.8642549, y: -3.8354816}
        - {x: 0.2783906, y: -3.8354816}
        UVs: ff970000ffe7bf11
        AddColors: 0000000000000000
        MulColors: 0002000200020002
      Materials:
      - {fileID: 2100000, guid: d58d9a5e482e8429f8d7d18a9538d94a, type: 2}
    - Labels: []
      MeshData:
        SubMeshes:
        - StartVertex: 0
          IndexCount: 6
        Vertices:
        - {x: 0.2783906, y: -2.2355}
        - {x: 0.8642549, y: -2.2355}
        - {x: 0.8642549, y: -3.8354816}
        - {x: 0.2783906, y: -3.8354816}
        UVs: ff970000ffe7bf11
        AddColors: 0000000000000000
        MulColors: 0002000200020002
      Materials:
      - {fileID: 2100000, guid: d58d9a5e482e8429f8d7d18a9538d94a, type: 2}
    - Labels: []
      MeshData:
        SubMeshes:
        - StartVertex: 0
          IndexCount: 6
        Vertices:
        - {x: 0.2783906, y: -2.2355}
        - {x: 0.8642549, y: -2.2355}
        - {x: 0.8642549, y: -3.8354816}
        - {x: 0.2783906, y: -3.8354816}
        UVs: ff970000ffe7bf11
        AddColors: 0000000000000000
        MulColors: 0002000200020002
      Materials:
      - {fileID: 2100000, guid: d58d9a5e482e8429f8d7d18a9538d94a, type: 2}
    - Labels: []
      MeshData:
        SubMeshes:
        - StartVertex: 0
          IndexCount: 6
        Vertices:
        - {x: 0.2783906, y: -2.2355}
        - {x: 0.8642549, y: -2.2355}
        - {x: 0.8642549, y: -3.8354816}
        - {x: 0.2783906, y: -3.8354816}
        UVs: ff970000ffe7bf11
        AddColors: 0000000000000000
        MulColors: 0002000200020002
      Materials:
      - {fileID: 2100000, guid: d58d9a5e482e8429f8d7d18a9538d94a, type: 2}
    - Labels: []
      MeshData:
        SubMeshes:
        - StartVertex: 0
          IndexCount: 6
        Vertices:
        - {x: 0.2783906, y: -2.2355}
        - {x: 0.8642549, y: -2.2355}
        - {x: 0.8642549, y: -3.8354816}
        - {x: 0.2783906, y: -3.8354816}
        UVs: ff970000ffe7bf11
        AddColors: 0000000000000000
        MulColors: 0002000200020002
      Materials:
      - {fileID: 2100000, guid: d58d9a5e482e8429f8d7d18a9538d94a, type: 2}
    - Labels: []
      MeshData:
        SubMeshes:
        - StartVertex: 0
          IndexCount: 6
        Vertices:
        - {x: 0.2783906, y: -2.2355}
        - {x: 0.8642549, y: -2.2355}
        - {x: 0.8642549, y: -3.8354816}
        - {x: 0.2783906, y: -3.8354816}
        UVs: ff970000ffe7bf11
        AddColors: 0000000000000000
        MulColors: 0002000200020002
      Materials:
      - {fileID: 2100000, guid: d58d9a5e482e8429f8d7d18a9538d94a, type: 2}
    - Labels: []
      MeshData:
        SubMeshes:
        - StartVertex: 0
          IndexCount: 6
        Vertices:
        - {x: 0.2783906, y: -2.2355}
        - {x: 0.8642549, y: -2.2355}
        - {x: 0.8642549, y: -3.8354816}
        - {x: 0.2783906, y: -3.8354816}
        UVs: ff970000ffe7bf11
        AddColors: 0000000000000000
        MulColors: 0002000200020002
      Materials:
      - {fileID: 2100000, guid: d58d9a5e482e8429f8d7d18a9538d94a, type: 2}
    - Labels: []
      MeshData:
        SubMeshes:
        - StartVertex: 0
          IndexCount: 6
        Vertices:
        - {x: 0.2783906, y: -2.2355}
        - {x: 0.8642549, y: -2.2355}
        - {x: 0.8642549, y: -3.8354816}
        - {x: 0.2783906, y: -3.8354816}
        UVs: ff970000ffe7bf11
        AddColors: 0000000000000000
        MulColors: 0002000200020002
      Materials:
      - {fileID: 2100000, guid: d58d9a5e482e8429f8d7d18a9538d94a, type: 2}
    - Labels: []
      MeshData:
        SubMeshes:
        - StartVertex: 0
          IndexCount: 6
        Vertices:
        - {x: 0.2783906, y: -2.2355}
        - {x: 0.8642549, y: -2.2355}
        - {x: 0.8642549, y: -3.8354816}
        - {x: 0.2783906, y: -3.8354816}
        UVs: ff970000ffe7bf11
        AddColors: 0000000000000000
        MulColors: 0002000200020002
      Materials:
      - {fileID: 2100000, guid: d58d9a5e482e8429f8d7d18a9538d94a, type: 2}
    - Labels: []
      MeshData:
        SubMeshes:
        - StartVertex: 0
          IndexCount: 6
        Vertices:
        - {x: 0.2783906, y: -2.2355}
        - {x: 0.8642549, y: -2.2355}
        - {x: 0.8642549, y: -3.8354816}
        - {x: 0.2783906, y: -3.8354816}
        UVs: ff970000ffe7bf11
        AddColors: 0000000000000000
        MulColors: 0002000200020002
      Materials:
      - {fileID: 2100000, guid: d58d9a5e482e8429f8d7d18a9538d94a, type: 2}
    - Labels: []
      MeshData:
        SubMeshes:
        - StartVertex: 0
          IndexCount: 6
        Vertices:
        - {x: 0.2783906, y: -2.2355}
        - {x: 0.8642549, y: -2.2355}
        - {x: 0.8642549, y: -3.8354816}
        - {x: 0.2783906, y: -3.8354816}
        UVs: ff970000ffe7bf11
        AddColors: 0000000000000000
        MulColors: 0002000200020002
      Materials:
      - {fileID: 2100000, guid: d58d9a5e482e8429f8d7d18a9538d94a, type: 2}
    - Labels: []
      MeshData:
        SubMeshes:
        - StartVertex: 0
          IndexCount: 6
        Vertices:
        - {x: 0.2783906, y: -2.2355}
        - {x: 0.8642549, y: -2.2355}
        - {x: 0.8642549, y: -3.8354816}
        - {x: 0.2783906, y: -3.8354816}
        UVs: ff970000ffe7bf11
        AddColors: 0000000000000000
        MulColors: 0002000200020002
      Materials:
      - {fileID: 2100000, guid: d58d9a5e482e8429f8d7d18a9538d94a, type: 2}
    - Labels: []
      MeshData:
        SubMeshes:
        - StartVertex: 0
          IndexCount: 6
        Vertices:
        - {x: 0.2783906, y: -2.2355}
        - {x: 0.8642549, y: -2.2355}
        - {x: 0.8642549, y: -3.8354816}
        - {x: 0.2783906, y: -3.8354816}
        UVs: ff970000ffe7bf11
        AddColors: 0000000000000000
        MulColors: 0002000200020002
      Materials:
      - {fileID: 2100000, guid: d58d9a5e482e8429f8d7d18a9538d94a, type: 2}
    - Labels: []
      MeshData:
        SubMeshes:
        - StartVertex: 0
          IndexCount: 6
        Vertices:
        - {x: 0.2783906, y: -2.2355}
        - {x: 0.8642549, y: -2.2355}
        - {x: 0.8642549, y: -3.8354816}
        - {x: 0.2783906, y: -3.8354816}
        UVs: ff970000ffe7bf11
        AddColors: 0000000000000000
        MulColors: 0002000200020002
      Materials:
      - {fileID: 2100000, guid: d58d9a5e482e8429f8d7d18a9538d94a, type: 2}
    - Labels: []
      MeshData:
        SubMeshes:
        - StartVertex: 0
          IndexCount: 6
        Vertices:
        - {x: 0.2783906, y: -2.2355}
        - {x: 0.8642549, y: -2.2355}
        - {x: 0.8642549, y: -3.8354816}
        - {x: 0.2783906, y: -3.8354816}
        UVs: ff970000ffe7bf11
        AddColors: 0000000000000000
        MulColors: 0002000200020002
      Materials:
      - {fileID: 2100000, guid: d58d9a5e482e8429f8d7d18a9538d94a, type: 2}
    - Labels: []
      MeshData:
        SubMeshes:
        - StartVertex: 0
          IndexCount: 6
        Vertices:
        - {x: 0.2783906, y: -2.2355}
        - {x: 0.8642549, y: -2.2355}
        - {x: 0.8642549, y: -3.8354816}
        - {x: 0.2783906, y: -3.8354816}
        UVs: ff970000ffe7bf11
        AddColors: 0000000000000000
        MulColors: 0002000200020002
      Materials:
      - {fileID: 2100000, guid: d58d9a5e482e8429f8d7d18a9538d94a, type: 2}
