%YAML 1.1
%TAG !u! tag:unity3d.com,2011:
--- !u!114 &11400000
MonoBehaviour:
  m_ObjectHideFlags: 0
  m_PrefabParentObject: {fileID: 0}
  m_PrefabInternal: {fileID: 0}
  m_GameObject: {fileID: 0}
  m_Enabled: 1
  m_EditorHideFlags: 0
  m_Script: {fileID: 11500000, guid: 0c9fa30e000f3420796cfbd1e09a86d6, type: 3}
  m_Name: lava_clouds_shop_bulk.fla.noob
  m_EditorClassIdentifier: 
  Name: noob
  Sprite: {fileID: 21300000, guid: c3bde8e6164a34245bc54486857dd85a, type: 3}
  FrameRate: 30
  AssetGUID: 9ce96a368b47641babe6e55aa1954031
  Sequences:
  - Name: Default
    Frames:
    - Labels: []
      MeshData:
        SubMeshes:
        - StartVertex: 0
          IndexCount: 30
        Vertices:
        - {x: 0.694, y: -1.7139999}
        - {x: -0.50311154, y: -1.3274981}
        - {x: -0.30986065, y: -0.72894233}
        - {x: 0.8872509, y: -1.1154441}
        - {x: 0.639, y: -1.027}
        - {x: 1.5389999, y: -1.027}
        - {x: 1.5389999, y: -2.2169998}
        - {x: 0.639, y: -2.2169998}
        - {x: -0.172, y: 0.3405}
        - {x: 1.6779999, y: 0.3405}
        - {x: 1.6779999, y: -1.4094999}
        - {x: -0.172, y: -1.4094999}
        - {x: -0.7065, y: -0.21249999}
        - {x: 1.3434999, y: -0.21249999}
        - {x: 1.3434999, y: -1.2024999}
        - {x: -0.7065, y: -1.2024999}
        - {x: 0.9925, y: -0.9005}
        - {x: 2.154966, y: -0.4144264}
        - {x: 2.3980029, y: -0.9956595}
        - {x: 1.2355368, y: -1.4817331}
        UVs: ff5e7fe4bf6afffb7f20bfdfbf367ff07fb300003fd47f22bf72bfb83f85ffdeff5e7fe4bf6afffb
        AddColors: 00000000000000000000000000000000000000000000000000000000000000000000000000000000
        MulColors: 00020002000200020002000200020002000200020002000200020002000200020002000200020002
      Materials:
      - {fileID: 2100000, guid: d58d9a5e482e8429f8d7d18a9538d94a, type: 2}
    - Labels: []
      MeshData:
        SubMeshes:
        - StartVertex: 0
          IndexCount: 30
        Vertices:
        - {x: 0.7625, y: -1.696}
        - {x: -0.4848685, y: -1.5428643}
        - {x: -0.40830067, y: -0.91918004}
        - {x: 0.8390678, y: -1.0723157}
        - {x: 0.639, y: -1.0215}
        - {x: 1.5389999, y: -1.0215}
        - {x: 1.5389999, y: -2.2115}
        - {x: 0.639, y: -2.2115}
        - {x: -0.172, y: 0.346}
        - {x: 1.6779999, y: 0.346}
        - {x: 1.6779999, y: -1.4039999}
        - {x: -0.172, y: -1.4039999}
        - {x: -0.7065, y: -0.207}
        - {x: 1.3434999, y: -0.207}
        - {x: 1.3434999, y: -1.1969999}
        - {x: -0.7065, y: -1.1969999}
        - {x: 0.9625, y: -0.9244999}
        - {x: 2.0591745, y: -0.30818892}
        - {x: 2.36733, y: -0.8565262}
        - {x: 1.2706555, y: -1.4728372}
        UVs: ff5e7fe4bf6afffb7f20bfdfbf367ff07fb300003fd47f22bf72bfb83f85ffdeff5e7fe4bf6afffb
        AddColors: 00000000000000000000000000000000000000000000000000000000000000000000000000000000
        MulColors: 00020002000200020002000200020002000200020002000200020002000200020002000200020002
      Materials:
      - {fileID: 2100000, guid: d58d9a5e482e8429f8d7d18a9538d94a, type: 2}
    - Labels: []
      MeshData:
        SubMeshes:
        - StartVertex: 0
          IndexCount: 30
        Vertices:
        - {x: 0.83, y: -1.6664999}
        - {x: -0.42373234, y: -1.7597848}
        - {x: -0.47037482, y: -1.1329186}
        - {x: 0.7833575, y: -1.0396336}
        - {x: 0.639, y: -1.0155}
        - {x: 1.5389999, y: -1.0155}
        - {x: 1.5389999, y: -2.2055}
        - {x: 0.639, y: -2.2055}
        - {x: -0.172, y: 0.352}
        - {x: 1.6779999, y: 0.352}
        - {x: 1.6779999, y: -1.3979999}
        - {x: -0.172, y: -1.3979999}
        - {x: -0.7065, y: -0.201}
        - {x: 1.3434999, y: -0.201}
        - {x: 1.3434999, y: -1.1909999}
        - {x: -0.7065, y: -1.1909999}
        - {x: 0.934, y: -0.955}
        - {x: 1.9467335, y: -0.2096243}
        - {x: 2.3194213, y: -0.7159911}
        - {x: 1.3066878, y: -1.4613668}
        UVs: ff5e7fe4bf6afffb7f20bfdfbf367ff07fb300003fd47f22bf72bfb83f85ffdeff5e7fe4bf6afffb
        AddColors: 00000000000000000000000000000000000000000000000000000000000000000000000000000000
        MulColors: 00020002000200020002000200020002000200020002000200020002000200020002000200020002
      Materials:
      - {fileID: 2100000, guid: d58d9a5e482e8429f8d7d18a9538d94a, type: 2}
    - Labels: []
      MeshData:
        SubMeshes:
        - StartVertex: 0
          IndexCount: 30
        Vertices:
        - {x: 0.89199996, y: -1.6235}
        - {x: -0.31974265, y: -1.961033}
        - {x: -0.48850912, y: -1.3551617}
        - {x: 0.72323346, y: -1.0176287}
        - {x: 0.639, y: -1.008}
        - {x: 1.5389999, y: -1.008}
        - {x: 1.5389999, y: -2.198}
        - {x: 0.639, y: -2.198}
        - {x: -0.172, y: 0.3595}
        - {x: 1.6779999, y: 0.3595}
        - {x: 1.6779999, y: -1.3905}
        - {x: -0.172, y: -1.3905}
        - {x: -0.7065, y: -0.1935}
        - {x: 1.3434999, y: -0.1935}
        - {x: 1.3434999, y: -1.1834999}
        - {x: -0.7065, y: -1.1834999}
        - {x: 0.90749997, y: -0.98800004}
        - {x: 1.817374, y: -0.12069256}
        - {x: 2.2510276, y: -0.57562953}
        - {x: 1.3411537, y: -1.442937}
        UVs: ff5e7fe4bf6afffb7f20bfdfbf367ff07fb300003fd47f22bf72bfb83f85ffdeff5e7fe4bf6afffb
        AddColors: 00000000000000000000000000000000000000000000000000000000000000000000000000000000
        MulColors: 00020002000200020002000200020002000200020002000200020002000200020002000200020002
      Materials:
      - {fileID: 2100000, guid: d58d9a5e482e8429f8d7d18a9538d94a, type: 2}
    - Labels: []
      MeshData:
        SubMeshes:
        - StartVertex: 0
          IndexCount: 30
        Vertices:
        - {x: 0.9485, y: -1.568}
        - {x: -0.17126502, y: -2.141379}
        - {x: -0.45795465, y: -1.5814967}
        - {x: 0.66181034, y: -1.0081174}
        - {x: 0.639, y: -1}
        - {x: 1.5389999, y: -1}
        - {x: 1.5389999, y: -2.1899998}
        - {x: 0.639, y: -2.1899998}
        - {x: -0.172, y: 0.36749998}
        - {x: 1.6779999, y: 0.36749998}
        - {x: 1.6779999, y: -1.3824999}
        - {x: -0.172, y: -1.3824999}
        - {x: -0.7065, y: -0.18549998}
        - {x: 1.3434999, y: -0.18549998}
        - {x: 1.3434999, y: -1.1754999}
        - {x: -0.7065, y: -1.1754999}
        - {x: 0.88449997, y: -1.0235}
        - {x: 1.6725575, y: -0.044700496}
        - {x: 2.1619573, y: -0.4387293}
        - {x: 1.3738997, y: -1.4175287}
        UVs: ff5e7fe4bf6afffb7f20bfdfbf367ff07fb300003fd47f22bf72bfb83f85ffdeff5e7fe4bf6afffb
        AddColors: 00000000000000000000000000000000000000000000000000000000000000000000000000000000
        MulColors: 00020002000200020002000200020002000200020002000200020002000200020002000200020002
      Materials:
      - {fileID: 2100000, guid: d58d9a5e482e8429f8d7d18a9538d94a, type: 2}
    - Labels: []
      MeshData:
        SubMeshes:
        - StartVertex: 0
          IndexCount: 30
        Vertices:
        - {x: 0.9955, y: -1.501}
        - {x: 0.020045878, y: -2.2940564}
        - {x: -0.37648228, y: -1.8063294}
        - {x: 0.59897184, y: -1.013273}
        - {x: 0.639, y: -0.99099994}
        - {x: 1.5389999, y: -0.99099994}
        - {x: 1.5389999, y: -2.1809998}
        - {x: 0.639, y: -2.1809998}
        - {x: -0.172, y: 0.3765}
        - {x: 1.6779999, y: 0.3765}
        - {x: 1.6779999, y: -1.3734999}
        - {x: -0.172, y: -1.3734999}
        - {x: -0.7065, y: -0.1765}
        - {x: 1.3434999, y: -0.1765}
        - {x: 1.3434999, y: -1.1664999}
        - {x: -0.7065, y: -1.1664999}
        - {x: 0.8675, y: -1.0625}
        - {x: 1.515534, y: 0.013775667}
        - {x: 2.0536718, y: -0.31024137}
        - {x: 1.4056379, y: -1.386517}
        UVs: ff5e7fe4bf6afffb7f20bfdfbf367ff07fb300003fd47f22bf72bfb83f85ffdeff5e7fe4bf6afffb
        AddColors: 00000000000000000000000000000000000000000000000000000000000000000000000000000000
        MulColors: 00020002000200020002000200020002000200020002000200020002000200020002000200020002
      Materials:
      - {fileID: 2100000, guid: d58d9a5e482e8429f8d7d18a9538d94a, type: 2}
    - Labels: []
      MeshData:
        SubMeshes:
        - StartVertex: 0
          IndexCount: 30
        Vertices:
        - {x: 1.0294999, y: -1.4235001}
        - {x: 0.2452491, y: -2.4051065}
        - {x: -0.24555415, y: -2.0129812}
        - {x: 0.53869665, y: -1.0313747}
        - {x: 0.639, y: -0.98099995}
        - {x: 1.5389999, y: -0.98099995}
        - {x: 1.5389999, y: -2.1709998}
        - {x: 0.639, y: -2.1709998}
        - {x: -0.172, y: 0.3865}
        - {x: 1.6779999, y: 0.3865}
        - {x: 1.6779999, y: -1.3634999}
        - {x: -0.172, y: -1.3634999}
        - {x: -0.7065, y: -0.16649999}
        - {x: 1.3434999, y: -0.16649999}
        - {x: 1.3434999, y: -1.1564999}
        - {x: -0.7065, y: -1.1564999}
        - {x: 0.85599995, y: -1.104}
        - {x: 1.3431886, y: 0.05377501}
        - {x: 1.9220762, y: -0.18981937}
        - {x: 1.4348874, y: -1.3475944}
        UVs: ff5e7fe4bf6afffb7f20bfdfbf367ff07fb300003fd47f22bf72bfb83f85ffdeff5e7fe4bf6afffb
        AddColors: 00000000000000000000000000000000000000000000000000000000000000000000000000000000
        MulColors: 00020002000200020002000200020002000200020002000200020002000200020002000200020002
      Materials:
      - {fileID: 2100000, guid: d58d9a5e482e8429f8d7d18a9538d94a, type: 2}
    - Labels: []
      MeshData:
        SubMeshes:
        - StartVertex: 0
          IndexCount: 30
        Vertices:
        - {x: 1.05, y: -1.3389999}
        - {x: 0.49744257, y: -2.4669936}
        - {x: -0.066554345, y: -2.190715}
        - {x: 0.48600304, y: -1.0627211}
        - {x: 0.639, y: -0.96999997}
        - {x: 1.5389999, y: -0.96999997}
        - {x: 1.5389999, y: -2.1599998}
        - {x: 0.639, y: -2.1599998}
        - {x: -0.172, y: 0.39749998}
        - {x: 1.6779999, y: 0.39749998}
        - {x: 1.6779999, y: -1.3525}
        - {x: -0.172, y: -1.3525}
        - {x: -0.7065, y: -0.1555}
        - {x: 1.3434999, y: -0.1555}
        - {x: 1.3434999, y: -1.1455}
        - {x: -0.7065, y: -1.1455}
        - {x: 0.84999996, y: -1.1444999}
        - {x: 1.1650577, y: 0.07147245}
        - {x: 1.7730439, y: -0.08605639}
        - {x: 1.4579861, y: -1.3020288}
        UVs: ff5e7fe4bf6afffb7f20bfdfbf367ff07fb300003fd47f22bf72bfb83f85ffdeff5e7fe4bf6afffb
        AddColors: 00000000000000000000000000000000000000000000000000000000000000000000000000000000
        MulColors: 00020002000200020002000200020002000200020002000200020002000200020002000200020002
      Materials:
      - {fileID: 2100000, guid: d58d9a5e482e8429f8d7d18a9538d94a, type: 2}
    - Labels: []
      MeshData:
        SubMeshes:
        - StartVertex: 0
          IndexCount: 30
        Vertices:
        - {x: 1.054, y: -1.252}
        - {x: 0.7606101, y: -2.4733171}
        - {x: 0.14995155, y: -2.3266222}
        - {x: 0.44334143, y: -1.1053051}
        - {x: 0.639, y: -0.958}
        - {x: 1.5389999, y: -0.958}
        - {x: 1.5389999, y: -2.148}
        - {x: 0.639, y: -2.148}
        - {x: -0.172, y: 0.4095}
        - {x: 1.6779999, y: 0.4095}
        - {x: 1.6779999, y: -1.3404999}
        - {x: -0.172, y: -1.3404999}
        - {x: -0.7065, y: -0.1435}
        - {x: 1.3434999, y: -0.1435}
        - {x: 1.3434999, y: -1.1334999}
        - {x: -0.7065, y: -1.1334999}
        - {x: 0.84999996, y: -1.1845}
        - {x: 0.9808911, y: 0.06496413}
        - {x: 1.6056231, y: -0.00048142485}
        - {x: 1.474732, y: -1.2499455}
        UVs: ff5e7fe4bf6afffb7f20bfdfbf367ff07fb300003fd47f22bf72bfb83f85ffdeff5e7fe4bf6afffb
        AddColors: 00000000000000000000000000000000000000000000000000000000000000000000000000000000
        MulColors: 00020002000200020002000200020002000200020002000200020002000200020002000200020002
      Materials:
      - {fileID: 2100000, guid: d58d9a5e482e8429f8d7d18a9538d94a, type: 2}
    - Labels: []
      MeshData:
        SubMeshes:
        - StartVertex: 0
          IndexCount: 30
        Vertices:
        - {x: 1.0419999, y: -1.164}
        - {x: 1.0314448, y: -2.4203663}
        - {x: 0.4032617, y: -2.4150887}
        - {x: 0.4138168, y: -1.1587225}
        - {x: 0.639, y: -0.945}
        - {x: 1.5389999, y: -0.945}
        - {x: 1.5389999, y: -2.135}
        - {x: 0.639, y: -2.135}
        - {x: -0.172, y: 0.42249998}
        - {x: 1.6779999, y: 0.42249998}
        - {x: 1.6779999, y: -1.3274999}
        - {x: -0.172, y: -1.3274999}
        - {x: -0.7065, y: -0.1305}
        - {x: 1.3434999, y: -0.1305}
        - {x: 1.3434999, y: -1.1204998}
        - {x: -0.7065, y: -1.1204998}
        - {x: 0.85949993, y: -1.2235}
        - {x: 0.7937275, y: 0.031366643}
        - {x: 1.4211608, y: 0.064252846}
        - {x: 1.4869332, y: -1.1906139}
        UVs: ff5e7fe4bf6afffb7f20bfdfbf367ff07fb300003fd47f22bf72bfb83f85ffdeff5e7fe4bf6afffb
        AddColors: 00000000000000000000000000000000000000000000000000000000000000000000000000000000
        MulColors: 00020002000200020002000200020002000200020002000200020002000200020002000200020002
      Materials:
      - {fileID: 2100000, guid: d58d9a5e482e8429f8d7d18a9538d94a, type: 2}
    - Labels: []
      MeshData:
        SubMeshes:
        - StartVertex: 0
          IndexCount: 30
        Vertices:
        - {x: 1.0144999, y: -1.0819999}
        - {x: 1.2927396, y: -2.3079314}
        - {x: 0.6797739, y: -2.4470513}
        - {x: 0.4015342, y: -1.2211198}
        - {x: 0.639, y: -0.9315}
        - {x: 1.5389999, y: -0.9315}
        - {x: 1.5389999, y: -2.1215}
        - {x: 0.639, y: -2.1215}
        - {x: -0.172, y: 0.436}
        - {x: 1.6779999, y: 0.436}
        - {x: 1.6779999, y: -1.3139999}
        - {x: -0.172, y: -1.3139999}
        - {x: -0.7065, y: -0.117}
        - {x: 1.3434999, y: -0.117}
        - {x: 1.3434999, y: -1.1069999}
        - {x: -0.7065, y: -1.1069999}
        - {x: 0.8755, y: -1.2605}
        - {x: 0.61329484, y: -0.031088602}
        - {x: 1.2280005, y: 0.10001399}
        - {x: 1.4902056, y: -1.1293974}
        UVs: ff5e7fe4bf6afffb7f20bfdfbf367ff07fb300003fd47f22bf72bfb83f85ffdeff5e7fe4bf6afffb
        AddColors: 00000000000000000000000000000000000000000000000000000000000000000000000000000000
        MulColors: 00020002000200020002000200020002000200020002000200020002000200020002000200020002
      Materials:
      - {fileID: 2100000, guid: d58d9a5e482e8429f8d7d18a9538d94a, type: 2}
    - Labels: []
      MeshData:
        SubMeshes:
        - StartVertex: 0
          IndexCount: 30
        Vertices:
        - {x: 0.97099996, y: -1.0094999}
        - {x: 1.524211, y: -2.138705}
        - {x: 0.9596085, y: -2.4153104}
        - {x: 0.40639746, y: -1.2861054}
        - {x: 0.639, y: -0.9165}
        - {x: 1.5389999, y: -0.9165}
        - {x: 1.5389999, y: -2.1065}
        - {x: 0.639, y: -2.1065}
        - {x: -0.172, y: 0.45099998}
        - {x: 1.6779999, y: 0.45099998}
        - {x: 1.6779999, y: -1.2989999}
        - {x: -0.172, y: -1.2989999}
        - {x: -0.7065, y: -0.102}
        - {x: 1.3434999, y: -0.102}
        - {x: 1.3434999, y: -1.0919999}
        - {x: -0.7065, y: -1.0919999}
        - {x: 0.89949995, y: -1.2925}
        - {x: 0.43840098, y: -0.12247799}
        - {x: 1.023412, y: 0.10807149}
        - {x: 1.484511, y: -1.0619506}
        UVs: ff5e7fe4bf6afffb7f20bfdfbf367ff07fb300003fd47f22bf72bfb83f85ffdeff5e7fe4bf6afffb
        AddColors: 00000000000000000000000000000000000000000000000000000000000000000000000000000000
        MulColors: 00020002000200020002000200020002000200020002000200020002000200020002000200020002
      Materials:
      - {fileID: 2100000, guid: d58d9a5e482e8429f8d7d18a9538d94a, type: 2}
    - Labels: []
      MeshData:
        SubMeshes:
        - StartVertex: 0
          IndexCount: 30
        Vertices:
        - {x: 0.913, y: -0.9485}
        - {x: 1.7183418, y: -1.9128991}
        - {x: 1.2361422, y: -2.31557}
        - {x: 0.4308004, y: -1.3511709}
        - {x: 0.639, y: -0.90099996}
        - {x: 1.5389999, y: -0.90099996}
        - {x: 1.5389999, y: -2.0909998}
        - {x: 0.639, y: -2.0909998}
        - {x: -0.172, y: 0.4665}
        - {x: 1.6779999, y: 0.4665}
        - {x: 1.6779999, y: -1.2834998}
        - {x: -0.172, y: -1.2834998}
        - {x: -0.7065, y: -0.0865}
        - {x: 1.3434999, y: -0.0865}
        - {x: 1.3434999, y: -1.0764999}
        - {x: -0.7065, y: -1.0764999}
        - {x: 0.92849994, y: -1.3169999}
        - {x: 0.28384966, y: -0.23789807}
        - {x: 0.82340056, y: 0.08442707}
        - {x: 1.4680508, y: -0.99467474}
        UVs: ff5e7fe4bf6afffb7f20bfdfbf367ff07fb300003fd47f22bf72bfb83f85ffdeff5e7fe4bf6afffb
        AddColors: 00000000000000000000000000000000000000000000000000000000000000000000000000000000
        MulColors: 00020002000200020002000200020002000200020002000200020002000200020002000200020002
      Materials:
      - {fileID: 2100000, guid: d58d9a5e482e8429f8d7d18a9538d94a, type: 2}
    - Labels: []
      MeshData:
        SubMeshes:
        - StartVertex: 0
          IndexCount: 30
        Vertices:
        - {x: 0.84499997, y: -0.904}
        - {x: 1.8594638, y: -1.6439347}
        - {x: 1.4894965, y: -2.1511667}
        - {x: 0.47503263, y: -1.4112319}
        - {x: 0.639, y: -0.884}
        - {x: 1.5389999, y: -0.884}
        - {x: 1.5389999, y: -2.074}
        - {x: 0.639, y: -2.074}
        - {x: -0.172, y: 0.48349997}
        - {x: 1.6779999, y: 0.48349997}
        - {x: 1.6779999, y: -1.2664999}
        - {x: -0.172, y: -1.2664999}
        - {x: -0.7065, y: -0.0695}
        - {x: 1.3434999, y: -0.0695}
        - {x: 1.3434999, y: -1.0594999}
        - {x: -0.7065, y: -1.0594999}
        - {x: 0.9675, y: -1.3349999}
        - {x: 0.14610441, y: -0.38450128}
        - {x: 0.62135375, y: 0.026196508}
        - {x: 1.4427493, y: -0.92430216}
        UVs: ff5e7fe4bf6afffb7f20bfdfbf367ff07fb300003fd47f22bf72bfb83f85ffdeff5e7fe4bf6afffb
        AddColors: 00000000000000000000000000000000000000000000000000000000000000000000000000000000
        MulColors: 00020002000200020002000200020002000200020002000200020002000200020002000200020002
      Materials:
      - {fileID: 2100000, guid: d58d9a5e482e8429f8d7d18a9538d94a, type: 2}
    - Labels: []
      MeshData:
        SubMeshes:
        - StartVertex: 0
          IndexCount: 30
        Vertices:
        - {x: 0.77099997, y: -0.878}
        - {x: 1.9364462, y: -1.3443669}
        - {x: 1.7032627, y: -1.92709}
        - {x: 0.5378165, y: -1.4607232}
        - {x: 0.639, y: -0.8665}
        - {x: 1.5389999, y: -0.8665}
        - {x: 1.5389999, y: -2.0565}
        - {x: 0.639, y: -2.0565}
        - {x: -0.172, y: 0.501}
        - {x: 1.6779999, y: 0.501}
        - {x: 1.6779999, y: -1.249}
        - {x: -0.172, y: -1.249}
        - {x: -0.7065, y: -0.051999997}
        - {x: 1.3434999, y: -0.051999997}
        - {x: 1.3434999, y: -1.0419999}
        - {x: -0.7065, y: -1.0419999}
        - {x: 1.0094999, y: -1.3425}
        - {x: 0.035218567, y: -0.5504434}
        - {x: 0.43124685, y: -0.063302755}
        - {x: 1.4055282, y: -0.8553593}
        UVs: ff5e7fe4bf6afffb7f20bfdfbf367ff07fb300003fd47f22bf72bfb83f85ffdeff5e7fe4bf6afffb
        AddColors: 00000000000000000000000000000000000000000000000000000000000000000000000000000000
        MulColors: 00020002000200020002000200020002000200020002000200020002000200020002000200020002
      Materials:
      - {fileID: 2100000, guid: d58d9a5e482e8429f8d7d18a9538d94a, type: 2}
    - Labels: []
      MeshData:
        SubMeshes:
        - StartVertex: 0
          IndexCount: 30
        Vertices:
        - {x: 0.6965, y: -0.8735}
        - {x: 1.9418305, y: -1.0321536}
        - {x: 1.8625038, y: -1.6548188}
        - {x: 0.6171732, y: -1.4961653}
        - {x: 0.639, y: -0.848}
        - {x: 1.5389999, y: -0.848}
        - {x: 1.5389999, y: -2.0379999}
        - {x: 0.639, y: -2.0379999}
        - {x: -0.172, y: 0.5195}
        - {x: 1.6779999, y: 0.5195}
        - {x: 1.6779999, y: -1.2304999}
        - {x: -0.172, y: -1.2304999}
        - {x: -0.7065, y: -0.033499997}
        - {x: 1.3434999, y: -0.033499997}
        - {x: 1.3434999, y: -1.0234998}
        - {x: -0.7065, y: -1.0234998}
        - {x: 1.0565, y: -1.3375}
        - {x: -0.045442518, y: -0.73655057}
        - {x: 0.25503218, y: -0.18557933}
        - {x: 1.3569747, y: -0.78652877}
        UVs: ff5e7fe4bf6afffb7f20bfdfbf367ff07fb300003fd47f22bf72bfb83f85ffdeff5e7fe4bf6afffb
        AddColors: 00000000000000000000000000000000000000000000000000000000000000000000000000000000
        MulColors: 00020002000200020002000200020002000200020002000200020002000200020002000200020002
      Materials:
      - {fileID: 2100000, guid: d58d9a5e482e8429f8d7d18a9538d94a, type: 2}
    - Labels: []
      MeshData:
        SubMeshes:
        - StartVertex: 0
          IndexCount: 30
        Vertices:
        - {x: 0.62799996, y: -0.8905}
        - {x: 1.8745418, y: -0.7251942}
        - {x: 1.9571947, y: -1.3484651}
        - {x: 0.7106528, y: -1.5137709}
        - {x: 0.639, y: -0.8285}
        - {x: 1.5389999, y: -0.8285}
        - {x: 1.5389999, y: -2.0184999}
        - {x: 0.639, y: -2.0184999}
        - {x: -0.172, y: 0.539}
        - {x: 1.6779999, y: 0.539}
        - {x: 1.6779999, y: -1.211}
        - {x: -0.172, y: -1.211}
        - {x: -0.7065, y: -0.0139999995}
        - {x: 1.3434999, y: -0.0139999995}
        - {x: 1.3434999, y: -1.004}
        - {x: -0.7065, y: -1.004}
        - {x: 1.1035, y: -1.3235}
        - {x: -0.09140054, y: -0.93505645}
        - {x: 0.10282126, y: -0.33760616}
        - {x: 1.2977219, y: -0.7260498}
        UVs: ff5e7fe4bf6afffb7f20bfdfbf367ff07fb300003fd47f22bf72bfb83f85ffdeff5e7fe4bf6afffb
        AddColors: 00000000000000000000000000000000000000000000000000000000000000000000000000000000
        MulColors: 00020002000200020002000200020002000200020002000200020002000200020002000200020002
      Materials:
      - {fileID: 2100000, guid: d58d9a5e482e8429f8d7d18a9538d94a, type: 2}
    - Labels: []
      MeshData:
        SubMeshes:
        - StartVertex: 0
          IndexCount: 30
        Vertices:
        - {x: 0.548, y: -0.9555}
        - {x: 1.7090434, y: -0.4734446}
        - {x: 1.9500711, y: -1.0539663}
        - {x: 0.7890277, y: -1.5360217}
        - {x: 0.639, y: -0.84}
        - {x: 1.5389999, y: -0.84}
        - {x: 1.5389999, y: -2.03}
        - {x: 0.639, y: -2.03}
        - {x: -0.172, y: 0.5275}
        - {x: 1.6779999, y: 0.5275}
        - {x: 1.6779999, y: -1.2225}
        - {x: -0.172, y: -1.2225}
        - {x: -0.7065, y: -0.0255}
        - {x: 1.3434999, y: -0.0255}
        - {x: 1.3434999, y: -1.0155}
        - {x: -0.7065, y: -1.0155}
        - {x: 1.1819999, y: -1.338}
        - {x: -0.06377284, y: -1.1844414}
        - {x: 0.013006491, y: -0.561555}
        - {x: 1.2587793, y: -0.7151137}
        UVs: ff5e7fe4bf6afffb7f20bfdfbf367ff07fb300003fd47f22bf72bfb83f85ffdeff5e7fe4bf6afffb
        AddColors: 00000000000000000000000000000000000000000000000000000000000000000000000000000000
        MulColors: 00020002000200020002000200020002000200020002000200020002000200020002000200020002
      Materials:
      - {fileID: 2100000, guid: d58d9a5e482e8429f8d7d18a9538d94a, type: 2}
    - Labels: []
      MeshData:
        SubMeshes:
        - StartVertex: 0
          IndexCount: 30
        Vertices:
        - {x: 0.5405, y: -0.96599996}
        - {x: 1.7015818, y: -0.4838677}
        - {x: 1.942648, y: -1.0644087}
        - {x: 0.78156614, y: -1.5465409}
        - {x: 0.639, y: -0.85199994}
        - {x: 1.5389999, y: -0.85199994}
        - {x: 1.5389999, y: -2.0419998}
        - {x: 0.639, y: -2.0419998}
        - {x: -0.172, y: 0.5155}
        - {x: 1.6779999, y: 0.5155}
        - {x: 1.6779999, y: -1.2344999}
        - {x: -0.172, y: -1.2344999}
        - {x: -0.7065, y: -0.037499998}
        - {x: 1.3434999, y: -0.037499998}
        - {x: 1.3434999, y: -1.0274999}
        - {x: -0.7065, y: -1.0274999}
        - {x: 1.26, y: -1.3405}
        - {x: 0.007748098, y: -1.433112}
        - {x: -0.038557902, y: -0.80698603}
        - {x: 1.213694, y: -0.71437407}
        UVs: ff5e7fe4bf6afffb7f20bfdfbf367ff07fb300003fd47f22bf72bfb83f85ffdeff5e7fe4bf6afffb
        AddColors: 00000000000000000000000000000000000000000000000000000000000000000000000000000000
        MulColors: 00020002000200020002000200020002000200020002000200020002000200020002000200020002
      Materials:
      - {fileID: 2100000, guid: d58d9a5e482e8429f8d7d18a9538d94a, type: 2}
    - Labels: []
      MeshData:
        SubMeshes:
        - StartVertex: 0
          IndexCount: 30
        Vertices:
        - {x: 0.506, y: -1.0065}
        - {x: 1.6019055, y: -0.39120793}
        - {x: 1.9095515, y: -0.9391607}
        - {x: 0.813646, y: -1.5544528}
        - {x: 0.639, y: -0.86349994}
        - {x: 1.5389999, y: -0.86349994}
        - {x: 1.5389999, y: -2.0535}
        - {x: 0.639, y: -2.0535}
        - {x: -0.172, y: 0.504}
        - {x: 1.6779999, y: 0.504}
        - {x: 1.6779999, y: -1.2459999}
        - {x: -0.172, y: -1.2459999}
        - {x: -0.7065, y: -0.049}
        - {x: 1.3434999, y: -0.049}
        - {x: 1.3434999, y: -1.0389999}
        - {x: -0.7065, y: -1.0389999}
        - {x: 1.3314999, y: -1.3310001}
        - {x: 0.12110315, y: -1.6675333}
        - {x: -0.047163446, y: -1.0623349}
        - {x: 1.1632333, y: -0.7258017}
        UVs: ff5e7fe4bf6afffb7f20bfdfbf367ff07fb300003fd47f22bf72bfb83f85ffdeff5e7fe4bf6afffb
        AddColors: 00000000000000000000000000000000000000000000000000000000000000000000000000000000
        MulColors: 00020002000200020002000200020002000200020002000200020002000200020002000200020002
      Materials:
      - {fileID: 2100000, guid: d58d9a5e482e8429f8d7d18a9538d94a, type: 2}
    - Labels: []
      MeshData:
        SubMeshes:
        - StartVertex: 0
          IndexCount: 30
        Vertices:
        - {x: 0.474, y: -1.0525}
        - {x: 1.4861375, y: -0.3080664}
        - {x: 1.8583543, y: -0.81413513}
        - {x: 0.8462168, y: -1.5585687}
        - {x: 0.639, y: -0.875}
        - {x: 1.5389999, y: -0.875}
        - {x: 1.5389999, y: -2.0649998}
        - {x: 0.639, y: -2.0649998}
        - {x: -0.172, y: 0.49249998}
        - {x: 1.6779999, y: 0.49249998}
        - {x: 1.6779999, y: -1.2574999}
        - {x: -0.172, y: -1.2574999}
        - {x: -0.7065, y: -0.0605}
        - {x: 1.3434999, y: -0.0605}
        - {x: 1.3434999, y: -1.0504999}
        - {x: -0.7065, y: -1.0504999}
        - {x: 1.3964999, y: -1.31}
        - {x: 0.2779076, y: -1.8821294}
        - {x: -0.008157176, y: -1.3228333}
        - {x: 1.1104351, y: -0.7507038}
        UVs: ff5e7fe4bf6afffb7f20bfdfbf367ff07fb300003fd47f22bf72bfb83f85ffdeff5e7fe4bf6afffb
        AddColors: 00000000000000000000000000000000000000000000000000000000000000000000000000000000
        MulColors: 00020002000200020002000200020002000200020002000200020002000200020002000200020002
      Materials:
      - {fileID: 2100000, guid: d58d9a5e482e8429f8d7d18a9538d94a, type: 2}
    - Labels: []
      MeshData:
        SubMeshes:
        - StartVertex: 0
          IndexCount: 30
        Vertices:
        - {x: 0.4455, y: -1.1015}
        - {x: 1.3549894, y: -0.23509622}
        - {x: 1.7881913, y: -0.689841}
        - {x: 0.87870187, y: -1.5562447}
        - {x: 0.639, y: -0.88699996}
        - {x: 1.5389999, y: -0.88699996}
        - {x: 1.5389999, y: -2.077}
        - {x: 0.639, y: -2.077}
        - {x: -0.172, y: 0.48049998}
        - {x: 1.6779999, y: 0.48049998}
        - {x: 1.6779999, y: -1.2694999}
        - {x: -0.172, y: -1.2694999}
        - {x: -0.7065, y: -0.0725}
        - {x: 1.3434999, y: -0.0725}
        - {x: 1.3434999, y: -1.0624999}
        - {x: -0.7065, y: -1.0624999}
        - {x: 1.451, y: -1.277}
        - {x: 0.47650713, y: -2.0685952}
        - {x: 0.08070956, y: -1.5813487}
        - {x: 1.0552024, y: -0.78975356}
        UVs: ff5e7fe4bf6afffb7f20bfdfbf367ff07fb300003fd47f22bf72bfb83f85ffdeff5e7fe4bf6afffb
        AddColors: 00000000000000000000000000000000000000000000000000000000000000000000000000000000
        MulColors: 00020002000200020002000200020002000200020002000200020002000200020002000200020002
      Materials:
      - {fileID: 2100000, guid: d58d9a5e482e8429f8d7d18a9538d94a, type: 2}
    - Labels: []
      MeshData:
        SubMeshes:
        - StartVertex: 0
          IndexCount: 30
        Vertices:
        - {x: 0.42249998, y: -1.1544999}
        - {x: 1.2103268, y: -0.17646946}
        - {x: 1.699342, y: -0.5703829}
        - {x: 0.9115152, y: -1.5484133}
        - {x: 0.639, y: -0.89849997}
        - {x: 1.5389999, y: -0.89849997}
        - {x: 1.5389999, y: -2.0884998}
        - {x: 0.639, y: -2.0884998}
        - {x: -0.172, y: 0.469}
        - {x: 1.6779999, y: 0.469}
        - {x: 1.6779999, y: -1.2809999}
        - {x: -0.172, y: -1.2809999}
        - {x: -0.7065, y: -0.08399999}
        - {x: 1.3434999, y: -0.08399999}
        - {x: 1.3434999, y: -1.0739999}
        - {x: -0.7065, y: -1.0739999}
        - {x: 1.4935, y: -1.236}
        - {x: 0.709826, y: -2.21603}
        - {x: 0.21981102, y: -1.8241929}
        - {x: 1.0034851, y: -0.84416294}
        UVs: ff5e7fe4bf6afffb7f20bfdfbf367ff07fb300003fd47f22bf72bfb83f85ffdeff5e7fe4bf6afffb
        AddColors: 00000000000000000000000000000000000000000000000000000000000000000000000000000000
        MulColors: 00020002000200020002000200020002000200020002000200020002000200020002000200020002
      Materials:
      - {fileID: 2100000, guid: d58d9a5e482e8429f8d7d18a9538d94a, type: 2}
    - Labels: []
      MeshData:
        SubMeshes:
        - StartVertex: 0
          IndexCount: 30
        Vertices:
        - {x: 0.40349996, y: -1.2114999}
        - {x: 1.0513995, y: -0.13589717}
        - {x: 1.5892009, y: -0.4598469}
        - {x: 0.94130135, y: -1.5354496}
        - {x: 0.639, y: -0.90999997}
        - {x: 1.5389999, y: -0.90999997}
        - {x: 1.5389999, y: -2.1}
        - {x: 0.639, y: -2.1}
        - {x: -0.172, y: 0.45749998}
        - {x: 1.6779999, y: 0.45749998}
        - {x: 1.6779999, y: -1.2924999}
        - {x: -0.172, y: -1.2924999}
        - {x: -0.7065, y: -0.0955}
        - {x: 1.3434999, y: -0.0955}
        - {x: 1.3434999, y: -1.0854999}
        - {x: -0.7065, y: -1.0854999}
        - {x: 1.5205, y: -1.188}
        - {x: 0.9682502, y: -2.3143404}
        - {x: 0.40508002, y: -2.0382154}
        - {x: 0.95732975, y: -0.91187507}
        UVs: ff5e7fe4bf6afffb7f20bfdfbf367ff07fb300003fd47f22bf72bfb83f85ffdeff5e7fe4bf6afffb
        AddColors: 00000000000000000000000000000000000000000000000000000000000000000000000000000000
        MulColors: 00020002000200020002000200020002000200020002000200020002000200020002000200020002
      Materials:
      - {fileID: 2100000, guid: d58d9a5e482e8429f8d7d18a9538d94a, type: 2}
    - Labels: []
      MeshData:
        SubMeshes:
        - StartVertex: 0
          IndexCount: 30
        Vertices:
        - {x: 0.39299998, y: -1.272}
        - {x: 0.8801887, y: -0.11466714}
        - {x: 1.4588552, y: -0.3582615}
        - {x: 0.9716664, y: -1.5155944}
        - {x: 0.639, y: -0.92199993}
        - {x: 1.5389999, y: -0.92199993}
        - {x: 1.5389999, y: -2.1119998}
        - {x: 0.639, y: -2.1119998}
        - {x: -0.172, y: 0.4455}
        - {x: 1.6779999, y: 0.4455}
        - {x: 1.6779999, y: -1.3044999}
        - {x: -0.172, y: -1.3044999}
        - {x: -0.7065, y: -0.107499994}
        - {x: 1.3434999, y: -0.107499994}
        - {x: 1.3434999, y: -1.0974998}
        - {x: -0.7065, y: -1.0974998}
        - {x: 1.531, y: -1.1389999}
        - {x: 1.237514, y: -2.3586252}
        - {x: 0.62770134, y: -2.211882}
        - {x: 0.92118734, y: -0.99225694}
        UVs: ff5e7fe4bf6afffb7f20bfdfbf367ff07fb300003fd47f22bf72bfb83f85ffdeff5e7fe4bf6afffb
        AddColors: 00000000000000000000000000000000000000000000000000000000000000000000000000000000
        MulColors: 00020002000200020002000200020002000200020002000200020002000200020002000200020002
      Materials:
      - {fileID: 2100000, guid: d58d9a5e482e8429f8d7d18a9538d94a, type: 2}
    - Labels: []
      MeshData:
        SubMeshes:
        - StartVertex: 0
          IndexCount: 30
        Vertices:
        - {x: 0.38799998, y: -1.3319999}
        - {x: 0.7030961, y: -0.11629679}
        - {x: 1.3109477, y: -0.27384487}
        - {x: 0.9958515, y: -1.489548}
        - {x: 0.639, y: -0.9335}
        - {x: 1.5389999, y: -0.9335}
        - {x: 1.5389999, y: -2.1234999}
        - {x: 0.639, y: -2.1234999}
        - {x: -0.172, y: 0.43400002}
        - {x: 1.6779999, y: 0.43400002}
        - {x: 1.6779999, y: -1.3159999}
        - {x: -0.172, y: -1.3159999}
        - {x: -0.7065, y: -0.118999995}
        - {x: 1.3434999, y: -0.118999995}
        - {x: 1.3434999, y: -1.1089998}
        - {x: -0.7065, y: -1.1089998}
        - {x: 1.525, y: -1.0905}
        - {x: 1.5144641, y: -2.346751}
        - {x: 0.8863386, y: -2.341483}
        - {x: 0.8968745, y: -1.085232}
        UVs: ff5e7fe4bf6afffb7f20bfdfbf367ff07fb300003fd47f22bf72bfb83f85ffdeff5e7fe4bf6afffb
        AddColors: 00000000000000000000000000000000000000000000000000000000000000000000000000000000
        MulColors: 00020002000200020002000200020002000200020002000200020002000200020002000200020002
      Materials:
      - {fileID: 2100000, guid: d58d9a5e482e8429f8d7d18a9538d94a, type: 2}
    - Labels: []
      MeshData:
        SubMeshes:
        - StartVertex: 0
          IndexCount: 30
        Vertices:
        - {x: 0.39099997, y: -1.3914999}
        - {x: 0.5218911, y: -0.1421703}
        - {x: 1.1465559, y: -0.20761585}
        - {x: 1.0156648, y: -1.4569454}
        - {x: 0.639, y: -0.9455}
        - {x: 1.5389999, y: -0.9455}
        - {x: 1.5389999, y: -2.1355}
        - {x: 0.639, y: -2.1355}
        - {x: -0.172, y: 0.422}
        - {x: 1.6779999, y: 0.422}
        - {x: 1.6779999, y: -1.328}
        - {x: -0.172, y: -1.328}
        - {x: -0.7065, y: -0.131}
        - {x: 1.3434999, y: -0.131}
        - {x: 1.3434999, y: -1.1209999}
        - {x: -0.7065, y: -1.1209999}
        - {x: 1.4914999, y: -1.01}
        - {x: 1.7691437, y: -2.2348163}
        - {x: 1.1567354, y: -2.3736382}
        - {x: 0.87909174, y: -1.1488218}
        UVs: ff5e7fe4bf6afffb7f20bfdfbf367ff07fb300003fd47f22bf72bfb83f85ffdeff5e7fe4bf6afffb
        AddColors: 00000000000000000000000000000000000000000000000000000000000000000000000000000000
        MulColors: 00020002000200020002000200020002000200020002000200020002000200020002000200020002
      Materials:
      - {fileID: 2100000, guid: d58d9a5e482e8429f8d7d18a9538d94a, type: 2}
    - Labels: []
      MeshData:
        SubMeshes:
        - StartVertex: 0
          IndexCount: 30
        Vertices:
        - {x: 0.40349996, y: -1.4519999}
        - {x: 0.33766988, y: -0.19701786}
        - {x: 0.9651609, y: -0.16410284}
        - {x: 1.030991, y: -1.4190849}
        - {x: 0.639, y: -0.95699996}
        - {x: 1.5389999, y: -0.95699996}
        - {x: 1.5389999, y: -2.1469998}
        - {x: 0.639, y: -2.1469998}
        - {x: -0.172, y: 0.4105}
        - {x: 1.6779999, y: 0.4105}
        - {x: 1.6779999, y: -1.3395}
        - {x: -0.172, y: -1.3395}
        - {x: -0.7065, y: -0.1425}
        - {x: 1.3434999, y: -0.1425}
        - {x: 1.3434999, y: -1.1324999}
        - {x: -0.7065, y: -1.1324999}
        - {x: 1.443, y: -0.941}
        - {x: 1.9956727, y: -2.0695512}
        - {x: 1.431397, y: -2.3458877}
        - {x: 0.8787243, y: -1.2173363}
        UVs: ff5e7fe4bf6afffb7f20bfdfbf367ff07fb300003fd47f22bf72bfb83f85ffdeff5e7fe4bf6afffb
        AddColors: 00000000000000000000000000000000000000000000000000000000000000000000000000000000
        MulColors: 00020002000200020002000200020002000200020002000200020002000200020002000200020002
      Materials:
      - {fileID: 2100000, guid: d58d9a5e482e8429f8d7d18a9538d94a, type: 2}
    - Labels: []
      MeshData:
        SubMeshes:
        - StartVertex: 0
          IndexCount: 30
        Vertices:
        - {x: 0.422, y: -1.51}
        - {x: 0.15958329, y: -0.28031948}
        - {x: 0.77442354, y: -0.14911114}
        - {x: 1.0368402, y: -1.3787917}
        - {x: 0.639, y: -0.96849996}
        - {x: 1.5389999, y: -0.96849996}
        - {x: 1.5389999, y: -2.1585}
        - {x: 0.639, y: -2.1585}
        - {x: -0.172, y: 0.39900002}
        - {x: 1.6779999, y: 0.39900002}
        - {x: 1.6779999, y: -1.3509998}
        - {x: -0.172, y: -1.3509998}
        - {x: -0.7065, y: -0.154}
        - {x: 1.3434999, y: -0.154}
        - {x: 1.3434999, y: -1.1439999}
        - {x: -0.7065, y: -1.1439999}
        - {x: 1.379, y: -0.88449997}
        - {x: 2.1839957, y: -1.8486108}
        - {x: 1.7019403, y: -2.2511086}
        - {x: 0.8969446, y: -1.2869978}
        UVs: ff5e7fe4bf6afffb7f20bfdfbf367ff07fb300003fd47f22bf72bfb83f85ffdeff5e7fe4bf6afffb
        AddColors: 00000000000000000000000000000000000000000000000000000000000000000000000000000000
        MulColors: 00020002000200020002000200020002000200020002000200020002000200020002000200020002
      Materials:
      - {fileID: 2100000, guid: d58d9a5e482e8429f8d7d18a9538d94a, type: 2}
    - Labels: []
      MeshData:
        SubMeshes:
        - StartVertex: 0
          IndexCount: 30
        Vertices:
        - {x: 0.4495, y: -1.5655}
        - {x: -0.011964244, y: -0.39509347}
        - {x: 0.573239, y: -0.16436136}
        - {x: 1.0347033, y: -1.3347679}
        - {x: 0.639, y: -0.9805}
        - {x: 1.5389999, y: -0.9805}
        - {x: 1.5389999, y: -2.1704998}
        - {x: 0.639, y: -2.1704998}
        - {x: -0.172, y: 0.387}
        - {x: 1.6779999, y: 0.387}
        - {x: 1.6779999, y: -1.3629999}
        - {x: -0.172, y: -1.3629999}
        - {x: -0.7065, y: -0.166}
        - {x: 1.3434999, y: -0.166}
        - {x: 1.3434999, y: -1.1559999}
        - {x: -0.7065, y: -1.1559999}
        - {x: 1.3035, y: -0.8455}
        - {x: 2.3179832, y: -1.5853386}
        - {x: 1.9480639, y: -2.09258}
        - {x: 0.93358076, y: -1.3527415}
        UVs: ff5e7fe4bf6afffb7f20bfdfbf367ff07fb300003fd47f22bf72bfb83f85ffdeff5e7fe4bf6afffb
        AddColors: 00000000000000000000000000000000000000000000000000000000000000000000000000000000
        MulColors: 00020002000200020002000200020002000200020002000200020002000200020002000200020002
      Materials:
      - {fileID: 2100000, guid: d58d9a5e482e8429f8d7d18a9538d94a, type: 2}
    - Labels: []
      MeshData:
        SubMeshes:
        - StartVertex: 0
          IndexCount: 30
        Vertices:
        - {x: 0.4845, y: -1.6139998}
        - {x: -0.16072708, y: -0.5344942}
        - {x: 0.37902573, y: -0.2118807}
        - {x: 1.0242528, y: -1.2913864}
        - {x: 0.639, y: -0.9919999}
        - {x: 1.5389999, y: -0.9919999}
        - {x: 1.5389999, y: -2.182}
        - {x: 0.639, y: -2.182}
        - {x: -0.172, y: 0.3755}
        - {x: 1.6779999, y: 0.3755}
        - {x: 1.6779999, y: -1.3744999}
        - {x: -0.172, y: -1.3744999}
        - {x: -0.7065, y: -0.1775}
        - {x: 1.3434999, y: -0.1775}
        - {x: 1.3434999, y: -1.1674999}
        - {x: -0.7065, y: -1.1674999}
        - {x: 1.2219999, y: -0.826}
        - {x: 2.3878691, y: -1.2922515}
        - {x: 2.1547432, y: -1.8751861}
        - {x: 0.98887414, y: -1.4089346}
        UVs: ff5e7fe4bf6afffb7f20bfdfbf367ff07fb300003fd47f22bf72bfb83f85ffdeff5e7fe4bf6afffb
        AddColors: 00000000000000000000000000000000000000000000000000000000000000000000000000000000
        MulColors: 00020002000200020002000200020002000200020002000200020002000200020002000200020002
      Materials:
      - {fileID: 2100000, guid: d58d9a5e482e8429f8d7d18a9538d94a, type: 2}
    - Labels: []
      MeshData:
        SubMeshes:
        - StartVertex: 0
          IndexCount: 30
        Vertices:
        - {x: 0.5275, y: -1.656}
        - {x: -0.29479924, y: -0.7050976}
        - {x: 0.18065196, y: -0.293948}
        - {x: 1.0029511, y: -1.2448504}
        - {x: 0.639, y: -1.0035}
        - {x: 1.5389999, y: -1.0035}
        - {x: 1.5389999, y: -2.1934998}
        - {x: 0.639, y: -2.1934998}
        - {x: -0.172, y: 0.364}
        - {x: 1.6779999, y: 0.364}
        - {x: 1.6779999, y: -1.3859999}
        - {x: -0.172, y: -1.3859999}
        - {x: -0.7065, y: -0.189}
        - {x: 1.3434999, y: -0.189}
        - {x: 1.3434999, y: -1.1789999}
        - {x: -0.7065, y: -1.1789999}
        - {x: 1.1389999, y: -0.8285}
        - {x: 2.385157, y: -0.9869036}
        - {x: 2.3059554, y: -1.6099823}
        - {x: 1.0597981, y: -1.4515786}
        UVs: ff5e7fe4bf6afffb7f20bfdfbf367ff07fb300003fd47f22bf72bfb83f85ffdeff5e7fe4bf6afffb
        AddColors: 00000000000000000000000000000000000000000000000000000000000000000000000000000000
        MulColors: 00020002000200020002000200020002000200020002000200020002000200020002000200020002
      Materials:
      - {fileID: 2100000, guid: d58d9a5e482e8429f8d7d18a9538d94a, type: 2}
    - Labels: []
      MeshData:
        SubMeshes:
        - StartVertex: 0
          IndexCount: 30
        Vertices:
        - {x: 0.576, y: -1.6889999}
        - {x: -0.39941567, y: -0.8966357}
        - {x: -0.0032335934, y: -0.4089279}
        - {x: 0.9721821, y: -1.201292}
        - {x: 0.639, y: -1.0155}
        - {x: 1.5389999, y: -1.0155}
        - {x: 1.5389999, y: -2.2055}
        - {x: 0.639, y: -2.2055}
        - {x: -0.172, y: 0.352}
        - {x: 1.6779999, y: 0.352}
        - {x: 1.6779999, y: -1.3979999}
        - {x: -0.172, y: -1.3979999}
        - {x: -0.7065, y: -0.201}
        - {x: 1.3434999, y: -0.201}
        - {x: 1.3434999, y: -1.1909999}
        - {x: -0.7065, y: -1.1909999}
        - {x: 1.0619999, y: -0.854}
        - {x: 2.308311, y: -0.68882877}
        - {x: 2.3908966, y: -1.3119843}
        - {x: 1.1445855, y: -1.4771554}
        UVs: ff5e7fe4bf6afffb7f20bfdfbf367ff07fb300003fd47f22bf72bfb83f85ffdeff5e7fe4bf6afffb
        AddColors: 00000000000000000000000000000000000000000000000000000000000000000000000000000000
        MulColors: 00020002000200020002000200020002000200020002000200020002000200020002000200020002
      Materials:
      - {fileID: 2100000, guid: d58d9a5e482e8429f8d7d18a9538d94a, type: 2}
    - Labels: []
      MeshData:
        SubMeshes:
        - StartVertex: 0
          IndexCount: 30
        Vertices:
        - {x: 0.63049996, y: -1.7125}
        - {x: -0.47538388, y: -1.1129156}
        - {x: -0.17559169, y: -0.5599737}
        - {x: 0.9302921, y: -1.159558}
        - {x: 0.639, y: -1.027}
        - {x: 1.5389999, y: -1.027}
        - {x: 1.5389999, y: -2.2169998}
        - {x: 0.639, y: -2.2169998}
        - {x: -0.172, y: 0.3405}
        - {x: 1.6779999, y: 0.3405}
        - {x: 1.6779999, y: -1.4094999}
        - {x: -0.172, y: -1.4094999}
        - {x: -0.7065, y: -0.21249999}
        - {x: 1.3434999, y: -0.21249999}
        - {x: 1.3434999, y: -1.2024999}
        - {x: -0.7065, y: -1.2024999}
        - {x: 0.9925, y: -0.9005}
        - {x: 2.154966, y: -0.4144264}
        - {x: 2.3980029, y: -0.9956595}
        - {x: 1.2355368, y: -1.4817331}
        UVs: ff5e7fe4bf6afffb7f20bfdfbf367ff07fb300003fd47f22bf72bfb83f85ffdeff5e7fe4bf6afffb
        AddColors: 00000000000000000000000000000000000000000000000000000000000000000000000000000000
        MulColors: 00020002000200020002000200020002000200020002000200020002000200020002000200020002
      Materials:
      - {fileID: 2100000, guid: d58d9a5e482e8429f8d7d18a9538d94a, type: 2}
