%YAML 1.1
%TAG !u! tag:unity3d.com,2011:
--- !u!114 &11400000
MonoBehaviour:
  m_ObjectHideFlags: 0
  m_PrefabParentObject: {fileID: 0}
  m_PrefabInternal: {fileID: 0}
  m_GameObject: {fileID: 0}
  m_Enabled: 1
  m_EditorHideFlags: 0
  m_Script: {fileID: 11500000, guid: 0c9fa30e000f3420796cfbd1e09a86d6, type: 3}
  m_Name: botan.fla.noob_gold
  m_EditorClassIdentifier: 
  Name: noob_gold
  Sprite: {fileID: 21300000, guid: 7c83960a25a5f40c99e72996a4deda21, type: 3}
  FrameRate: 30
  AssetGUID: dd65ef61116af49f1b236e5cd8a00375
  Sequences:
  - Name: Default
    Frames:
    - Labels: []
      MeshData:
        SubMeshes:
        - StartVertex: 0
          IndexCount: 30
        Vertices:
        - {x: 0.4626667, y: -1.1426667}
        - {x: -0.33540767, y: -0.88499886}
        - {x: -0.20657374, y: -0.48596165}
        - {x: 0.59150064, y: -0.7436295}
        - {x: 0.14700003, y: -0.50333333}
        - {x: 1.2936668, y: -0.50333333}
        - {x: 1.2936668, y: -1.6500001}
        - {x: 0.14700003, y: -1.6500001}
        - {x: -0.4096667, y: 0.4936667}
        - {x: 1.3036668, y: 0.4936667}
        - {x: 1.3036668, y: -1.2196667}
        - {x: -0.4096667, y: -1.2196667}
        - {x: -0.47100002, y: -0.14166667}
        - {x: 0.8956667, y: -0.14166667}
        - {x: 0.8956667, y: -0.8016667}
        - {x: -0.47100002, y: -0.8016667}
        - {x: 0.6616667, y: -0.6003334}
        - {x: 1.4366442, y: -0.2762843}
        - {x: 1.5986687, y: -0.66377306}
        - {x: 0.82369125, y: -0.9878221}
        UVs: ff57ff807f77ffbfff800000ffd6ff55000000007f807f80ff807f567fb2ffbcff57ff807f77ffbf
        AddColors: 00000000000000000000000000000000000000000000000000000000000000000000000000000000
        MulColors: 00020002000200020002000200020002000200020002000200020002000200020002000200020002
      Materials:
      - {fileID: 2100000, guid: d58d9a5e482e8429f8d7d18a9538d94a, type: 2}
    - Labels: []
      MeshData:
        SubMeshes:
        - StartVertex: 0
          IndexCount: 30
        Vertices:
        - {x: 0.5083333, y: -1.1306667}
        - {x: -0.32324567, y: -1.0285763}
        - {x: -0.27220044, y: -0.61278677}
        - {x: 0.55937856, y: -0.71487725}
        - {x: 0.14700003, y: -0.49966666}
        - {x: 1.2936668, y: -0.49966666}
        - {x: 1.2936668, y: -1.6463335}
        - {x: 0.14700003, y: -1.6463335}
        - {x: -0.4096667, y: 0.49733335}
        - {x: 1.3036668, y: 0.49733335}
        - {x: 1.3036668, y: -1.2160001}
        - {x: -0.4096667, y: -1.2160001}
        - {x: -0.47100002, y: -0.13800001}
        - {x: 0.8956667, y: -0.13800001}
        - {x: 0.8956667, y: -0.79800004}
        - {x: -0.47100002, y: -0.79800004}
        - {x: 0.6416667, y: -0.6163333}
        - {x: 1.3727831, y: -0.20545927}
        - {x: 1.5782201, y: -0.57101744}
        - {x: 0.8471037, y: -0.9818915}
        UVs: ff57ff807f77ffbfff800000ffd6ff55000000007f807f80ff807f567fb2ffbcff57ff807f77ffbf
        AddColors: 00000000000000000000000000000000000000000000000000000000000000000000000000000000
        MulColors: 00020002000200020002000200020002000200020002000200020002000200020002000200020002
      Materials:
      - {fileID: 2100000, guid: d58d9a5e482e8429f8d7d18a9538d94a, type: 2}
    - Labels: []
      MeshData:
        SubMeshes:
        - StartVertex: 0
          IndexCount: 30
        Vertices:
        - {x: 0.55333334, y: -1.111}
        - {x: -0.28248826, y: -1.1731899}
        - {x: -0.31358323, y: -0.75527906}
        - {x: 0.5222384, y: -0.6930891}
        - {x: 0.14700003, y: -0.4956667}
        - {x: 1.2936668, y: -0.4956667}
        - {x: 1.2936668, y: -1.6423335}
        - {x: 0.14700003, y: -1.6423335}
        - {x: -0.4096667, y: 0.5013333}
        - {x: 1.3036668, y: 0.5013333}
        - {x: 1.3036668, y: -1.2120001}
        - {x: -0.4096667, y: -1.2120001}
        - {x: -0.47100002, y: -0.134}
        - {x: 0.8956667, y: -0.134}
        - {x: 0.8956667, y: -0.794}
        - {x: -0.47100002, y: -0.794}
        - {x: 0.6226667, y: -0.63666666}
        - {x: 1.2978224, y: -0.13974951}
        - {x: 1.546281, y: -0.47732735}
        - {x: 0.8711253, y: -0.9742445}
        UVs: ff57ff807f77ffbfff800000ffd6ff55000000007f807f80ff807f567fb2ffbcff57ff807f77ffbf
        AddColors: 00000000000000000000000000000000000000000000000000000000000000000000000000000000
        MulColors: 00020002000200020002000200020002000200020002000200020002000200020002000200020002
      Materials:
      - {fileID: 2100000, guid: d58d9a5e482e8429f8d7d18a9538d94a, type: 2}
    - Labels: []
      MeshData:
        SubMeshes:
        - StartVertex: 0
          IndexCount: 30
        Vertices:
        - {x: 0.59466666, y: -1.0823334}
        - {x: -0.21316175, y: -1.3073554}
        - {x: -0.32567275, y: -0.90344125}
        - {x: 0.48215568, y: -0.67841923}
        - {x: 0.14700003, y: -0.49066672}
        - {x: 1.2936668, y: -0.49066672}
        - {x: 1.2936668, y: -1.6373335}
        - {x: 0.14700003, y: -1.6373335}
        - {x: -0.4096667, y: 0.50633335}
        - {x: 1.3036668, y: 0.50633335}
        - {x: 1.3036668, y: -1.2070001}
        - {x: -0.4096667, y: -1.2070001}
        - {x: -0.47100002, y: -0.12900001}
        - {x: 0.8956667, y: -0.12900001}
        - {x: 0.8956667, y: -0.78900003}
        - {x: -0.47100002, y: -0.78900003}
        - {x: 0.605, y: -0.65866673}
        - {x: 1.2115827, y: -0.080461726}
        - {x: 1.5006852, y: -0.38375306}
        - {x: 0.8941025, y: -0.96195805}
        UVs: ff57ff807f77ffbfff800000ffd6ff55000000007f807f80ff807f567fb2ffbcff57ff807f77ffbf
        AddColors: 00000000000000000000000000000000000000000000000000000000000000000000000000000000
        MulColors: 00020002000200020002000200020002000200020002000200020002000200020002000200020002
      Materials:
      - {fileID: 2100000, guid: d58d9a5e482e8429f8d7d18a9538d94a, type: 2}
    - Labels: []
      MeshData:
        SubMeshes:
        - StartVertex: 0
          IndexCount: 30
        Vertices:
        - {x: 0.63233334, y: -1.0453334}
        - {x: -0.114176705, y: -1.4275862}
        - {x: -0.30530313, y: -1.0543312}
        - {x: 0.44120693, y: -0.6720784}
        - {x: 0.14700003, y: -0.48533335}
        - {x: 1.2936668, y: -0.48533335}
        - {x: 1.2936668, y: -1.6320001}
        - {x: 0.14700003, y: -1.6320001}
        - {x: -0.4096667, y: 0.51166666}
        - {x: 1.3036668, y: 0.51166666}
        - {x: 1.3036668, y: -1.2016668}
        - {x: -0.4096667, y: -1.2016668}
        - {x: -0.47100002, y: -0.12366667}
        - {x: 0.8956667, y: -0.12366667}
        - {x: 0.8956667, y: -0.7836667}
        - {x: -0.47100002, y: -0.7836667}
        - {x: 0.58966666, y: -0.68233335}
        - {x: 1.1150384, y: -0.029800372}
        - {x: 1.4413049, y: -0.29248625}
        - {x: 0.91593313, y: -0.94501925}
        UVs: ff57ff807f77ffbfff800000ffd6ff55000000007f807f80ff807f567fb2ffbcff57ff807f77ffbf
        AddColors: 00000000000000000000000000000000000000000000000000000000000000000000000000000000
        MulColors: 00020002000200020002000200020002000200020002000200020002000200020002000200020002
      Materials:
      - {fileID: 2100000, guid: d58d9a5e482e8429f8d7d18a9538d94a, type: 2}
    - Labels: []
      MeshData:
        SubMeshes:
        - StartVertex: 0
          IndexCount: 30
        Vertices:
        - {x: 0.6636667, y: -1.0006667}
        - {x: 0.0133639425, y: -1.529371}
        - {x: -0.2509882, y: -1.2042196}
        - {x: 0.3993146, y: -0.67551535}
        - {x: 0.14700003, y: -0.4793333}
        - {x: 1.2936668, y: -0.4793333}
        - {x: 1.2936668, y: -1.626}
        - {x: 0.14700003, y: -1.626}
        - {x: -0.4096667, y: 0.5176667}
        - {x: 1.3036668, y: 0.5176667}
        - {x: 1.3036668, y: -1.1956668}
        - {x: -0.4096667, y: -1.1956668}
        - {x: -0.47100002, y: -0.11766667}
        - {x: 0.8956667, y: -0.11766667}
        - {x: 0.8956667, y: -0.7776667}
        - {x: -0.47100002, y: -0.7776667}
        - {x: 0.5783333, y: -0.7083334}
        - {x: 1.0103561, y: 0.009183738}
        - {x: 1.3691146, y: -0.20682763}
        - {x: 0.9370919, y: -0.9243447}
        UVs: ff57ff807f77ffbfff800000ffd6ff55000000007f807f80ff807f567fb2ffbcff57ff807f77ffbf
        AddColors: 00000000000000000000000000000000000000000000000000000000000000000000000000000000
        MulColors: 00020002000200020002000200020002000200020002000200020002000200020002000200020002
      Materials:
      - {fileID: 2100000, guid: d58d9a5e482e8429f8d7d18a9538d94a, type: 2}
    - Labels: []
      MeshData:
        SubMeshes:
        - StartVertex: 0
          IndexCount: 30
        Vertices:
        - {x: 0.68633336, y: -0.94900006}
        - {x: 0.16349944, y: -1.6034044}
        - {x: -0.16370271, y: -1.3419875}
        - {x: 0.3591312, y: -0.6875831}
        - {x: 0.14700003, y: -0.47266665}
        - {x: 1.2936668, y: -0.47266665}
        - {x: 1.2936668, y: -1.6193334}
        - {x: 0.14700003, y: -1.6193334}
        - {x: -0.4096667, y: 0.52433336}
        - {x: 1.3036668, y: 0.52433336}
        - {x: 1.3036668, y: -1.1890001}
        - {x: -0.4096667, y: -1.1890001}
        - {x: -0.47100002, y: -0.111}
        - {x: 0.8956667, y: -0.111}
        - {x: 0.8956667, y: -0.771}
        - {x: -0.47100002, y: -0.771}
        - {x: 0.5706667, y: -0.736}
        - {x: 0.8954592, y: 0.035850015}
        - {x: 1.2813842, y: -0.12654623}
        - {x: 0.95659167, y: -0.89839625}
        UVs: ff57ff807f77ffbfff800000ffd6ff55000000007f807f80ff807f567fb2ffbcff57ff807f77ffbf
        AddColors: 00000000000000000000000000000000000000000000000000000000000000000000000000000000
        MulColors: 00020002000200020002000200020002000200020002000200020002000200020002000200020002
      Materials:
      - {fileID: 2100000, guid: d58d9a5e482e8429f8d7d18a9538d94a, type: 2}
    - Labels: []
      MeshData:
        SubMeshes:
        - StartVertex: 0
          IndexCount: 30
        Vertices:
        - {x: 0.7, y: -0.89266664}
        - {x: 0.33162838, y: -1.6446625}
        - {x: -0.044369556, y: -1.4604768}
        - {x: 0.32400203, y: -0.70848083}
        - {x: 0.14700003, y: -0.46533337}
        - {x: 1.2936668, y: -0.46533337}
        - {x: 1.2936668, y: -1.6120001}
        - {x: 0.14700003, y: -1.6120001}
        - {x: -0.4096667, y: 0.5316667}
        - {x: 1.3036668, y: 0.5316667}
        - {x: 1.3036668, y: -1.1816667}
        - {x: -0.4096667, y: -1.1816667}
        - {x: -0.47100002, y: -0.10366667}
        - {x: 0.8956667, y: -0.10366667}
        - {x: 0.8956667, y: -0.7636667}
        - {x: -0.47100002, y: -0.7636667}
        - {x: 0.56666666, y: -0.763}
        - {x: 0.77670515, y: 0.047648188}
        - {x: 1.1820292, y: -0.057371043}
        - {x: 0.97199076, y: -0.8680192}
        UVs: ff57ff807f77ffbfff800000ffd6ff55000000007f807f80ff807f567fb2ffbcff57ff807f77ffbf
        AddColors: 00000000000000000000000000000000000000000000000000000000000000000000000000000000
        MulColors: 00020002000200020002000200020002000200020002000200020002000200020002000200020002
      Materials:
      - {fileID: 2100000, guid: d58d9a5e482e8429f8d7d18a9538d94a, type: 2}
    - Labels: []
      MeshData:
        SubMeshes:
        - StartVertex: 0
          IndexCount: 30
        Vertices:
        - {x: 0.7026667, y: -0.83466667}
        - {x: 0.5070734, y: -1.6488782}
        - {x: 0.09996767, y: -1.5510815}
        - {x: 0.29556096, y: -0.73687005}
        - {x: 0.14700003, y: -0.4573334}
        - {x: 1.2936668, y: -0.4573334}
        - {x: 1.2936668, y: -1.6040002}
        - {x: 0.14700003, y: -1.6040002}
        - {x: -0.4096667, y: 0.53966665}
        - {x: 1.3036668, y: 0.53966665}
        - {x: 1.3036668, y: -1.1736668}
        - {x: -0.4096667, y: -1.1736668}
        - {x: -0.47100002, y: -0.09566667}
        - {x: 0.8956667, y: -0.09566667}
        - {x: 0.8956667, y: -0.7556667}
        - {x: -0.47100002, y: -0.7556667}
        - {x: 0.56666666, y: -0.78966665}
        - {x: 0.6539274, y: 0.04330942}
        - {x: 1.0704155, y: -0.00032095087}
        - {x: 0.9831547, y: -0.833297}
        UVs: ff57ff807f77ffbfff800000ffd6ff55000000007f807f80ff807f567fb2ffbcff57ff807f77ffbf
        AddColors: 00000000000000000000000000000000000000000000000000000000000000000000000000000000
        MulColors: 00020002000200020002000200020002000200020002000200020002000200020002000200020002
      Materials:
      - {fileID: 2100000, guid: d58d9a5e482e8429f8d7d18a9538d94a, type: 2}
    - Labels: []
      MeshData:
        SubMeshes:
        - StartVertex: 0
          IndexCount: 30
        Vertices:
        - {x: 0.6946667, y: -0.776}
        - {x: 0.68762994, y: -1.6135776}
        - {x: 0.26884115, y: -1.6100593}
        - {x: 0.2758779, y: -0.7724817}
        - {x: 0.14700003, y: -0.4486667}
        - {x: 1.2936668, y: -0.4486667}
        - {x: 1.2936668, y: -1.5953335}
        - {x: 0.14700003, y: -1.5953335}
        - {x: -0.4096667, y: 0.54833335}
        - {x: 1.3036668, y: 0.54833335}
        - {x: 1.3036668, y: -1.1650001}
        - {x: -0.4096667, y: -1.1650001}
        - {x: -0.47100002, y: -0.087000005}
        - {x: 0.8956667, y: -0.087000005}
        - {x: 0.8956667, y: -0.74700004}
        - {x: -0.47100002, y: -0.74700004}
        - {x: 0.573, y: -0.8156667}
        - {x: 0.52915174, y: 0.020911096}
        - {x: 0.9474406, y: 0.04283523}
        - {x: 0.9912889, y: -0.79374254}
        UVs: ff57ff807f77ffbfff800000ffd6ff55000000007f807f80ff807f567fb2ffbcff57ff807f77ffbf
        AddColors: 00000000000000000000000000000000000000000000000000000000000000000000000000000000
        MulColors: 00020002000200020002000200020002000200020002000200020002000200020002000200020002
      Materials:
      - {fileID: 2100000, guid: d58d9a5e482e8429f8d7d18a9538d94a, type: 2}
    - Labels: []
      MeshData:
        SubMeshes:
        - StartVertex: 0
          IndexCount: 30
        Vertices:
        - {x: 0.6763333, y: -0.7213333}
        - {x: 0.8618265, y: -1.538621}
        - {x: 0.45318264, y: -1.6313676}
        - {x: 0.26768947, y: -0.81407994}
        - {x: 0.14700003, y: -0.43966666}
        - {x: 1.2936668, y: -0.43966666}
        - {x: 1.2936668, y: -1.5863334}
        - {x: 0.14700003, y: -1.5863334}
        - {x: -0.4096667, y: 0.55733335}
        - {x: 1.3036668, y: 0.55733335}
        - {x: 1.3036668, y: -1.1560001}
        - {x: -0.4096667, y: -1.1560001}
        - {x: -0.47100002, y: -0.078}
        - {x: 0.8956667, y: -0.078}
        - {x: 0.8956667, y: -0.73800004}
        - {x: -0.47100002, y: -0.73800004}
        - {x: 0.5836667, y: -0.8403334}
        - {x: 0.40886322, y: -0.020725833}
        - {x: 0.818667, y: 0.0666759}
        - {x: 0.9934705, y: -0.75293165}
        UVs: ff57ff807f77ffbfff800000ffd6ff55000000007f807f80ff807f567fb2ffbcff57ff807f77ffbf
        AddColors: 00000000000000000000000000000000000000000000000000000000000000000000000000000000
        MulColors: 00020002000200020002000200020002000200020002000200020002000200020002000200020002
      Materials:
      - {fileID: 2100000, guid: d58d9a5e482e8429f8d7d18a9538d94a, type: 2}
    - Labels: []
      MeshData:
        SubMeshes:
        - StartVertex: 0
          IndexCount: 30
        Vertices:
        - {x: 0.6473333, y: -0.673}
        - {x: 1.0161407, y: -1.4258034}
        - {x: 0.63973904, y: -1.6102071}
        - {x: 0.27093163, y: -0.8574037}
        - {x: 0.14700003, y: -0.42966667}
        - {x: 1.2936668, y: -0.42966667}
        - {x: 1.2936668, y: -1.5763334}
        - {x: 0.14700003, y: -1.5763334}
        - {x: -0.4096667, y: 0.56733334}
        - {x: 1.3036668, y: 0.56733334}
        - {x: 1.3036668, y: -1.1460001}
        - {x: -0.4096667, y: -1.1460001}
        - {x: -0.47100002, y: -0.068}
        - {x: 0.8956667, y: -0.068}
        - {x: 0.8956667, y: -0.728}
        - {x: -0.47100002, y: -0.728}
        - {x: 0.59966666, y: -0.8616667}
        - {x: 0.29226735, y: -0.08165201}
        - {x: 0.6822747, y: 0.07204764}
        - {x: 0.989674, y: -0.70796704}
        UVs: ff57ff807f77ffbfff800000ffd6ff55000000007f807f80ff807f567fb2ffbcff57ff807f77ffbf
        AddColors: 00000000000000000000000000000000000000000000000000000000000000000000000000000000
        MulColors: 00020002000200020002000200020002000200020002000200020002000200020002000200020002
      Materials:
      - {fileID: 2100000, guid: d58d9a5e482e8429f8d7d18a9538d94a, type: 2}
    - Labels: []
      MeshData:
        SubMeshes:
        - StartVertex: 0
          IndexCount: 30
        Vertices:
        - {x: 0.6086667, y: -0.63233334}
        - {x: 1.1455613, y: -1.275266}
        - {x: 0.8240949, y: -1.5437133}
        - {x: 0.28720033, y: -0.9007806}
        - {x: 0.14700003, y: -0.41933334}
        - {x: 1.2936668, y: -0.41933334}
        - {x: 1.2936668, y: -1.5660001}
        - {x: 0.14700003, y: -1.5660001}
        - {x: -0.4096667, y: 0.5776667}
        - {x: 1.3036668, y: 0.5776667}
        - {x: 1.3036668, y: -1.1356667}
        - {x: -0.4096667, y: -1.1356667}
        - {x: -0.47100002, y: -0.057666667}
        - {x: 0.8956667, y: -0.057666667}
        - {x: 0.8956667, y: -0.7176667}
        - {x: -0.47100002, y: -0.7176667}
        - {x: 0.619, y: -0.878}
        - {x: 0.18923312, y: -0.15859875}
        - {x: 0.54893374, y: 0.0562847}
        - {x: 0.97870064, y: -0.6631166}
        UVs: ff57ff807f77ffbfff800000ffd6ff55000000007f807f80ff807f567fb2ffbcff57ff807f77ffbf
        AddColors: 00000000000000000000000000000000000000000000000000000000000000000000000000000000
        MulColors: 00020002000200020002000200020002000200020002000200020002000200020002000200020002
      Materials:
      - {fileID: 2100000, guid: d58d9a5e482e8429f8d7d18a9538d94a, type: 2}
    - Labels: []
      MeshData:
        SubMeshes:
        - StartVertex: 0
          IndexCount: 30
        Vertices:
        - {x: 0.56333333, y: -0.6026667}
        - {x: 1.2396426, y: -1.0959564}
        - {x: 0.99299765, y: -1.4341111}
        - {x: 0.31668842, y: -0.9408213}
        - {x: 0.14700003, y: -0.40800002}
        - {x: 1.2936668, y: -0.40800002}
        - {x: 1.2936668, y: -1.5546668}
        - {x: 0.14700003, y: -1.5546668}
        - {x: -0.4096667, y: 0.589}
        - {x: 1.3036668, y: 0.589}
        - {x: 1.3036668, y: -1.1243335}
        - {x: -0.4096667, y: -1.1243335}
        - {x: -0.47100002, y: -0.04633333}
        - {x: 0.8956667, y: -0.04633333}
        - {x: 0.8956667, y: -0.70633334}
        - {x: -0.47100002, y: -0.70633334}
        - {x: 0.64500004, y: -0.89000005}
        - {x: 0.09740299, y: -0.25633425}
        - {x: 0.4142359, y: 0.017464278}
        - {x: 0.96183294, y: -0.6162015}
        UVs: ff57ff807f77ffbfff800000ffd6ff55000000007f807f80ff807f567fb2ffbcff57ff807f77ffbf
        AddColors: 00000000000000000000000000000000000000000000000000000000000000000000000000000000
        MulColors: 00020002000200020002000200020002000200020002000200020002000200020002000200020002
      Materials:
      - {fileID: 2100000, guid: d58d9a5e482e8429f8d7d18a9538d94a, type: 2}
    - Labels: []
      MeshData:
        SubMeshes:
        - StartVertex: 0
          IndexCount: 30
        Vertices:
        - {x: 0.514, y: -0.58533335}
        - {x: 1.2909641, y: -0.89624465}
        - {x: 1.1355085, y: -1.2847267}
        - {x: 0.35854435, y: -0.97381544}
        - {x: 0.14700003, y: -0.39633334}
        - {x: 1.2936668, y: -0.39633334}
        - {x: 1.2936668, y: -1.5430001}
        - {x: 0.14700003, y: -1.5430001}
        - {x: -0.4096667, y: 0.60066664}
        - {x: 1.3036668, y: 0.60066664}
        - {x: 1.3036668, y: -1.1126668}
        - {x: -0.4096667, y: -1.1126668}
        - {x: -0.47100002, y: -0.034666665}
        - {x: 0.8956667, y: -0.034666665}
        - {x: 0.8956667, y: -0.6946667}
        - {x: -0.47100002, y: -0.6946667}
        - {x: 0.673, y: -0.89500004}
        - {x: 0.023479054, y: -0.36696228}
        - {x: 0.28749794, y: -0.042201817}
        - {x: 0.9370189, y: -0.5702396}
        UVs: ff57ff807f77ffbfff800000ffd6ff55000000007f807f80ff807f567fb2ffbcff57ff807f77ffbf
        AddColors: 00000000000000000000000000000000000000000000000000000000000000000000000000000000
        MulColors: 00020002000200020002000200020002000200020002000200020002000200020002000200020002
      Materials:
      - {fileID: 2100000, guid: d58d9a5e482e8429f8d7d18a9538d94a, type: 2}
    - Labels: []
      MeshData:
        SubMeshes:
        - StartVertex: 0
          IndexCount: 30
        Vertices:
        - {x: 0.46433336, y: -0.5823333}
        - {x: 1.2945538, y: -0.68810236}
        - {x: 1.2416692, y: -1.1032126}
        - {x: 0.41144884, y: -0.9974435}
        - {x: 0.14700003, y: -0.38400003}
        - {x: 1.2936668, y: -0.38400003}
        - {x: 1.2936668, y: -1.5306668}
        - {x: 0.14700003, y: -1.5306668}
        - {x: -0.4096667, y: 0.613}
        - {x: 1.3036668, y: 0.613}
        - {x: 1.3036668, y: -1.1003335}
        - {x: -0.4096667, y: -1.1003335}
        - {x: -0.47100002, y: -0.022333333}
        - {x: 0.8956667, y: -0.022333333}
        - {x: 0.8956667, y: -0.68233335}
        - {x: -0.47100002, y: -0.68233335}
        - {x: 0.70433336, y: -0.8916667}
        - {x: -0.030294953, y: -0.49103376}
        - {x: 0.17002152, y: -0.123719595}
        - {x: 0.90464985, y: -0.52435255}
        UVs: ff57ff807f77ffbfff800000ffd6ff55000000007f807f80ff807f567fb2ffbcff57ff807f77ffbf
        AddColors: 00000000000000000000000000000000000000000000000000000000000000000000000000000000
        MulColors: 00020002000200020002000200020002000200020002000200020002000200020002000200020002
      Materials:
      - {fileID: 2100000, guid: d58d9a5e482e8429f8d7d18a9538d94a, type: 2}
    - Labels: []
      MeshData:
        SubMeshes:
        - StartVertex: 0
          IndexCount: 30
        Vertices:
        - {x: 0.41866666, y: -0.5936667}
        - {x: 1.2496945, y: -0.4834628}
        - {x: 1.3047965, y: -0.89897674}
        - {x: 0.4737686, y: -1.0091805}
        - {x: 0.14700003, y: -0.371}
        - {x: 1.2936668, y: -0.371}
        - {x: 1.2936668, y: -1.5176668}
        - {x: 0.14700003, y: -1.5176668}
        - {x: -0.4096667, y: 0.62600005}
        - {x: 1.3036668, y: 0.62600005}
        - {x: 1.3036668, y: -1.0873334}
        - {x: -0.4096667, y: -1.0873334}
        - {x: -0.47100002, y: -0.009333333}
        - {x: 0.8956667, y: -0.009333333}
        - {x: 0.8956667, y: -0.66933334}
        - {x: -0.47100002, y: -0.66933334}
        - {x: 0.7356667, y: -0.8823334}
        - {x: -0.060933705, y: -0.623371}
        - {x: 0.0685475, y: -0.22507079}
        - {x: 0.8651479, y: -0.4840332}
        UVs: ff57ff807f77ffbfff800000ffd6ff55000000007f807f80ff807f567fb2ffbcff57ff807f77ffbf
        AddColors: 00000000000000000000000000000000000000000000000000000000000000000000000000000000
        MulColors: 00020002000200020002000200020002000200020002000200020002000200020002000200020002
      Materials:
      - {fileID: 2100000, guid: d58d9a5e482e8429f8d7d18a9538d94a, type: 2}
    - Labels: []
      MeshData:
        SubMeshes:
        - StartVertex: 0
          IndexCount: 30
        Vertices:
        - {x: 0.36533335, y: -0.637}
        - {x: 1.1393623, y: -0.31562978}
        - {x: 1.3000474, y: -0.7026442}
        - {x: 0.5260185, y: -1.0240145}
        - {x: 0.14700003, y: -0.37866667}
        - {x: 1.2936668, y: -0.37866667}
        - {x: 1.2936668, y: -1.5253334}
        - {x: 0.14700003, y: -1.5253334}
        - {x: -0.4096667, y: 0.61833334}
        - {x: 1.3036668, y: 0.61833334}
        - {x: 1.3036668, y: -1.0950001}
        - {x: -0.4096667, y: -1.0950001}
        - {x: -0.47100002, y: -0.017}
        - {x: 0.8956667, y: -0.017}
        - {x: 0.8956667, y: -0.677}
        - {x: -0.47100002, y: -0.677}
        - {x: 0.788, y: -0.892}
        - {x: -0.04251519, y: -0.78962755}
        - {x: 0.008671034, y: -0.37436998}
        - {x: 0.8391862, y: -0.47674245}
        UVs: ff57ff807f77ffbfff800000ffd6ff55000000007f807f80ff807f567fb2ffbcff57ff807f77ffbf
        AddColors: 00000000000000000000000000000000000000000000000000000000000000000000000000000000
        MulColors: 00020002000200020002000200020002000200020002000200020002000200020002000200020002
      Materials:
      - {fileID: 2100000, guid: d58d9a5e482e8429f8d7d18a9538d94a, type: 2}
    - Labels: []
      MeshData:
        SubMeshes:
        - StartVertex: 0
          IndexCount: 30
        Vertices:
        - {x: 0.36033332, y: -0.644}
        - {x: 1.1343879, y: -0.32257846}
        - {x: 1.2950987, y: -0.70960575}
        - {x: 0.5210441, y: -1.0310273}
        - {x: 0.14700003, y: -0.38666666}
        - {x: 1.2936668, y: -0.38666666}
        - {x: 1.2936668, y: -1.5333334}
        - {x: 0.14700003, y: -1.5333334}
        - {x: -0.4096667, y: 0.6103334}
        - {x: 1.3036668, y: 0.6103334}
        - {x: 1.3036668, y: -1.103}
        - {x: -0.4096667, y: -1.103}
        - {x: -0.47100002, y: -0.025}
        - {x: 0.8956667, y: -0.025}
        - {x: 0.8956667, y: -0.685}
        - {x: -0.47100002, y: -0.685}
        - {x: 0.84000003, y: -0.8936667}
        - {x: 0.005165376, y: -0.95540804}
        - {x: -0.025705291, y: -0.5379907}
        - {x: 0.80912936, y: -0.47624937}
        UVs: ff57ff807f77ffbfff800000ffd6ff55000000007f807f80ff807f567fb2ffbcff57ff807f77ffbf
        AddColors: 00000000000000000000000000000000000000000000000000000000000000000000000000000000
        MulColors: 00020002000200020002000200020002000200020002000200020002000200020002000200020002
      Materials:
      - {fileID: 2100000, guid: d58d9a5e482e8429f8d7d18a9538d94a, type: 2}
    - Labels: []
      MeshData:
        SubMeshes:
        - StartVertex: 0
          IndexCount: 30
        Vertices:
        - {x: 0.33733332, y: -0.671}
        - {x: 1.067937, y: -0.26080528}
        - {x: 1.2730343, y: -0.6261071}
        - {x: 0.5424307, y: -1.0363019}
        - {x: 0.14700003, y: -0.39433333}
        - {x: 1.2936668, y: -0.39433333}
        - {x: 1.2936668, y: -1.5410001}
        - {x: 0.14700003, y: -1.5410001}
        - {x: -0.4096667, y: 0.6026667}
        - {x: 1.3036668, y: 0.6026667}
        - {x: 1.3036668, y: -1.1106668}
        - {x: -0.4096667, y: -1.1106668}
        - {x: -0.47100002, y: -0.03266667}
        - {x: 0.8956667, y: -0.03266667}
        - {x: 0.8956667, y: -0.69266665}
        - {x: -0.47100002, y: -0.69266665}
        - {x: 0.88766664, y: -0.8873334}
        - {x: 0.08073542, y: -1.1116889}
        - {x: -0.031442318, y: -0.7082233}
        - {x: 0.7754889, y: -0.4838678}
        UVs: ff57ff807f77ffbfff800000ffd6ff55000000007f807f80ff807f567fb2ffbcff57ff807f77ffbf
        AddColors: 00000000000000000000000000000000000000000000000000000000000000000000000000000000
        MulColors: 00020002000200020002000200020002000200020002000200020002000200020002000200020002
      Materials:
      - {fileID: 2100000, guid: d58d9a5e482e8429f8d7d18a9538d94a, type: 2}
    - Labels: []
      MeshData:
        SubMeshes:
        - StartVertex: 0
          IndexCount: 30
        Vertices:
        - {x: 0.316, y: -0.7016667}
        - {x: 0.99075836, y: -0.20537761}
        - {x: 1.2389029, y: -0.5427568}
        - {x: 0.56414455, y: -1.0390459}
        - {x: 0.14700003, y: -0.402}
        - {x: 1.2936668, y: -0.402}
        - {x: 1.2936668, y: -1.5486668}
        - {x: 0.14700003, y: -1.5486668}
        - {x: -0.4096667, y: 0.595}
        - {x: 1.3036668, y: 0.595}
        - {x: 1.3036668, y: -1.1183335}
        - {x: -0.4096667, y: -1.1183335}
        - {x: -0.47100002, y: -0.040333334}
        - {x: 0.8956667, y: -0.040333334}
        - {x: 0.8956667, y: -0.70033336}
        - {x: -0.47100002, y: -0.70033336}
        - {x: 0.931, y: -0.87333333}
        - {x: 0.18527181, y: -1.254753}
        - {x: -0.005438038, y: -0.8818889}
        - {x: 0.74029016, y: -0.50046927}
        UVs: ff57ff807f77ffbfff800000ffd6ff55000000007f807f80ff807f567fb2ffbcff57ff807f77ffbf
        AddColors: 00000000000000000000000000000000000000000000000000000000000000000000000000000000
        MulColors: 00020002000200020002000200020002000200020002000200020002000200020002000200020002
      Materials:
      - {fileID: 2100000, guid: d58d9a5e482e8429f8d7d18a9538d94a, type: 2}
    - Labels: []
      MeshData:
        SubMeshes:
        - StartVertex: 0
          IndexCount: 30
        Vertices:
        - {x: 0.297, y: -0.73433334}
        - {x: 0.90332633, y: -0.15673074}
        - {x: 1.1921276, y: -0.4598939}
        - {x: 0.5858013, y: -1.0374964}
        - {x: 0.14700003, y: -0.41}
        - {x: 1.2936668, y: -0.41}
        - {x: 1.2936668, y: -1.5566667}
        - {x: 0.14700003, y: -1.5566667}
        - {x: -0.4096667, y: 0.587}
        - {x: 1.3036668, y: 0.587}
        - {x: 1.3036668, y: -1.1263335}
        - {x: -0.4096667, y: -1.1263335}
        - {x: -0.47100002, y: -0.048333336}
        - {x: 0.8956667, y: -0.048333336}
        - {x: 0.8956667, y: -0.7083334}
        - {x: -0.47100002, y: -0.7083334}
        - {x: 0.9673334, y: -0.8513333}
        - {x: 0.3176715, y: -1.3790635}
        - {x: 0.05380643, y: -1.0542325}
        - {x: 0.7034683, y: -0.5265024}
        UVs: ff57ff807f77ffbfff800000ffd6ff55000000007f807f80ff807f567fb2ffbcff57ff807f77ffbf
        AddColors: 00000000000000000000000000000000000000000000000000000000000000000000000000000000
        MulColors: 00020002000200020002000200020002000200020002000200020002000200020002000200020002
      Materials:
      - {fileID: 2100000, guid: d58d9a5e482e8429f8d7d18a9538d94a, type: 2}
    - Labels: []
      MeshData:
        SubMeshes:
        - StartVertex: 0
          IndexCount: 30
        Vertices:
        - {x: 0.28166667, y: -0.7696667}
        - {x: 0.8068846, y: -0.11764636}
        - {x: 1.1328948, y: -0.3802553}
        - {x: 0.6076768, y: -1.0322757}
        - {x: 0.14700003, y: -0.41766667}
        - {x: 1.2936668, y: -0.41766667}
        - {x: 1.2936668, y: -1.5643334}
        - {x: 0.14700003, y: -1.5643334}
        - {x: -0.4096667, y: 0.57933336}
        - {x: 1.3036668, y: 0.57933336}
        - {x: 1.3036668, y: -1.1340001}
        - {x: -0.4096667, y: -1.1340001}
        - {x: -0.47100002, y: -0.055999998}
        - {x: 0.8956667, y: -0.055999998}
        - {x: 0.8956667, y: -0.716}
        - {x: -0.47100002, y: -0.716}
        - {x: 0.99566674, y: -0.824}
        - {x: 0.47321737, y: -1.4773533}
        - {x: 0.1465407, y: -1.2161286}
        - {x: 0.6689901, y: -0.5627753}
        UVs: ff57ff807f77ffbfff800000ffd6ff55000000007f807f80ff807f567fb2ffbcff57ff807f77ffbf
        AddColors: 00000000000000000000000000000000000000000000000000000000000000000000000000000000
        MulColors: 00020002000200020002000200020002000200020002000200020002000200020002000200020002
      Materials:
      - {fileID: 2100000, guid: d58d9a5e482e8429f8d7d18a9538d94a, type: 2}
    - Labels: []
      MeshData:
        SubMeshes:
        - StartVertex: 0
          IndexCount: 30
        Vertices:
        - {x: 0.269, y: -0.8076667}
        - {x: 0.700933, y: -0.0905982}
        - {x: 1.0594673, y: -0.30656472}
        - {x: 0.6275343, y: -1.0236332}
        - {x: 0.14700003, y: -0.42533335}
        - {x: 1.2936668, y: -0.42533335}
        - {x: 1.2936668, y: -1.5720001}
        - {x: 0.14700003, y: -1.5720001}
        - {x: -0.4096667, y: 0.57166666}
        - {x: 1.3036668, y: 0.57166666}
        - {x: 1.3036668, y: -1.1416668}
        - {x: -0.4096667, y: -1.1416668}
        - {x: -0.47100002, y: -0.06366667}
        - {x: 0.8956667, y: -0.06366667}
        - {x: 0.8956667, y: -0.72366667}
        - {x: -0.47100002, y: -0.72366667}
        - {x: 1.0136667, y: -0.79200006}
        - {x: 0.64550024, y: -1.5428936}
        - {x: 0.27005345, y: -1.3588104}
        - {x: 0.63821995, y: -0.6079168}
        UVs: ff57ff807f77ffbfff800000ffd6ff55000000007f807f80ff807f567fb2ffbcff57ff807f77ffbf
        AddColors: 00000000000000000000000000000000000000000000000000000000000000000000000000000000
        MulColors: 00020002000200020002000200020002000200020002000200020002000200020002000200020002
      Materials:
      - {fileID: 2100000, guid: d58d9a5e482e8429f8d7d18a9538d94a, type: 2}
    - Labels: []
      MeshData:
        SubMeshes:
        - StartVertex: 0
          IndexCount: 30
        Vertices:
        - {x: 0.262, y: -0.848}
        - {x: 0.58679247, y: -0.0764448}
        - {x: 0.97257006, y: -0.23884104}
        - {x: 0.6477776, y: -1.0103962}
        - {x: 0.14700003, y: -0.43333334}
        - {x: 1.2936668, y: -0.43333334}
        - {x: 1.2936668, y: -1.5800002}
        - {x: 0.14700003, y: -1.5800002}
        - {x: -0.4096667, y: 0.5636667}
        - {x: 1.3036668, y: 0.5636667}
        - {x: 1.3036668, y: -1.1496668}
        - {x: -0.4096667, y: -1.1496668}
        - {x: -0.47100002, y: -0.071666665}
        - {x: 0.8956667, y: -0.071666665}
        - {x: 0.8956667, y: -0.7316667}
        - {x: -0.47100002, y: -0.7316667}
        - {x: 1.0206667, y: -0.7593334}
        - {x: 0.82500935, y: -1.5724169}
        - {x: 0.41846758, y: -1.4745883}
        - {x: 0.61412495, y: -0.6615047}
        UVs: ff57ff807f77ffbfff800000ffd6ff55000000007f807f80ff807f567fb2ffbcff57ff807f77ffbf
        AddColors: 00000000000000000000000000000000000000000000000000000000000000000000000000000000
        MulColors: 00020002000200020002000200020002000200020002000200020002000200020002000200020002
      Materials:
      - {fileID: 2100000, guid: d58d9a5e482e8429f8d7d18a9538d94a, type: 2}
    - Labels: []
      MeshData:
        SubMeshes:
        - StartVertex: 0
          IndexCount: 30
        Vertices:
        - {x: 0.25866666, y: -0.888}
        - {x: 0.46873075, y: -0.07753121}
        - {x: 0.87396514, y: -0.18256326}
        - {x: 0.6639011, y: -0.99303204}
        - {x: 0.14700003, y: -0.44099998}
        - {x: 1.2936668, y: -0.44099998}
        - {x: 1.2936668, y: -1.5876667}
        - {x: 0.14700003, y: -1.5876667}
        - {x: -0.4096667, y: 0.556}
        - {x: 1.3036668, y: 0.556}
        - {x: 1.3036668, y: -1.1573335}
        - {x: -0.4096667, y: -1.1573335}
        - {x: -0.47100002, y: -0.079333335}
        - {x: 0.8956667, y: -0.079333335}
        - {x: 0.8956667, y: -0.73933333}
        - {x: -0.47100002, y: -0.73933333}
        - {x: 1.0166667, y: -0.72700006}
        - {x: 1.0096427, y: -1.5645007}
        - {x: 0.5908924, y: -1.5609888}
        - {x: 0.5979163, y: -0.7234881}
        UVs: ff57ff807f77ffbfff800000ffd6ff55000000007f807f80ff807f567fb2ffbcff57ff807f77ffbf
        AddColors: 00000000000000000000000000000000000000000000000000000000000000000000000000000000
        MulColors: 00020002000200020002000200020002000200020002000200020002000200020002000200020002
      Materials:
      - {fileID: 2100000, guid: d58d9a5e482e8429f8d7d18a9538d94a, type: 2}
    - Labels: []
      MeshData:
        SubMeshes:
        - StartVertex: 0
          IndexCount: 30
        Vertices:
        - {x: 0.26066667, y: -0.92766666}
        - {x: 0.34792742, y: -0.094780244}
        - {x: 0.7643706, y: -0.13841061}
        - {x: 0.6771099, y: -0.971297}
        - {x: 0.14700003, y: -0.44900006}
        - {x: 1.2936668, y: -0.44900006}
        - {x: 1.2936668, y: -1.5956669}
        - {x: 0.14700003, y: -1.5956669}
        - {x: -0.4096667, y: 0.548}
        - {x: 1.3036668, y: 0.548}
        - {x: 1.3036668, y: -1.1653335}
        - {x: -0.4096667, y: -1.1653335}
        - {x: -0.47100002, y: -0.08733334}
        - {x: 0.8956667, y: -0.08733334}
        - {x: 0.8956667, y: -0.74733335}
        - {x: -0.47100002, y: -0.74733335}
        - {x: 0.9943333, y: -0.67333335}
        - {x: 1.1794292, y: -1.4898776}
        - {x: 0.771157, y: -1.5824255}
        - {x: 0.5860612, y: -0.76588124}
        UVs: ff57ff807f77ffbfff800000ffd6ff55000000007f807f80ff807f567fb2ffbcff57ff807f77ffbf
        AddColors: 00000000000000000000000000000000000000000000000000000000000000000000000000000000
        MulColors: 00020002000200020002000200020002000200020002000200020002000200020002000200020002
      Materials:
      - {fileID: 2100000, guid: d58d9a5e482e8429f8d7d18a9538d94a, type: 2}
    - Labels: []
      MeshData:
        SubMeshes:
        - StartVertex: 0
          IndexCount: 30
        Vertices:
        - {x: 0.269, y: -0.968}
        - {x: 0.22511327, y: -0.13134524}
        - {x: 0.64344066, y: -0.10940188}
        - {x: 0.6873274, y: -0.9460566}
        - {x: 0.14700003, y: -0.45666668}
        - {x: 1.2936668, y: -0.45666668}
        - {x: 1.2936668, y: -1.6033335}
        - {x: 0.14700003, y: -1.6033335}
        - {x: -0.4096667, y: 0.5403334}
        - {x: 1.3036668, y: 0.5403334}
        - {x: 1.3036668, y: -1.1730001}
        - {x: -0.4096667, y: -1.1730001}
        - {x: -0.47100002, y: -0.095}
        - {x: 0.8956667, y: -0.095}
        - {x: 0.8956667, y: -0.755}
        - {x: -0.47100002, y: -0.755}
        - {x: 0.9620001, y: -0.62733334}
        - {x: 1.3304486, y: -1.3797009}
        - {x: 0.95426476, y: -1.5639251}
        - {x: 0.58581626, y: -0.8115576}
        UVs: ff57ff807f77ffbfff800000ffd6ff55000000007f807f80ff807f567fb2ffbcff57ff807f77ffbf
        AddColors: 00000000000000000000000000000000000000000000000000000000000000000000000000000000
        MulColors: 00020002000200020002000200020002000200020002000200020002000200020002000200020002
      Materials:
      - {fileID: 2100000, guid: d58d9a5e482e8429f8d7d18a9538d94a, type: 2}
    - Labels: []
      MeshData:
        SubMeshes:
        - StartVertex: 0
          IndexCount: 30
        Vertices:
        - {x: 0.28133336, y: -1.0066667}
        - {x: 0.10638889, y: -0.1868796}
        - {x: 0.51628244, y: -0.09940737}
        - {x: 0.6912269, y: -0.9191944}
        - {x: 0.14700003, y: -0.4643333}
        - {x: 1.2936668, y: -0.4643333}
        - {x: 1.2936668, y: -1.6110001}
        - {x: 0.14700003, y: -1.6110001}
        - {x: -0.4096667, y: 0.5326667}
        - {x: 1.3036668, y: 0.5326667}
        - {x: 1.3036668, y: -1.1806668}
        - {x: -0.4096667, y: -1.1806668}
        - {x: -0.47100002, y: -0.10266667}
        - {x: 0.8956667, y: -0.10266667}
        - {x: 0.8956667, y: -0.7626667}
        - {x: -0.47100002, y: -0.7626667}
        - {x: 0.91933334, y: -0.58966666}
        - {x: 1.4559972, y: -1.2324072}
        - {x: 1.134627, y: -1.5007391}
        - {x: 0.5979631, y: -0.8579986}
        UVs: ff57ff807f77ffbfff800000ffd6ff55000000007f807f80ff807f567fb2ffbcff57ff807f77ffbf
        AddColors: 00000000000000000000000000000000000000000000000000000000000000000000000000000000
        MulColors: 00020002000200020002000200020002000200020002000200020002000200020002000200020002
      Materials:
      - {fileID: 2100000, guid: d58d9a5e482e8429f8d7d18a9538d94a, type: 2}
    - Labels: []
      MeshData:
        SubMeshes:
        - StartVertex: 0
          IndexCount: 30
        Vertices:
        - {x: 0.29966667, y: -1.0436667}
        - {x: -0.007976176, y: -0.26339567}
        - {x: 0.38215935, y: -0.10957425}
        - {x: 0.68980217, y: -0.8898453}
        - {x: 0.14700003, y: -0.47233337}
        - {x: 1.2936668, y: -0.47233337}
        - {x: 1.2936668, y: -1.6190002}
        - {x: 0.14700003, y: -1.6190002}
        - {x: -0.4096667, y: 0.52466667}
        - {x: 1.3036668, y: 0.52466667}
        - {x: 1.3036668, y: -1.1886668}
        - {x: -0.4096667, y: -1.1886668}
        - {x: -0.47100002, y: -0.11066667}
        - {x: 0.8956667, y: -0.11066667}
        - {x: 0.8956667, y: -0.77066666}
        - {x: -0.47100002, y: -0.77066666}
        - {x: 0.8690001, y: -0.5636667}
        - {x: 1.5453222, y: -1.0568924}
        - {x: 1.2987093, y: -1.3950535}
        - {x: 0.62238723, y: -0.90182775}
        UVs: ff57ff807f77ffbfff800000ffd6ff55000000007f807f80ff807f567fb2ffbcff57ff807f77ffbf
        AddColors: 00000000000000000000000000000000000000000000000000000000000000000000000000000000
        MulColors: 00020002000200020002000200020002000200020002000200020002000200020002000200020002
      Materials:
      - {fileID: 2100000, guid: d58d9a5e482e8429f8d7d18a9538d94a, type: 2}
    - Labels: []
      MeshData:
        SubMeshes:
        - StartVertex: 0
          IndexCount: 30
        Vertices:
        - {x: 0.323, y: -1.076}
        - {x: -0.1071514, y: -0.3563295}
        - {x: 0.25268385, y: -0.1412538}
        - {x: 0.6828352, y: -0.86092424}
        - {x: 0.14700003, y: -0.48000002}
        - {x: 1.2936668, y: -0.48000002}
        - {x: 1.2936668, y: -1.6266668}
        - {x: 0.14700003, y: -1.6266668}
        - {x: -0.4096667, y: 0.517}
        - {x: 1.3036668, y: 0.517}
        - {x: 1.3036668, y: -1.1963334}
        - {x: -0.4096667, y: -1.1963334}
        - {x: -0.47100002, y: -0.11833334}
        - {x: 0.8956667, y: -0.11833334}
        - {x: 0.8956667, y: -0.77833337}
        - {x: -0.47100002, y: -0.77833337}
        - {x: 0.8146667, y: -0.5506667}
        - {x: 1.5919129, y: -0.86150104}
        - {x: 1.4364957, y: -1.2501241}
        - {x: 0.6592495, y: -0.93928975}
        UVs: ff57ff807f77ffbfff800000ffd6ff55000000007f807f80ff807f567fb2ffbcff57ff807f77ffbf
        AddColors: 00000000000000000000000000000000000000000000000000000000000000000000000000000000
        MulColors: 00020002000200020002000200020002000200020002000200020002000200020002000200020002
      Materials:
      - {fileID: 2100000, guid: d58d9a5e482e8429f8d7d18a9538d94a, type: 2}
    - Labels: []
      MeshData:
        SubMeshes:
        - StartVertex: 0
          IndexCount: 30
        Vertices:
        - {x: 0.3516667, y: -1.1040001}
        - {x: -0.19653282, y: -0.4700651}
        - {x: 0.12043467, y: -0.19596535}
        - {x: 0.6686342, y: -0.8299003}
        - {x: 0.14700003, y: -0.48766664}
        - {x: 1.2936668, y: -0.48766664}
        - {x: 1.2936668, y: -1.6343334}
        - {x: 0.14700003, y: -1.6343334}
        - {x: -0.4096667, y: 0.5093334}
        - {x: 1.3036668, y: 0.5093334}
        - {x: 1.3036668, y: -1.2040001}
        - {x: -0.4096667, y: -1.2040001}
        - {x: -0.47100002, y: -0.126}
        - {x: 0.8956667, y: -0.126}
        - {x: 0.8956667, y: -0.786}
        - {x: -0.47100002, y: -0.786}
        - {x: 0.7593334, y: -0.55233335}
        - {x: 1.5901049, y: -0.6579358}
        - {x: 1.5373037, y: -1.0733216}
        - {x: 0.7065322, y: -0.96771914}
        UVs: ff57ff807f77ffbfff800000ffd6ff55000000007f807f80ff807f567fb2ffbcff57ff807f77ffbf
        AddColors: 00000000000000000000000000000000000000000000000000000000000000000000000000000000
        MulColors: 00020002000200020002000200020002000200020002000200020002000200020002000200020002
      Materials:
      - {fileID: 2100000, guid: d58d9a5e482e8429f8d7d18a9538d94a, type: 2}
    - Labels: []
      MeshData:
        SubMeshes:
        - StartVertex: 0
          IndexCount: 30
        Vertices:
        - {x: 0.384, y: -1.1259999}
        - {x: -0.26627716, y: -0.5977571}
        - {x: -0.0021557326, y: -0.2726185}
        - {x: 0.6481214, y: -0.80086136}
        - {x: 0.14700003, y: -0.4956667}
        - {x: 1.2936668, y: -0.4956667}
        - {x: 1.2936668, y: -1.6423335}
        - {x: 0.14700003, y: -1.6423335}
        - {x: -0.4096667, y: 0.5013333}
        - {x: 1.3036668, y: 0.5013333}
        - {x: 1.3036668, y: -1.2120001}
        - {x: -0.4096667, y: -1.2120001}
        - {x: -0.47100002, y: -0.134}
        - {x: 0.8956667, y: -0.134}
        - {x: 0.8956667, y: -0.794}
        - {x: -0.47100002, y: -0.794}
        - {x: 0.708, y: -0.5693334}
        - {x: 1.538874, y: -0.45921925}
        - {x: 1.5939312, y: -0.87465626}
        - {x: 0.76305705, y: -0.9847704}
        UVs: ff57ff807f77ffbfff800000ffd6ff55000000007f807f80ff807f567fb2ffbcff57ff807f77ffbf
        AddColors: 00000000000000000000000000000000000000000000000000000000000000000000000000000000
        MulColors: 00020002000200020002000200020002000200020002000200020002000200020002000200020002
      Materials:
      - {fileID: 2100000, guid: d58d9a5e482e8429f8d7d18a9538d94a, type: 2}
    - Labels: []
      MeshData:
        SubMeshes:
        - StartVertex: 0
          IndexCount: 30
        Vertices:
        - {x: 0.42033333, y: -1.1416667}
        - {x: -0.31692258, y: -0.7419437}
        - {x: -0.117061116, y: -0.37331578}
        - {x: 0.6201948, y: -0.7730387}
        - {x: 0.14700003, y: -0.50333333}
        - {x: 1.2936668, y: -0.50333333}
        - {x: 1.2936668, y: -1.6500001}
        - {x: 0.14700003, y: -1.6500001}
        - {x: -0.4096667, y: 0.4936667}
        - {x: 1.3036668, y: 0.4936667}
        - {x: 1.3036668, y: -1.2196667}
        - {x: -0.4096667, y: -1.2196667}
        - {x: -0.47100002, y: -0.14166667}
        - {x: 0.8956667, y: -0.14166667}
        - {x: 0.8956667, y: -0.8016667}
        - {x: -0.47100002, y: -0.8016667}
        - {x: 0.6616667, y: -0.6003334}
        - {x: 1.4366442, y: -0.2762843}
        - {x: 1.5986687, y: -0.66377306}
        - {x: 0.82369125, y: -0.9878221}
        UVs: ff57ff807f77ffbfff800000ffd6ff55000000007f807f80ff807f567fb2ffbcff57ff807f77ffbf
        AddColors: 00000000000000000000000000000000000000000000000000000000000000000000000000000000
        MulColors: 00020002000200020002000200020002000200020002000200020002000200020002000200020002
      Materials:
      - {fileID: 2100000, guid: d58d9a5e482e8429f8d7d18a9538d94a, type: 2}
